^D:\ADD ON\NORMAL OPS\DROPBOX\NEUMONT\QUARTER 9\GAME ENGINE IMPLEMENTATION AND DEVELOPOMENT\TEMPLATE\BASTIEN_AUXER_BSGD_SA\COMPUTERGRAPHICS\CONVERTER\MAIN.CPP
D:\ADD ON\NORMAL OPS\DROPBOX\NEUMONT\QUARTER 9\GAME ENGINE IMPLEMENTATION AND DEVELOPOMENT\TEMPLATE\BASTIEN_AUXER_BSGD_SA\COMPUTERGRAPHICS\CONVERTER\CONVERTERSYSTEM.H
D:\ADD ON\SCHOOL\VISUAL STUDIO 2012\VC\INCLUDE\VECTOR
D:\ADD ON\SCHOOL\VISUAL STUDIO 2012\VC\INCLUDE\XMEMORY
D:\ADD ON\SCHOOL\VISUAL STUDIO 2012\VC\INCLUDE\XMEMORY0
D:\ADD ON\SCHOOL\VISUAL STUDIO 2012\VC\INCLUDE\CSTDLIB
D:\ADD ON\SCHOOL\VISUAL STUDIO 2012\VC\INCLUDE\YVALS.H
D:\ADD ON\SCHOOL\VISUAL STUDIO 2012\VC\INCLUDE\XKEYCHECK.H
D:\ADD ON\SCHOOL\VISUAL STUDIO 2012\VC\INCLUDE\CRTDEFS.H
D:\ADD ON\SCHOOL\VISUAL STUDIO 2012\VC\INCLUDE\SAL.H
D:\ADD ON\SCHOOL\VISUAL STUDIO 2012\VC\INCLUDE\CONCURRENCYSAL.H
D:\ADD ON\SCHOOL\VISUAL STUDIO 2012\VC\INCLUDE\VADEFS.H
D:\ADD ON\SCHOOL\VISUAL STUDIO 2012\VC\INCLUDE\USE_ANSI.H
D:\ADD ON\SCHOOL\VISUAL STUDIO 2012\VC\INCLUDE\STDLIB.H
D:\ADD ON\SCHOOL\VISUAL STUDIO 2012\VC\INCLUDE\LIMITS.H
D:\ADD ON\SCHOOL\VISUAL STUDIO 2012\VC\INCLUDE\LIMITS
D:\ADD ON\SCHOOL\VISUAL STUDIO 2012\VC\INCLUDE\YMATH.H
D:\ADD ON\SCHOOL\VISUAL STUDIO 2012\VC\INCLUDE\CFLOAT
D:\ADD ON\SCHOOL\VISUAL STUDIO 2012\VC\INCLUDE\FLOAT.H
D:\ADD ON\SCHOOL\VISUAL STUDIO 2012\VC\INCLUDE\CRTWRN.H
D:\ADD ON\SCHOOL\VISUAL STUDIO 2012\VC\INCLUDE\CLIMITS
D:\ADD ON\SCHOOL\VISUAL STUDIO 2012\VC\INCLUDE\CMATH
D:\ADD ON\SCHOOL\VISUAL STUDIO 2012\VC\INCLUDE\MATH.H
D:\ADD ON\SCHOOL\VISUAL STUDIO 2012\VC\INCLUDE\XTGMATH.H
D:\ADD ON\SCHOOL\VISUAL STUDIO 2012\VC\INCLUDE\XTR1COMMON
D:\ADD ON\SCHOOL\VISUAL STUDIO 2012\VC\INCLUDE\CWCHAR
D:\ADD ON\SCHOOL\VISUAL STUDIO 2012\VC\INCLUDE\WCHAR.H
D:\ADD ON\SCHOOL\VISUAL STUDIO 2012\VC\INCLUDE\SWPRINTF.INL
D:\ADD ON\SCHOOL\VISUAL STUDIO 2012\VC\INCLUDE\WTIME.INL
D:\ADD ON\SCHOOL\VISUAL STUDIO 2012\VC\INCLUDE\XSTDDEF
D:\ADD ON\SCHOOL\VISUAL STUDIO 2012\VC\INCLUDE\CSTDDEF
D:\ADD ON\SCHOOL\VISUAL STUDIO 2012\VC\INCLUDE\STDDEF.H
D:\ADD ON\SCHOOL\VISUAL STUDIO 2012\VC\INCLUDE\NEW
D:\ADD ON\SCHOOL\VISUAL STUDIO 2012\VC\INCLUDE\EXCEPTION
D:\ADD ON\SCHOOL\VISUAL STUDIO 2012\VC\INCLUDE\EH.H
D:\ADD ON\SCHOOL\VISUAL STUDIO 2012\VC\INCLUDE\MALLOC.H
D:\ADD ON\SCHOOL\VISUAL STUDIO 2012\VC\INCLUDE\STRING.H
D:\ADD ON\SCHOOL\VISUAL STUDIO 2012\VC\INCLUDE\XUTILITY
D:\ADD ON\SCHOOL\VISUAL STUDIO 2012\VC\INCLUDE\UTILITY
D:\ADD ON\SCHOOL\VISUAL STUDIO 2012\VC\INCLUDE\IOSFWD
D:\ADD ON\SCHOOL\VISUAL STUDIO 2012\VC\INCLUDE\CSTDIO
D:\ADD ON\SCHOOL\VISUAL STUDIO 2012\VC\INCLUDE\STDIO.H
D:\ADD ON\SCHOOL\VISUAL STUDIO 2012\VC\INCLUDE\CSTRING
D:\ADD ON\SCHOOL\VISUAL STUDIO 2012\VC\INCLUDE\CRTDBG.H
D:\ADD ON\SCHOOL\VISUAL STUDIO 2012\VC\INCLUDE\TYPE_TRAITS
D:\ADD ON\SCHOOL\VISUAL STUDIO 2012\VC\INCLUDE\XREFWRAP
D:\ADD ON\SCHOOL\VISUAL STUDIO 2012\VC\INCLUDE\XATOMIC0.H
D:\ADD ON\SCHOOL\VISUAL STUDIO 2012\VC\INCLUDE\INTRIN.H
D:\ADD ON\SCHOOL\VISUAL STUDIO 2012\VC\INCLUDE\SETJMP.H
D:\ADD ON\SCHOOL\VISUAL STUDIO 2012\VC\INCLUDE\IMMINTRIN.H
D:\ADD ON\SCHOOL\VISUAL STUDIO 2012\VC\INCLUDE\WMMINTRIN.H
D:\ADD ON\SCHOOL\VISUAL STUDIO 2012\VC\INCLUDE\NMMINTRIN.H
D:\ADD ON\SCHOOL\VISUAL STUDIO 2012\VC\INCLUDE\SMMINTRIN.H
D:\ADD ON\SCHOOL\VISUAL STUDIO 2012\VC\INCLUDE\TMMINTRIN.H
D:\ADD ON\SCHOOL\VISUAL STUDIO 2012\VC\INCLUDE\PMMINTRIN.H
D:\ADD ON\SCHOOL\VISUAL STUDIO 2012\VC\INCLUDE\EMMINTRIN.H
D:\ADD ON\SCHOOL\VISUAL STUDIO 2012\VC\INCLUDE\XMMINTRIN.H
D:\ADD ON\SCHOOL\VISUAL STUDIO 2012\VC\INCLUDE\MMINTRIN.H
D:\ADD ON\SCHOOL\VISUAL STUDIO 2012\VC\INCLUDE\AMMINTRIN.H
D:\ADD ON\SCHOOL\VISUAL STUDIO 2012\VC\INCLUDE\MM3DNOW.H
D:\ADD ON\SCHOOL\VISUAL STUDIO 2012\VC\INCLUDE\STDEXCEPT
D:\ADD ON\SCHOOL\VISUAL STUDIO 2012\VC\INCLUDE\XSTRING
D:\ADD ON\SCHOOL\VISUAL STUDIO 2012\VC\INCLUDE\STRING
D:\ADD ON\SCHOOL\VISUAL STUDIO 2012\VC\INCLUDE\ITERATOR
D:\ADD ON\SCHOOL\VISUAL STUDIO 2012\VC\INCLUDE\ISTREAM
D:\ADD ON\SCHOOL\VISUAL STUDIO 2012\VC\INCLUDE\OSTREAM
D:\ADD ON\SCHOOL\VISUAL STUDIO 2012\VC\INCLUDE\IOS
D:\ADD ON\SCHOOL\VISUAL STUDIO 2012\VC\INCLUDE\XLOCNUM
D:\ADD ON\SCHOOL\VISUAL STUDIO 2012\VC\INCLUDE\STREAMBUF
D:\ADD ON\SCHOOL\VISUAL STUDIO 2012\VC\INCLUDE\XIOSBASE
D:\ADD ON\SCHOOL\VISUAL STUDIO 2012\VC\INCLUDE\XLOCALE
D:\ADD ON\SCHOOL\VISUAL STUDIO 2012\VC\INCLUDE\TYPEINFO
D:\ADD ON\SCHOOL\VISUAL STUDIO 2012\VC\INCLUDE\XLOCINFO
D:\ADD ON\SCHOOL\VISUAL STUDIO 2012\VC\INCLUDE\XLOCINFO.H
D:\ADD ON\SCHOOL\VISUAL STUDIO 2012\VC\INCLUDE\CTYPE.H
D:\ADD ON\SCHOOL\VISUAL STUDIO 2012\VC\INCLUDE\LOCALE.H
D:\ADD ON\SCHOOL\VISUAL STUDIO 2012\VC\INCLUDE\XDEBUG
D:\ADD ON\SCHOOL\VISUAL STUDIO 2012\VC\INCLUDE\XFACET
D:\ADD ON\SCHOOL\VISUAL STUDIO 2012\VC\INCLUDE\SYSTEM_ERROR
D:\ADD ON\SCHOOL\VISUAL STUDIO 2012\VC\INCLUDE\CERRNO
D:\ADD ON\SCHOOL\VISUAL STUDIO 2012\VC\INCLUDE\ERRNO.H
D:\ADD ON\SCHOOL\VISUAL STUDIO 2012\VC\INCLUDE\SHARE.H
D:\ADD ON\NORMAL OPS\DROPBOX\NEUMONT\QUARTER 9\GAME ENGINE IMPLEMENTATION AND DEVELOPOMENT\TEMPLATE\BASTIEN_AUXER_BSGD_SA\COMPUTERGRAPHICS\CONVERTER\UTILITY\FILEGRABBER.H
D:\ADD ON\SCHOOL\VISUAL STUDIO 2012\VC\INCLUDE\IOSTREAM
C:\PROGRAM FILES (X86)\WINDOWS KITS\8.0\INCLUDE\UM\WINDOWS.H
C:\PROGRAM FILES (X86)\WINDOWS KITS\8.0\INCLUDE\SHARED\WINAPIFAMILY.H
C:\PROGRAM FILES (X86)\WINDOWS KITS\8.0\INCLUDE\SHARED\SDKDDKVER.H
D:\ADD ON\SCHOOL\VISUAL STUDIO 2012\VC\INCLUDE\EXCPT.H
D:\ADD ON\SCHOOL\VISUAL STUDIO 2012\VC\INCLUDE\STDARG.H
C:\PROGRAM FILES (X86)\WINDOWS KITS\8.0\INCLUDE\SHARED\WINDEF.H
C:\PROGRAM FILES (X86)\WINDOWS KITS\8.0\INCLUDE\SHARED\MINWINDEF.H
C:\PROGRAM FILES (X86)\WINDOWS KITS\8.0\INCLUDE\SHARED\SPECSTRINGS.H
C:\PROGRAM FILES (X86)\WINDOWS KITS\8.0\INCLUDE\SHARED\SPECSTRINGS_STRICT.H
C:\PROGRAM FILES (X86)\WINDOWS KITS\8.0\INCLUDE\SHARED\SPECSTRINGS_UNDEF.H
C:\PROGRAM FILES (X86)\WINDOWS KITS\8.0\INCLUDE\SHARED\DRIVERSPECS.H
C:\PROGRAM FILES (X86)\WINDOWS KITS\8.0\INCLUDE\SHARED\SDV_DRIVERSPECS.H
C:\PROGRAM FILES (X86)\WINDOWS KITS\8.0\INCLUDE\UM\WINNT.H
C:\PROGRAM FILES (X86)\WINDOWS KITS\8.0\INCLUDE\SHARED\KERNELSPECS.H
C:\PROGRAM FILES (X86)\WINDOWS KITS\8.0\INCLUDE\SHARED\BASETSD.H
C:\PROGRAM FILES (X86)\WINDOWS KITS\8.0\INCLUDE\SHARED\GUIDDEF.H
C:\PROGRAM FILES (X86)\WINDOWS KITS\8.0\INCLUDE\SHARED\PSHPACK4.H
C:\PROGRAM FILES (X86)\WINDOWS KITS\8.0\INCLUDE\SHARED\POPPACK.H
C:\PROGRAM FILES (X86)\WINDOWS KITS\8.0\INCLUDE\SHARED\PSHPACK2.H
C:\PROGRAM FILES (X86)\WINDOWS KITS\8.0\INCLUDE\SHARED\PSHPACK8.H
C:\PROGRAM FILES (X86)\WINDOWS KITS\8.0\INCLUDE\SHARED\APISET.H
C:\PROGRAM FILES (X86)\WINDOWS KITS\8.0\INCLUDE\SHARED\KTMTYPES.H
C:\PROGRAM FILES (X86)\WINDOWS KITS\8.0\INCLUDE\UM\WINBASE.H
C:\PROGRAM FILES (X86)\WINDOWS KITS\8.0\INCLUDE\SHARED\APISETCCONV.H
C:\PROGRAM FILES (X86)\WINDOWS KITS\8.0\INCLUDE\UM\MINWINBASE.H
C:\PROGRAM FILES (X86)\WINDOWS KITS\8.0\INCLUDE\UM\PROCESSENV.H
C:\PROGRAM FILES (X86)\WINDOWS KITS\8.0\INCLUDE\UM\FILEAPI.H
C:\PROGRAM FILES (X86)\WINDOWS KITS\8.0\INCLUDE\UM\DEBUGAPI.H
C:\PROGRAM FILES (X86)\WINDOWS KITS\8.0\INCLUDE\UM\UTILAPISET.H
C:\PROGRAM FILES (X86)\WINDOWS KITS\8.0\INCLUDE\UM\HANDLEAPI.H
C:\PROGRAM FILES (X86)\WINDOWS KITS\8.0\INCLUDE\UM\ERRHANDLINGAPI.H
C:\PROGRAM FILES (X86)\WINDOWS KITS\8.0\INCLUDE\UM\FIBERSAPI.H
C:\PROGRAM FILES (X86)\WINDOWS KITS\8.0\INCLUDE\UM\NAMEDPIPEAPI.H
C:\PROGRAM FILES (X86)\WINDOWS KITS\8.0\INCLUDE\UM\PROFILEAPI.H
C:\PROGRAM FILES (X86)\WINDOWS KITS\8.0\INCLUDE\UM\HEAPAPI.H
C:\PROGRAM FILES (X86)\WINDOWS KITS\8.0\INCLUDE\UM\IOAPISET.H
C:\PROGRAM FILES (X86)\WINDOWS KITS\8.0\INCLUDE\UM\SYNCHAPI.H
C:\PROGRAM FILES (X86)\WINDOWS KITS\8.0\INCLUDE\UM\INTERLOCKEDAPI.H
C:\PROGRAM FILES (X86)\WINDOWS KITS\8.0\INCLUDE\UM\PROCESSTHREADSAPI.H
C:\PROGRAM FILES (X86)\WINDOWS KITS\8.0\INCLUDE\UM\SYSINFOAPI.H
C:\PROGRAM FILES (X86)\WINDOWS KITS\8.0\INCLUDE\UM\MEMORYAPI.H
C:\PROGRAM FILES (X86)\WINDOWS KITS\8.0\INCLUDE\UM\THREADPOOLLEGACYAPISET.H
C:\PROGRAM FILES (X86)\WINDOWS KITS\8.0\INCLUDE\UM\THREADPOOLAPISET.H
C:\PROGRAM FILES (X86)\WINDOWS KITS\8.0\INCLUDE\UM\BEMAPISET.H
C:\PROGRAM FILES (X86)\WINDOWS KITS\8.0\INCLUDE\UM\JOBAPI.H
C:\PROGRAM FILES (X86)\WINDOWS KITS\8.0\INCLUDE\UM\WOW64APISET.H
C:\PROGRAM FILES (X86)\WINDOWS KITS\8.0\INCLUDE\UM\LIBLOADERAPI.H
C:\PROGRAM FILES (X86)\WINDOWS KITS\8.0\INCLUDE\UM\SECURITYBASEAPI.H
C:\PROGRAM FILES (X86)\WINDOWS KITS\8.0\INCLUDE\UM\NAMESPACEAPI.H
C:\PROGRAM FILES (X86)\WINDOWS KITS\8.0\INCLUDE\UM\SYSTEMTOPOLOGYAPI.H
C:\PROGRAM FILES (X86)\WINDOWS KITS\8.0\INCLUDE\UM\PROCESSTOPOLOGYAPI.H
C:\PROGRAM FILES (X86)\WINDOWS KITS\8.0\INCLUDE\UM\SECURITYAPPCONTAINER.H
C:\PROGRAM FILES (X86)\WINDOWS KITS\8.0\INCLUDE\UM\REALTIMEAPISET.H
C:\PROGRAM FILES (X86)\WINDOWS KITS\8.0\INCLUDE\SHARED\WINERROR.H
C:\PROGRAM FILES (X86)\WINDOWS KITS\8.0\INCLUDE\UM\TIMEZONEAPI.H
C:\PROGRAM FILES (X86)\WINDOWS KITS\8.0\INCLUDE\UM\WINGDI.H
C:\PROGRAM FILES (X86)\WINDOWS KITS\8.0\INCLUDE\SHARED\PSHPACK1.H
C:\PROGRAM FILES (X86)\WINDOWS KITS\8.0\INCLUDE\UM\WINUSER.H
C:\PROGRAM FILES (X86)\WINDOWS KITS\8.0\INCLUDE\SHARED\TVOUT.H
C:\PROGRAM FILES (X86)\WINDOWS KITS\8.0\INCLUDE\UM\WINNLS.H
C:\PROGRAM FILES (X86)\WINDOWS KITS\8.0\INCLUDE\UM\DATETIMEAPI.H
C:\PROGRAM FILES (X86)\WINDOWS KITS\8.0\INCLUDE\UM\STRINGAPISET.H
C:\PROGRAM FILES (X86)\WINDOWS KITS\8.0\INCLUDE\UM\WINCON.H
C:\PROGRAM FILES (X86)\WINDOWS KITS\8.0\INCLUDE\UM\CONSOLEAPI.H
C:\PROGRAM FILES (X86)\WINDOWS KITS\8.0\INCLUDE\UM\WINVER.H
C:\PROGRAM FILES (X86)\WINDOWS KITS\8.0\INCLUDE\UM\VERRSRC.H
C:\PROGRAM FILES (X86)\WINDOWS KITS\8.0\INCLUDE\UM\WINREG.H
C:\PROGRAM FILES (X86)\WINDOWS KITS\8.0\INCLUDE\UM\REASON.H
C:\PROGRAM FILES (X86)\WINDOWS KITS\8.0\INCLUDE\UM\WINNETWK.H
C:\PROGRAM FILES (X86)\WINDOWS KITS\8.0\INCLUDE\SHARED\WNNC.H
C:\PROGRAM FILES (X86)\WINDOWS KITS\8.0\INCLUDE\SHARED\CDERR.H
C:\PROGRAM FILES (X86)\WINDOWS KITS\8.0\INCLUDE\UM\DDE.H
C:\PROGRAM FILES (X86)\WINDOWS KITS\8.0\INCLUDE\UM\DDEML.H
C:\PROGRAM FILES (X86)\WINDOWS KITS\8.0\INCLUDE\UM\DLGS.H
C:\PROGRAM FILES (X86)\WINDOWS KITS\8.0\INCLUDE\UM\LZEXPAND.H
C:\PROGRAM FILES (X86)\WINDOWS KITS\8.0\INCLUDE\UM\MMSYSTEM.H
C:\PROGRAM FILES (X86)\WINDOWS KITS\8.0\INCLUDE\UM\MMSYSCOM.H
C:\PROGRAM FILES (X86)\WINDOWS KITS\8.0\INCLUDE\UM\MCIAPI.H
C:\PROGRAM FILES (X86)\WINDOWS KITS\8.0\INCLUDE\UM\MMISCAPI.H
C:\PROGRAM FILES (X86)\WINDOWS KITS\8.0\INCLUDE\UM\MMISCAPI2.H
C:\PROGRAM FILES (X86)\WINDOWS KITS\8.0\INCLUDE\UM\PLAYSOUNDAPI.H
C:\PROGRAM FILES (X86)\WINDOWS KITS\8.0\INCLUDE\UM\MMEAPI.H
C:\PROGRAM FILES (X86)\WINDOWS KITS\8.0\INCLUDE\UM\TIMEAPI.H
C:\PROGRAM FILES (X86)\WINDOWS KITS\8.0\INCLUDE\UM\JOYSTICKAPI.H
C:\PROGRAM FILES (X86)\WINDOWS KITS\8.0\INCLUDE\UM\NB30.H
C:\PROGRAM FILES (X86)\WINDOWS KITS\8.0\INCLUDE\SHARED\RPC.H
C:\PROGRAM FILES (X86)\WINDOWS KITS\8.0\INCLUDE\SHARED\RPCDCE.H
C:\PROGRAM FILES (X86)\WINDOWS KITS\8.0\INCLUDE\SHARED\RPCDCEP.H
C:\PROGRAM FILES (X86)\WINDOWS KITS\8.0\INCLUDE\UM\RPCNSI.H
C:\PROGRAM FILES (X86)\WINDOWS KITS\8.0\INCLUDE\SHARED\RPCNTERR.H
C:\PROGRAM FILES (X86)\WINDOWS KITS\8.0\INCLUDE\SHARED\RPCASYNC.H
C:\PROGRAM FILES (X86)\WINDOWS KITS\8.0\INCLUDE\UM\SHELLAPI.H
C:\PROGRAM FILES (X86)\WINDOWS KITS\8.0\INCLUDE\UM\WINPERF.H
C:\PROGRAM FILES (X86)\WINDOWS KITS\8.0\INCLUDE\UM\WINSOCK.H
C:\PROGRAM FILES (X86)\WINDOWS KITS\8.0\INCLUDE\SHARED\INADDR.H
C:\PROGRAM FILES (X86)\WINDOWS KITS\8.0\INCLUDE\UM\WINCRYPT.H
C:\PROGRAM FILES (X86)\WINDOWS KITS\8.0\INCLUDE\SHARED\BCRYPT.H
C:\PROGRAM FILES (X86)\WINDOWS KITS\8.0\INCLUDE\UM\NCRYPT.H
C:\PROGRAM FILES (X86)\WINDOWS KITS\8.0\INCLUDE\UM\DPAPI.H
C:\PROGRAM FILES (X86)\WINDOWS KITS\8.0\INCLUDE\UM\WINEFS.H
C:\PROGRAM FILES (X86)\WINDOWS KITS\8.0\INCLUDE\UM\WINSCARD.H
C:\PROGRAM FILES (X86)\WINDOWS KITS\8.0\INCLUDE\SHARED\WTYPES.H
C:\PROGRAM FILES (X86)\WINDOWS KITS\8.0\INCLUDE\SHARED\RPCNDR.H
C:\PROGRAM FILES (X86)\WINDOWS KITS\8.0\INCLUDE\UM\RPCNSIP.H
C:\PROGRAM FILES (X86)\WINDOWS KITS\8.0\INCLUDE\SHARED\RPCSAL.H
C:\PROGRAM FILES (X86)\WINDOWS KITS\8.0\INCLUDE\SHARED\WTYPESBASE.H
C:\PROGRAM FILES (X86)\WINDOWS KITS\8.0\INCLUDE\UM\WINIOCTL.H
C:\PROGRAM FILES (X86)\WINDOWS KITS\8.0\INCLUDE\SHARED\WINSMCRD.H
C:\PROGRAM FILES (X86)\WINDOWS KITS\8.0\INCLUDE\UM\WINSPOOL.H
C:\PROGRAM FILES (X86)\WINDOWS KITS\8.0\INCLUDE\UM\PRSHT.H
C:\PROGRAM FILES (X86)\WINDOWS KITS\8.0\INCLUDE\UM\OLE2.H
C:\PROGRAM FILES (X86)\WINDOWS KITS\8.0\INCLUDE\UM\OBJBASE.H
C:\PROGRAM FILES (X86)\WINDOWS KITS\8.0\INCLUDE\UM\COMBASEAPI.H
C:\PROGRAM FILES (X86)\WINDOWS KITS\8.0\INCLUDE\UM\UNKNWNBASE.H
C:\PROGRAM FILES (X86)\WINDOWS KITS\8.0\INCLUDE\UM\OBJIDLBASE.H
C:\PROGRAM FILES (X86)\WINDOWS KITS\8.0\INCLUDE\UM\CGUID.H
C:\PROGRAM FILES (X86)\WINDOWS KITS\8.0\INCLUDE\UM\OBJIDL.H
C:\PROGRAM FILES (X86)\WINDOWS KITS\8.0\INCLUDE\UM\UNKNWN.H
C:\PROGRAM FILES (X86)\WINDOWS KITS\8.0\INCLUDE\UM\URLMON.H
C:\PROGRAM FILES (X86)\WINDOWS KITS\8.0\INCLUDE\UM\OLEIDL.H
C:\PROGRAM FILES (X86)\WINDOWS KITS\8.0\INCLUDE\UM\SERVPROV.H
C:\PROGRAM FILES (X86)\WINDOWS KITS\8.0\INCLUDE\UM\MSXML.H
C:\PROGRAM FILES (X86)\WINDOWS KITS\8.0\INCLUDE\UM\OAIDL.H
C:\PROGRAM FILES (X86)\WINDOWS KITS\8.0\INCLUDE\UM\PROPIDL.H
C:\PROGRAM FILES (X86)\WINDOWS KITS\8.0\INCLUDE\UM\OLEAUTO.H
C:\PROGRAM FILES (X86)\WINDOWS KITS\8.0\INCLUDE\UM\COMMDLG.H
C:\PROGRAM FILES (X86)\WINDOWS KITS\8.0\INCLUDE\SHARED\STRALIGN.H
C:\PROGRAM FILES (X86)\WINDOWS KITS\8.0\INCLUDE\UM\WINSVC.H
C:\PROGRAM FILES (X86)\WINDOWS KITS\8.0\INCLUDE\UM\MCX.H
C:\PROGRAM FILES (X86)\WINDOWS KITS\8.0\INCLUDE\UM\IMM.H
C:\PROGRAM FILES (X86)\WINDOWS KITS\8.0\INCLUDE\UM\IME_CMODES.H
^D:\ADD ON\NORMAL OPS\DROPBOX\NEUMONT\QUARTER 9\GAME ENGINE IMPLEMENTATION AND DEVELOPOMENT\TEMPLATE\BASTIEN_AUXER_BSGD_SA\COMPUTERGRAPHICS\CONVERTER\UTILITY\FILEGRABBER.CPP
D:\ADD ON\NORMAL OPS\DROPBOX\NEUMONT\QUARTER 9\GAME ENGINE IMPLEMENTATION AND DEVELOPOMENT\TEMPLATE\BASTIEN_AUXER_BSGD_SA\COMPUTERGRAPHICS\CONVERTER\UTILITY\FILEGRABBER.H
D:\ADD ON\SCHOOL\VISUAL STUDIO 2012\VC\INCLUDE\STRING
D:\ADD ON\SCHOOL\VISUAL STUDIO 2012\VC\INCLUDE\ITERATOR
D:\ADD ON\SCHOOL\VISUAL STUDIO 2012\VC\INCLUDE\ISTREAM
D:\ADD ON\SCHOOL\VISUAL STUDIO 2012\VC\INCLUDE\OSTREAM
D:\ADD ON\SCHOOL\VISUAL STUDIO 2012\VC\INCLUDE\IOS
D:\ADD ON\SCHOOL\VISUAL STUDIO 2012\VC\INCLUDE\XLOCNUM
D:\ADD ON\SCHOOL\VISUAL STUDIO 2012\VC\INCLUDE\CLIMITS
D:\ADD ON\SCHOOL\VISUAL STUDIO 2012\VC\INCLUDE\YVALS.H
D:\ADD ON\SCHOOL\VISUAL STUDIO 2012\VC\INCLUDE\XKEYCHECK.H
D:\ADD ON\SCHOOL\VISUAL STUDIO 2012\VC\INCLUDE\CRTDEFS.H
D:\ADD ON\SCHOOL\VISUAL STUDIO 2012\VC\INCLUDE\SAL.H
D:\ADD ON\SCHOOL\VISUAL STUDIO 2012\VC\INCLUDE\CONCURRENCYSAL.H
D:\ADD ON\SCHOOL\VISUAL STUDIO 2012\VC\INCLUDE\VADEFS.H
D:\ADD ON\SCHOOL\VISUAL STUDIO 2012\VC\INCLUDE\USE_ANSI.H
D:\ADD ON\SCHOOL\VISUAL STUDIO 2012\VC\INCLUDE\LIMITS.H
D:\ADD ON\SCHOOL\VISUAL STUDIO 2012\VC\INCLUDE\CMATH
D:\ADD ON\SCHOOL\VISUAL STUDIO 2012\VC\INCLUDE\MATH.H
D:\ADD ON\SCHOOL\VISUAL STUDIO 2012\VC\INCLUDE\XTGMATH.H
D:\ADD ON\SCHOOL\VISUAL STUDIO 2012\VC\INCLUDE\XTR1COMMON
D:\ADD ON\SCHOOL\VISUAL STUDIO 2012\VC\INCLUDE\CSTDIO
D:\ADD ON\SCHOOL\VISUAL STUDIO 2012\VC\INCLUDE\STDIO.H
D:\ADD ON\SCHOOL\VISUAL STUDIO 2012\VC\INCLUDE\SWPRINTF.INL
D:\ADD ON\SCHOOL\VISUAL STUDIO 2012\VC\INCLUDE\CSTDLIB
D:\ADD ON\SCHOOL\VISUAL STUDIO 2012\VC\INCLUDE\STDLIB.H
D:\ADD ON\SCHOOL\VISUAL STUDIO 2012\VC\INCLUDE\STREAMBUF
D:\ADD ON\SCHOOL\VISUAL STUDIO 2012\VC\INCLUDE\XIOSBASE
D:\ADD ON\SCHOOL\VISUAL STUDIO 2012\VC\INCLUDE\XLOCALE
D:\ADD ON\SCHOOL\VISUAL STUDIO 2012\VC\INCLUDE\CSTRING
D:\ADD ON\SCHOOL\VISUAL STUDIO 2012\VC\INCLUDE\STRING.H
D:\ADD ON\SCHOOL\VISUAL STUDIO 2012\VC\INCLUDE\STDEXCEPT
D:\ADD ON\SCHOOL\VISUAL STUDIO 2012\VC\INCLUDE\EXCEPTION
D:\ADD ON\SCHOOL\VISUAL STUDIO 2012\VC\INCLUDE\XSTDDEF
D:\ADD ON\SCHOOL\VISUAL STUDIO 2012\VC\INCLUDE\CSTDDEF
D:\ADD ON\SCHOOL\VISUAL STUDIO 2012\VC\INCLUDE\STDDEF.H
D:\ADD ON\SCHOOL\VISUAL STUDIO 2012\VC\INCLUDE\EH.H
D:\ADD ON\SCHOOL\VISUAL STUDIO 2012\VC\INCLUDE\MALLOC.H
D:\ADD ON\SCHOOL\VISUAL STUDIO 2012\VC\INCLUDE\XSTRING
D:\ADD ON\SCHOOL\VISUAL STUDIO 2012\VC\INCLUDE\XMEMORY0
D:\ADD ON\SCHOOL\VISUAL STUDIO 2012\VC\INCLUDE\LIMITS
D:\ADD ON\SCHOOL\VISUAL STUDIO 2012\VC\INCLUDE\YMATH.H
D:\ADD ON\SCHOOL\VISUAL STUDIO 2012\VC\INCLUDE\CFLOAT
D:\ADD ON\SCHOOL\VISUAL STUDIO 2012\VC\INCLUDE\FLOAT.H
D:\ADD ON\SCHOOL\VISUAL STUDIO 2012\VC\INCLUDE\CRTWRN.H
D:\ADD ON\SCHOOL\VISUAL STUDIO 2012\VC\INCLUDE\CWCHAR
D:\ADD ON\SCHOOL\VISUAL STUDIO 2012\VC\INCLUDE\WCHAR.H
D:\ADD ON\SCHOOL\VISUAL STUDIO 2012\VC\INCLUDE\WTIME.INL
D:\ADD ON\SCHOOL\VISUAL STUDIO 2012\VC\INCLUDE\NEW
D:\ADD ON\SCHOOL\VISUAL STUDIO 2012\VC\INCLUDE\XUTILITY
D:\ADD ON\SCHOOL\VISUAL STUDIO 2012\VC\INCLUDE\UTILITY
D:\ADD ON\SCHOOL\VISUAL STUDIO 2012\VC\INCLUDE\IOSFWD
D:\ADD ON\SCHOOL\VISUAL STUDIO 2012\VC\INCLUDE\CRTDBG.H
D:\ADD ON\SCHOOL\VISUAL STUDIO 2012\VC\INCLUDE\TYPE_TRAITS
D:\ADD ON\SCHOOL\VISUAL STUDIO 2012\VC\INCLUDE\XREFWRAP
D:\ADD ON\SCHOOL\VISUAL STUDIO 2012\VC\INCLUDE\XATOMIC0.H
D:\ADD ON\SCHOOL\VISUAL STUDIO 2012\VC\INCLUDE\INTRIN.H
D:\ADD ON\SCHOOL\VISUAL STUDIO 2012\VC\INCLUDE\SETJMP.H
D:\ADD ON\SCHOOL\VISUAL STUDIO 2012\VC\INCLUDE\IMMINTRIN.H
D:\ADD ON\SCHOOL\VISUAL STUDIO 2012\VC\INCLUDE\WMMINTRIN.H
D:\ADD ON\SCHOOL\VISUAL STUDIO 2012\VC\INCLUDE\NMMINTRIN.H
D:\ADD ON\SCHOOL\VISUAL STUDIO 2012\VC\INCLUDE\SMMINTRIN.H
D:\ADD ON\SCHOOL\VISUAL STUDIO 2012\VC\INCLUDE\TMMINTRIN.H
D:\ADD ON\SCHOOL\VISUAL STUDIO 2012\VC\INCLUDE\PMMINTRIN.H
D:\ADD ON\SCHOOL\VISUAL STUDIO 2012\VC\INCLUDE\EMMINTRIN.H
D:\ADD ON\SCHOOL\VISUAL STUDIO 2012\VC\INCLUDE\XMMINTRIN.H
D:\ADD ON\SCHOOL\VISUAL STUDIO 2012\VC\INCLUDE\MMINTRIN.H
D:\ADD ON\SCHOOL\VISUAL STUDIO 2012\VC\INCLUDE\AMMINTRIN.H
D:\ADD ON\SCHOOL\VISUAL STUDIO 2012\VC\INCLUDE\MM3DNOW.H
D:\ADD ON\SCHOOL\VISUAL STUDIO 2012\VC\INCLUDE\TYPEINFO
D:\ADD ON\SCHOOL\VISUAL STUDIO 2012\VC\INCLUDE\XLOCINFO
D:\ADD ON\SCHOOL\VISUAL STUDIO 2012\VC\INCLUDE\XLOCINFO.H
D:\ADD ON\SCHOOL\VISUAL STUDIO 2012\VC\INCLUDE\CTYPE.H
D:\ADD ON\SCHOOL\VISUAL STUDIO 2012\VC\INCLUDE\LOCALE.H
D:\ADD ON\SCHOOL\VISUAL STUDIO 2012\VC\INCLUDE\XDEBUG
D:\ADD ON\SCHOOL\VISUAL STUDIO 2012\VC\INCLUDE\XMEMORY
D:\ADD ON\SCHOOL\VISUAL STUDIO 2012\VC\INCLUDE\XFACET
D:\ADD ON\SCHOOL\VISUAL STUDIO 2012\VC\INCLUDE\SYSTEM_ERROR
D:\ADD ON\SCHOOL\VISUAL STUDIO 2012\VC\INCLUDE\CERRNO
D:\ADD ON\SCHOOL\VISUAL STUDIO 2012\VC\INCLUDE\ERRNO.H
D:\ADD ON\SCHOOL\VISUAL STUDIO 2012\VC\INCLUDE\SHARE.H
D:\ADD ON\SCHOOL\VISUAL STUDIO 2012\VC\INCLUDE\IOSTREAM
D:\ADD ON\SCHOOL\VISUAL STUDIO 2012\VC\INCLUDE\VECTOR
C:\PROGRAM FILES (X86)\WINDOWS KITS\8.0\INCLUDE\UM\WINDOWS.H
C:\PROGRAM FILES (X86)\WINDOWS KITS\8.0\INCLUDE\SHARED\WINAPIFAMILY.H
C:\PROGRAM FILES (X86)\WINDOWS KITS\8.0\INCLUDE\SHARED\SDKDDKVER.H
D:\ADD ON\SCHOOL\VISUAL STUDIO 2012\VC\INCLUDE\EXCPT.H
D:\ADD ON\SCHOOL\VISUAL STUDIO 2012\VC\INCLUDE\STDARG.H
C:\PROGRAM FILES (X86)\WINDOWS KITS\8.0\INCLUDE\SHARED\WINDEF.H
C:\PROGRAM FILES (X86)\WINDOWS KITS\8.0\INCLUDE\SHARED\MINWINDEF.H
C:\PROGRAM FILES (X86)\WINDOWS KITS\8.0\INCLUDE\SHARED\SPECSTRINGS.H
C:\PROGRAM FILES (X86)\WINDOWS KITS\8.0\INCLUDE\SHARED\SPECSTRINGS_STRICT.H
C:\PROGRAM FILES (X86)\WINDOWS KITS\8.0\INCLUDE\SHARED\SPECSTRINGS_UNDEF.H
C:\PROGRAM FILES (X86)\WINDOWS KITS\8.0\INCLUDE\SHARED\DRIVERSPECS.H
C:\PROGRAM FILES (X86)\WINDOWS KITS\8.0\INCLUDE\SHARED\SDV_DRIVERSPECS.H
C:\PROGRAM FILES (X86)\WINDOWS KITS\8.0\INCLUDE\UM\WINNT.H
C:\PROGRAM FILES (X86)\WINDOWS KITS\8.0\INCLUDE\SHARED\KERNELSPECS.H
C:\PROGRAM FILES (X86)\WINDOWS KITS\8.0\INCLUDE\SHARED\BASETSD.H
C:\PROGRAM FILES (X86)\WINDOWS KITS\8.0\INCLUDE\SHARED\GUIDDEF.H
C:\PROGRAM FILES (X86)\WINDOWS KITS\8.0\INCLUDE\SHARED\PSHPACK4.H
C:\PROGRAM FILES (X86)\WINDOWS KITS\8.0\INCLUDE\SHARED\POPPACK.H
C:\PROGRAM FILES (X86)\WINDOWS KITS\8.0\INCLUDE\SHARED\PSHPACK2.H
C:\PROGRAM FILES (X86)\WINDOWS KITS\8.0\INCLUDE\SHARED\PSHPACK8.H
C:\PROGRAM FILES (X86)\WINDOWS KITS\8.0\INCLUDE\SHARED\APISET.H
C:\PROGRAM FILES (X86)\WINDOWS KITS\8.0\INCLUDE\SHARED\KTMTYPES.H
C:\PROGRAM FILES (X86)\WINDOWS KITS\8.0\INCLUDE\UM\WINBASE.H
C:\PROGRAM FILES (X86)\WINDOWS KITS\8.0\INCLUDE\SHARED\APISETCCONV.H
C:\PROGRAM FILES (X86)\WINDOWS KITS\8.0\INCLUDE\UM\MINWINBASE.H
C:\PROGRAM FILES (X86)\WINDOWS KITS\8.0\INCLUDE\UM\PROCESSENV.H
C:\PROGRAM FILES (X86)\WINDOWS KITS\8.0\INCLUDE\UM\FILEAPI.H
C:\PROGRAM FILES (X86)\WINDOWS KITS\8.0\INCLUDE\UM\DEBUGAPI.H
C:\PROGRAM FILES (X86)\WINDOWS KITS\8.0\INCLUDE\UM\UTILAPISET.H
C:\PROGRAM FILES (X86)\WINDOWS KITS\8.0\INCLUDE\UM\HANDLEAPI.H
C:\PROGRAM FILES (X86)\WINDOWS KITS\8.0\INCLUDE\UM\ERRHANDLINGAPI.H
C:\PROGRAM FILES (X86)\WINDOWS KITS\8.0\INCLUDE\UM\FIBERSAPI.H
C:\PROGRAM FILES (X86)\WINDOWS KITS\8.0\INCLUDE\UM\NAMEDPIPEAPI.H
C:\PROGRAM FILES (X86)\WINDOWS KITS\8.0\INCLUDE\UM\PROFILEAPI.H
C:\PROGRAM FILES (X86)\WINDOWS KITS\8.0\INCLUDE\UM\HEAPAPI.H
C:\PROGRAM FILES (X86)\WINDOWS KITS\8.0\INCLUDE\UM\IOAPISET.H
C:\PROGRAM FILES (X86)\WINDOWS KITS\8.0\INCLUDE\UM\SYNCHAPI.H
C:\PROGRAM FILES (X86)\WINDOWS KITS\8.0\INCLUDE\UM\INTERLOCKEDAPI.H
C:\PROGRAM FILES (X86)\WINDOWS KITS\8.0\INCLUDE\UM\PROCESSTHREADSAPI.H
C:\PROGRAM FILES (X86)\WINDOWS KITS\8.0\INCLUDE\UM\SYSINFOAPI.H
C:\PROGRAM FILES (X86)\WINDOWS KITS\8.0\INCLUDE\UM\MEMORYAPI.H
C:\PROGRAM FILES (X86)\WINDOWS KITS\8.0\INCLUDE\UM\THREADPOOLLEGACYAPISET.H
C:\PROGRAM FILES (X86)\WINDOWS KITS\8.0\INCLUDE\UM\THREADPOOLAPISET.H
C:\PROGRAM FILES (X86)\WINDOWS KITS\8.0\INCLUDE\UM\BEMAPISET.H
C:\PROGRAM FILES (X86)\WINDOWS KITS\8.0\INCLUDE\UM\JOBAPI.H
C:\PROGRAM FILES (X86)\WINDOWS KITS\8.0\INCLUDE\UM\WOW64APISET.H
C:\PROGRAM FILES (X86)\WINDOWS KITS\8.0\INCLUDE\UM\LIBLOADERAPI.H
C:\PROGRAM FILES (X86)\WINDOWS KITS\8.0\INCLUDE\UM\SECURITYBASEAPI.H
C:\PROGRAM FILES (X86)\WINDOWS KITS\8.0\INCLUDE\UM\NAMESPACEAPI.H
C:\PROGRAM FILES (X86)\WINDOWS KITS\8.0\INCLUDE\UM\SYSTEMTOPOLOGYAPI.H
C:\PROGRAM FILES (X86)\WINDOWS KITS\8.0\INCLUDE\UM\PROCESSTOPOLOGYAPI.H
C:\PROGRAM FILES (X86)\WINDOWS KITS\8.0\INCLUDE\UM\SECURITYAPPCONTAINER.H
C:\PROGRAM FILES (X86)\WINDOWS KITS\8.0\INCLUDE\UM\REALTIMEAPISET.H
C:\PROGRAM FILES (X86)\WINDOWS KITS\8.0\INCLUDE\SHARED\WINERROR.H
C:\PROGRAM FILES (X86)\WINDOWS KITS\8.0\INCLUDE\UM\TIMEZONEAPI.H
C:\PROGRAM FILES (X86)\WINDOWS KITS\8.0\INCLUDE\UM\WINGDI.H
C:\PROGRAM FILES (X86)\WINDOWS KITS\8.0\INCLUDE\SHARED\PSHPACK1.H
C:\PROGRAM FILES (X86)\WINDOWS KITS\8.0\INCLUDE\UM\WINUSER.H
C:\PROGRAM FILES (X86)\WINDOWS KITS\8.0\INCLUDE\SHARED\TVOUT.H
C:\PROGRAM FILES (X86)\WINDOWS KITS\8.0\INCLUDE\UM\WINNLS.H
C:\PROGRAM FILES (X86)\WINDOWS KITS\8.0\INCLUDE\UM\DATETIMEAPI.H
C:\PROGRAM FILES (X86)\WINDOWS KITS\8.0\INCLUDE\UM\STRINGAPISET.H
C:\PROGRAM FILES (X86)\WINDOWS KITS\8.0\INCLUDE\UM\WINCON.H
C:\PROGRAM FILES (X86)\WINDOWS KITS\8.0\INCLUDE\UM\CONSOLEAPI.H
C:\PROGRAM FILES (X86)\WINDOWS KITS\8.0\INCLUDE\UM\WINVER.H
C:\PROGRAM FILES (X86)\WINDOWS KITS\8.0\INCLUDE\UM\VERRSRC.H
C:\PROGRAM FILES (X86)\WINDOWS KITS\8.0\INCLUDE\UM\WINREG.H
C:\PROGRAM FILES (X86)\WINDOWS KITS\8.0\INCLUDE\UM\REASON.H
C:\PROGRAM FILES (X86)\WINDOWS KITS\8.0\INCLUDE\UM\WINNETWK.H
C:\PROGRAM FILES (X86)\WINDOWS KITS\8.0\INCLUDE\SHARED\WNNC.H
C:\PROGRAM FILES (X86)\WINDOWS KITS\8.0\INCLUDE\SHARED\CDERR.H
C:\PROGRAM FILES (X86)\WINDOWS KITS\8.0\INCLUDE\UM\DDE.H
C:\PROGRAM FILES (X86)\WINDOWS KITS\8.0\INCLUDE\UM\DDEML.H
C:\PROGRAM FILES (X86)\WINDOWS KITS\8.0\INCLUDE\UM\DLGS.H
C:\PROGRAM FILES (X86)\WINDOWS KITS\8.0\INCLUDE\UM\LZEXPAND.H
C:\PROGRAM FILES (X86)\WINDOWS KITS\8.0\INCLUDE\UM\MMSYSTEM.H
C:\PROGRAM FILES (X86)\WINDOWS KITS\8.0\INCLUDE\UM\MMSYSCOM.H
C:\PROGRAM FILES (X86)\WINDOWS KITS\8.0\INCLUDE\UM\MCIAPI.H
C:\PROGRAM FILES (X86)\WINDOWS KITS\8.0\INCLUDE\UM\MMISCAPI.H
C:\PROGRAM FILES (X86)\WINDOWS KITS\8.0\INCLUDE\UM\MMISCAPI2.H
C:\PROGRAM FILES (X86)\WINDOWS KITS\8.0\INCLUDE\UM\PLAYSOUNDAPI.H
C:\PROGRAM FILES (X86)\WINDOWS KITS\8.0\INCLUDE\UM\MMEAPI.H
C:\PROGRAM FILES (X86)\WINDOWS KITS\8.0\INCLUDE\UM\TIMEAPI.H
C:\PROGRAM FILES (X86)\WINDOWS KITS\8.0\INCLUDE\UM\JOYSTICKAPI.H
C:\PROGRAM FILES (X86)\WINDOWS KITS\8.0\INCLUDE\UM\NB30.H
C:\PROGRAM FILES (X86)\WINDOWS KITS\8.0\INCLUDE\SHARED\RPC.H
C:\PROGRAM FILES (X86)\WINDOWS KITS\8.0\INCLUDE\SHARED\RPCDCE.H
C:\PROGRAM FILES (X86)\WINDOWS KITS\8.0\INCLUDE\SHARED\RPCDCEP.H
C:\PROGRAM FILES (X86)\WINDOWS KITS\8.0\INCLUDE\UM\RPCNSI.H
C:\PROGRAM FILES (X86)\WINDOWS KITS\8.0\INCLUDE\SHARED\RPCNTERR.H
C:\PROGRAM FILES (X86)\WINDOWS KITS\8.0\INCLUDE\SHARED\RPCASYNC.H
C:\PROGRAM FILES (X86)\WINDOWS KITS\8.0\INCLUDE\UM\SHELLAPI.H
C:\PROGRAM FILES (X86)\WINDOWS KITS\8.0\INCLUDE\UM\WINPERF.H
C:\PROGRAM FILES (X86)\WINDOWS KITS\8.0\INCLUDE\UM\WINSOCK.H
C:\PROGRAM FILES (X86)\WINDOWS KITS\8.0\INCLUDE\SHARED\INADDR.H
C:\PROGRAM FILES (X86)\WINDOWS KITS\8.0\INCLUDE\UM\WINCRYPT.H
C:\PROGRAM FILES (X86)\WINDOWS KITS\8.0\INCLUDE\SHARED\BCRYPT.H
C:\PROGRAM FILES (X86)\WINDOWS KITS\8.0\INCLUDE\UM\NCRYPT.H
C:\PROGRAM FILES (X86)\WINDOWS KITS\8.0\INCLUDE\UM\DPAPI.H
C:\PROGRAM FILES (X86)\WINDOWS KITS\8.0\INCLUDE\UM\WINEFS.H
C:\PROGRAM FILES (X86)\WINDOWS KITS\8.0\INCLUDE\UM\WINSCARD.H
C:\PROGRAM FILES (X86)\WINDOWS KITS\8.0\INCLUDE\SHARED\WTYPES.H
C:\PROGRAM FILES (X86)\WINDOWS KITS\8.0\INCLUDE\SHARED\RPCNDR.H
C:\PROGRAM FILES (X86)\WINDOWS KITS\8.0\INCLUDE\UM\RPCNSIP.H
C:\PROGRAM FILES (X86)\WINDOWS KITS\8.0\INCLUDE\SHARED\RPCSAL.H
C:\PROGRAM FILES (X86)\WINDOWS KITS\8.0\INCLUDE\SHARED\WTYPESBASE.H
C:\PROGRAM FILES (X86)\WINDOWS KITS\8.0\INCLUDE\UM\WINIOCTL.H
C:\PROGRAM FILES (X86)\WINDOWS KITS\8.0\INCLUDE\SHARED\WINSMCRD.H
C:\PROGRAM FILES (X86)\WINDOWS KITS\8.0\INCLUDE\UM\WINSPOOL.H
C:\PROGRAM FILES (X86)\WINDOWS KITS\8.0\INCLUDE\UM\PRSHT.H
C:\PROGRAM FILES (X86)\WINDOWS KITS\8.0\INCLUDE\UM\OLE2.H
C:\PROGRAM FILES (X86)\WINDOWS KITS\8.0\INCLUDE\UM\OBJBASE.H
C:\PROGRAM FILES (X86)\WINDOWS KITS\8.0\INCLUDE\UM\COMBASEAPI.H
C:\PROGRAM FILES (X86)\WINDOWS KITS\8.0\INCLUDE\UM\UNKNWNBASE.H
C:\PROGRAM FILES (X86)\WINDOWS KITS\8.0\INCLUDE\UM\OBJIDLBASE.H
C:\PROGRAM FILES (X86)\WINDOWS KITS\8.0\INCLUDE\UM\CGUID.H
C:\PROGRAM FILES (X86)\WINDOWS KITS\8.0\INCLUDE\UM\OBJIDL.H
C:\PROGRAM FILES (X86)\WINDOWS KITS\8.0\INCLUDE\UM\UNKNWN.H
C:\PROGRAM FILES (X86)\WINDOWS KITS\8.0\INCLUDE\UM\URLMON.H
C:\PROGRAM FILES (X86)\WINDOWS KITS\8.0\INCLUDE\UM\OLEIDL.H
C:\PROGRAM FILES (X86)\WINDOWS KITS\8.0\INCLUDE\UM\SERVPROV.H
C:\PROGRAM FILES (X86)\WINDOWS KITS\8.0\INCLUDE\UM\MSXML.H
C:\PROGRAM FILES (X86)\WINDOWS KITS\8.0\INCLUDE\UM\OAIDL.H
C:\PROGRAM FILES (X86)\WINDOWS KITS\8.0\INCLUDE\UM\PROPIDL.H
C:\PROGRAM FILES (X86)\WINDOWS KITS\8.0\INCLUDE\UM\OLEAUTO.H
C:\PROGRAM FILES (X86)\WINDOWS KITS\8.0\INCLUDE\UM\COMMDLG.H
C:\PROGRAM FILES (X86)\WINDOWS KITS\8.0\INCLUDE\SHARED\STRALIGN.H
C:\PROGRAM FILES (X86)\WINDOWS KITS\8.0\INCLUDE\UM\WINSVC.H
C:\PROGRAM FILES (X86)\WINDOWS KITS\8.0\INCLUDE\UM\MCX.H
C:\PROGRAM FILES (X86)\WINDOWS KITS\8.0\INCLUDE\UM\IMM.H
C:\PROGRAM FILES (X86)\WINDOWS KITS\8.0\INCLUDE\UM\IME_CMODES.H
D:\ADD ON\SCHOOL\VISUAL STUDIO 2012\VC\INCLUDE\DIRECT.H
D:\ADD ON\SCHOOL\VISUAL STUDIO 2012\VC\INCLUDE\SYS\TYPES.H
D:\ADD ON\SCHOOL\VISUAL STUDIO 2012\VC\INCLUDE\FSTREAM
D:\ADD ON\SCHOOL\VISUAL STUDIO 2012\VC\INCLUDE\SYS\STAT.H
D:\ADD ON\SCHOOL\VISUAL STUDIO 2012\VC\INCLUDE\SYS\STAT.INL
D:\ADD ON\SCHOOL\VISUAL STUDIO 2012\VC\INCLUDE\TIME.H
D:\ADD ON\SCHOOL\VISUAL STUDIO 2012\VC\INCLUDE\TIME.INL
^D:\ADD ON\NORMAL OPS\DROPBOX\NEUMONT\QUARTER 9\GAME ENGINE IMPLEMENTATION AND DEVELOPOMENT\TEMPLATE\BASTIEN_AUXER_BSGD_SA\COMPUTERGRAPHICS\CONVERTER\CONVERTERSYSTEM.CPP
D:\ADD ON\SCHOOL\VISUAL STUDIO 2012\VC\BIN\1033\CLUI.DLL
C:\WINDOWS\GLOBALIZATION\SORTING\SORTDEFAULT.NLS
C:\WINDOWS\SYSTEM32\RSAENH.DLL
C:\WINDOWS\SYSTEM32\TZRES.DLL
D:\ADD ON\NORMAL OPS\DROPBOX\NEUMONT\QUARTER 9\GAME ENGINE IMPLEMENTATION AND DEVELOPOMENT\TEMPLATE\BASTIEN_AUXER_BSGD_SA\EXTERNALDEPENDENCIES\QT\INCLUDE\QTOPENGL\QGLWIDGET
D:\ADD ON\NORMAL OPS\DROPBOX\NEUMONT\QUARTER 9\GAME ENGINE IMPLEMENTATION AND DEVELOPOMENT\TEMPLATE\BASTIEN_AUXER_BSGD_SA\EXTERNALDEPENDENCIES\QT\INCLUDE\QTOPENGL\QGL.H
D:\ADD ON\NORMAL OPS\DROPBOX\NEUMONT\QUARTER 9\GAME ENGINE IMPLEMENTATION AND DEVELOPOMENT\TEMPLATE\BASTIEN_AUXER_BSGD_SA\EXTERNALDEPENDENCIES\QT\INCLUDE\QTGUI\QWIDGET.H
D:\ADD ON\NORMAL OPS\DROPBOX\NEUMONT\QUARTER 9\GAME ENGINE IMPLEMENTATION AND DEVELOPOMENT\TEMPLATE\BASTIEN_AUXER_BSGD_SA\EXTERNALDEPENDENCIES\QT\INCLUDE\QTGUI\QWINDOWDEFS.H
D:\ADD ON\NORMAL OPS\DROPBOX\NEUMONT\QUARTER 9\GAME ENGINE IMPLEMENTATION AND DEVELOPOMENT\TEMPLATE\BASTIEN_AUXER_BSGD_SA\EXTERNALDEPENDENCIES\QT\INCLUDE\QTCORE\QOBJECTDEFS.H
D:\ADD ON\NORMAL OPS\DROPBOX\NEUMONT\QUARTER 9\GAME ENGINE IMPLEMENTATION AND DEVELOPOMENT\TEMPLATE\BASTIEN_AUXER_BSGD_SA\EXTERNALDEPENDENCIES\QT\INCLUDE\QTCORE\QNAMESPACE.H
D:\ADD ON\NORMAL OPS\DROPBOX\NEUMONT\QUARTER 9\GAME ENGINE IMPLEMENTATION AND DEVELOPOMENT\TEMPLATE\BASTIEN_AUXER_BSGD_SA\EXTERNALDEPENDENCIES\QT\INCLUDE\QTCORE\QGLOBAL.H
D:\ADD ON\SCHOOL\VISUAL STUDIO 2012\VC\INCLUDE\STDDEF.H
D:\ADD ON\SCHOOL\VISUAL STUDIO 2012\VC\INCLUDE\CRTDEFS.H
D:\ADD ON\SCHOOL\VISUAL STUDIO 2012\VC\INCLUDE\SAL.H
D:\ADD ON\SCHOOL\VISUAL STUDIO 2012\VC\INCLUDE\CONCURRENCYSAL.H
D:\ADD ON\SCHOOL\VISUAL STUDIO 2012\VC\INCLUDE\VADEFS.H
D:\ADD ON\NORMAL OPS\DROPBOX\NEUMONT\QUARTER 9\GAME ENGINE IMPLEMENTATION AND DEVELOPOMENT\TEMPLATE\BASTIEN_AUXER_BSGD_SA\EXTERNALDEPENDENCIES\QT\INCLUDE\QTCORE\QCONFIG.H
D:\ADD ON\SCHOOL\VISUAL STUDIO 2012\VC\INCLUDE\ALGORITHM
D:\ADD ON\SCHOOL\VISUAL STUDIO 2012\VC\INCLUDE\XMEMORY
D:\ADD ON\SCHOOL\VISUAL STUDIO 2012\VC\INCLUDE\XMEMORY0
D:\ADD ON\SCHOOL\VISUAL STUDIO 2012\VC\INCLUDE\CSTDLIB
D:\ADD ON\SCHOOL\VISUAL STUDIO 2012\VC\INCLUDE\YVALS.H
D:\ADD ON\SCHOOL\VISUAL STUDIO 2012\VC\INCLUDE\XKEYCHECK.H
D:\ADD ON\SCHOOL\VISUAL STUDIO 2012\VC\INCLUDE\USE_ANSI.H
D:\ADD ON\SCHOOL\VISUAL STUDIO 2012\VC\INCLUDE\STDLIB.H
D:\ADD ON\SCHOOL\VISUAL STUDIO 2012\VC\INCLUDE\LIMITS.H
D:\ADD ON\SCHOOL\VISUAL STUDIO 2012\VC\INCLUDE\LIMITS
D:\ADD ON\SCHOOL\VISUAL STUDIO 2012\VC\INCLUDE\YMATH.H
D:\ADD ON\SCHOOL\VISUAL STUDIO 2012\VC\INCLUDE\CFLOAT
D:\ADD ON\SCHOOL\VISUAL STUDIO 2012\VC\INCLUDE\FLOAT.H
D:\ADD ON\SCHOOL\VISUAL STUDIO 2012\VC\INCLUDE\CRTWRN.H
D:\ADD ON\SCHOOL\VISUAL STUDIO 2012\VC\INCLUDE\CLIMITS
D:\ADD ON\SCHOOL\VISUAL STUDIO 2012\VC\INCLUDE\CMATH
D:\ADD ON\SCHOOL\VISUAL STUDIO 2012\VC\INCLUDE\MATH.H
D:\ADD ON\SCHOOL\VISUAL STUDIO 2012\VC\INCLUDE\XTGMATH.H
D:\ADD ON\SCHOOL\VISUAL STUDIO 2012\VC\INCLUDE\XTR1COMMON
D:\ADD ON\SCHOOL\VISUAL STUDIO 2012\VC\INCLUDE\CWCHAR
D:\ADD ON\SCHOOL\VISUAL STUDIO 2012\VC\INCLUDE\WCHAR.H
D:\ADD ON\SCHOOL\VISUAL STUDIO 2012\VC\INCLUDE\SWPRINTF.INL
D:\ADD ON\SCHOOL\VISUAL STUDIO 2012\VC\INCLUDE\WTIME.INL
D:\ADD ON\SCHOOL\VISUAL STUDIO 2012\VC\INCLUDE\XSTDDEF
D:\ADD ON\SCHOOL\VISUAL STUDIO 2012\VC\INCLUDE\CSTDDEF
D:\ADD ON\SCHOOL\VISUAL STUDIO 2012\VC\INCLUDE\NEW
D:\ADD ON\SCHOOL\VISUAL STUDIO 2012\VC\INCLUDE\EXCEPTION
D:\ADD ON\SCHOOL\VISUAL STUDIO 2012\VC\INCLUDE\EH.H
D:\ADD ON\SCHOOL\VISUAL STUDIO 2012\VC\INCLUDE\MALLOC.H
D:\ADD ON\SCHOOL\VISUAL STUDIO 2012\VC\INCLUDE\STRING.H
D:\ADD ON\SCHOOL\VISUAL STUDIO 2012\VC\INCLUDE\XUTILITY
D:\ADD ON\SCHOOL\VISUAL STUDIO 2012\VC\INCLUDE\UTILITY
D:\ADD ON\SCHOOL\VISUAL STUDIO 2012\VC\INCLUDE\IOSFWD
D:\ADD ON\SCHOOL\VISUAL STUDIO 2012\VC\INCLUDE\CSTDIO
D:\ADD ON\SCHOOL\VISUAL STUDIO 2012\VC\INCLUDE\STDIO.H
D:\ADD ON\SCHOOL\VISUAL STUDIO 2012\VC\INCLUDE\CSTRING
D:\ADD ON\SCHOOL\VISUAL STUDIO 2012\VC\INCLUDE\CRTDBG.H
D:\ADD ON\SCHOOL\VISUAL STUDIO 2012\VC\INCLUDE\TYPE_TRAITS
D:\ADD ON\SCHOOL\VISUAL STUDIO 2012\VC\INCLUDE\XREFWRAP
D:\ADD ON\SCHOOL\VISUAL STUDIO 2012\VC\INCLUDE\XATOMIC0.H
D:\ADD ON\SCHOOL\VISUAL STUDIO 2012\VC\INCLUDE\INTRIN.H
D:\ADD ON\SCHOOL\VISUAL STUDIO 2012\VC\INCLUDE\SETJMP.H
D:\ADD ON\SCHOOL\VISUAL STUDIO 2012\VC\INCLUDE\IMMINTRIN.H
D:\ADD ON\SCHOOL\VISUAL STUDIO 2012\VC\INCLUDE\WMMINTRIN.H
D:\ADD ON\SCHOOL\VISUAL STUDIO 2012\VC\INCLUDE\NMMINTRIN.H
D:\ADD ON\SCHOOL\VISUAL STUDIO 2012\VC\INCLUDE\SMMINTRIN.H
D:\ADD ON\SCHOOL\VISUAL STUDIO 2012\VC\INCLUDE\TMMINTRIN.H
D:\ADD ON\SCHOOL\VISUAL STUDIO 2012\VC\INCLUDE\PMMINTRIN.H
D:\ADD ON\SCHOOL\VISUAL STUDIO 2012\VC\INCLUDE\EMMINTRIN.H
D:\ADD ON\SCHOOL\VISUAL STUDIO 2012\VC\INCLUDE\XMMINTRIN.H
D:\ADD ON\SCHOOL\VISUAL STUDIO 2012\VC\INCLUDE\MMINTRIN.H
D:\ADD ON\SCHOOL\VISUAL STUDIO 2012\VC\INCLUDE\AMMINTRIN.H
D:\ADD ON\SCHOOL\VISUAL STUDIO 2012\VC\INCLUDE\MM3DNOW.H
D:\ADD ON\NORMAL OPS\DROPBOX\NEUMONT\QUARTER 9\GAME ENGINE IMPLEMENTATION AND DEVELOPOMENT\TEMPLATE\BASTIEN_AUXER_BSGD_SA\EXTERNALDEPENDENCIES\QT\INCLUDE\QTCORE\QFEATURES.H
D:\ADD ON\NORMAL OPS\DROPBOX\NEUMONT\QUARTER 9\GAME ENGINE IMPLEMENTATION AND DEVELOPOMENT\TEMPLATE\BASTIEN_AUXER_BSGD_SA\EXTERNALDEPENDENCIES\QT\INCLUDE\QTGUI\QWINDOWDEFS_WIN.H
D:\ADD ON\NORMAL OPS\DROPBOX\NEUMONT\QUARTER 9\GAME ENGINE IMPLEMENTATION AND DEVELOPOMENT\TEMPLATE\BASTIEN_AUXER_BSGD_SA\EXTERNALDEPENDENCIES\QT\INCLUDE\QTCORE\QOBJECT.H
D:\ADD ON\NORMAL OPS\DROPBOX\NEUMONT\QUARTER 9\GAME ENGINE IMPLEMENTATION AND DEVELOPOMENT\TEMPLATE\BASTIEN_AUXER_BSGD_SA\EXTERNALDEPENDENCIES\QT\INCLUDE\QTCORE\QSTRING.H
D:\ADD ON\NORMAL OPS\DROPBOX\NEUMONT\QUARTER 9\GAME ENGINE IMPLEMENTATION AND DEVELOPOMENT\TEMPLATE\BASTIEN_AUXER_BSGD_SA\EXTERNALDEPENDENCIES\QT\INCLUDE\QTCORE\QCHAR.H
D:\ADD ON\NORMAL OPS\DROPBOX\NEUMONT\QUARTER 9\GAME ENGINE IMPLEMENTATION AND DEVELOPOMENT\TEMPLATE\BASTIEN_AUXER_BSGD_SA\EXTERNALDEPENDENCIES\QT\INCLUDE\QTCORE\QBYTEARRAY.H
D:\ADD ON\NORMAL OPS\DROPBOX\NEUMONT\QUARTER 9\GAME ENGINE IMPLEMENTATION AND DEVELOPOMENT\TEMPLATE\BASTIEN_AUXER_BSGD_SA\EXTERNALDEPENDENCIES\QT\INCLUDE\QTCORE\QATOMIC.H
D:\ADD ON\NORMAL OPS\DROPBOX\NEUMONT\QUARTER 9\GAME ENGINE IMPLEMENTATION AND DEVELOPOMENT\TEMPLATE\BASTIEN_AUXER_BSGD_SA\EXTERNALDEPENDENCIES\QT\INCLUDE\QTCORE\QBASICATOMIC.H
D:\ADD ON\NORMAL OPS\DROPBOX\NEUMONT\QUARTER 9\GAME ENGINE IMPLEMENTATION AND DEVELOPOMENT\TEMPLATE\BASTIEN_AUXER_BSGD_SA\EXTERNALDEPENDENCIES\QT\INCLUDE\QTCORE\QATOMIC_ARCH.H
D:\ADD ON\NORMAL OPS\DROPBOX\NEUMONT\QUARTER 9\GAME ENGINE IMPLEMENTATION AND DEVELOPOMENT\TEMPLATE\BASTIEN_AUXER_BSGD_SA\EXTERNALDEPENDENCIES\QT\INCLUDE\QTCORE\QATOMIC_WINDOWS.H
D:\ADD ON\SCHOOL\VISUAL STUDIO 2012\VC\INCLUDE\STDARG.H
D:\ADD ON\SCHOOL\VISUAL STUDIO 2012\VC\INCLUDE\STRING
D:\ADD ON\SCHOOL\VISUAL STUDIO 2012\VC\INCLUDE\ITERATOR
D:\ADD ON\SCHOOL\VISUAL STUDIO 2012\VC\INCLUDE\ISTREAM
D:\ADD ON\SCHOOL\VISUAL STUDIO 2012\VC\INCLUDE\OSTREAM
D:\ADD ON\SCHOOL\VISUAL STUDIO 2012\VC\INCLUDE\IOS
D:\ADD ON\SCHOOL\VISUAL STUDIO 2012\VC\INCLUDE\XLOCNUM
D:\ADD ON\SCHOOL\VISUAL STUDIO 2012\VC\INCLUDE\STREAMBUF
D:\ADD ON\SCHOOL\VISUAL STUDIO 2012\VC\INCLUDE\XIOSBASE
D:\ADD ON\SCHOOL\VISUAL STUDIO 2012\VC\INCLUDE\XLOCALE
D:\ADD ON\SCHOOL\VISUAL STUDIO 2012\VC\INCLUDE\STDEXCEPT
D:\ADD ON\SCHOOL\VISUAL STUDIO 2012\VC\INCLUDE\XSTRING
D:\ADD ON\SCHOOL\VISUAL STUDIO 2012\VC\INCLUDE\TYPEINFO
D:\ADD ON\SCHOOL\VISUAL STUDIO 2012\VC\INCLUDE\XLOCINFO
D:\ADD ON\SCHOOL\VISUAL STUDIO 2012\VC\INCLUDE\XLOCINFO.H
D:\ADD ON\SCHOOL\VISUAL STUDIO 2012\VC\INCLUDE\CTYPE.H
D:\ADD ON\SCHOOL\VISUAL STUDIO 2012\VC\INCLUDE\LOCALE.H
D:\ADD ON\SCHOOL\VISUAL STUDIO 2012\VC\INCLUDE\XDEBUG
D:\ADD ON\SCHOOL\VISUAL STUDIO 2012\VC\INCLUDE\XFACET
D:\ADD ON\SCHOOL\VISUAL STUDIO 2012\VC\INCLUDE\SYSTEM_ERROR
D:\ADD ON\SCHOOL\VISUAL STUDIO 2012\VC\INCLUDE\CERRNO
D:\ADD ON\SCHOOL\VISUAL STUDIO 2012\VC\INCLUDE\ERRNO.H
D:\ADD ON\SCHOOL\VISUAL STUDIO 2012\VC\INCLUDE\SHARE.H
D:\ADD ON\NORMAL OPS\DROPBOX\NEUMONT\QUARTER 9\GAME ENGINE IMPLEMENTATION AND DEVELOPOMENT\TEMPLATE\BASTIEN_AUXER_BSGD_SA\EXTERNALDEPENDENCIES\QT\INCLUDE\QTCORE\QLIST.H
D:\ADD ON\NORMAL OPS\DROPBOX\NEUMONT\QUARTER 9\GAME ENGINE IMPLEMENTATION AND DEVELOPOMENT\TEMPLATE\BASTIEN_AUXER_BSGD_SA\EXTERNALDEPENDENCIES\QT\INCLUDE\QTCORE\QITERATOR.H
D:\ADD ON\NORMAL OPS\DROPBOX\NEUMONT\QUARTER 9\GAME ENGINE IMPLEMENTATION AND DEVELOPOMENT\TEMPLATE\BASTIEN_AUXER_BSGD_SA\EXTERNALDEPENDENCIES\QT\INCLUDE\QTCORE\QALGORITHMS.H
D:\ADD ON\SCHOOL\VISUAL STUDIO 2012\VC\INCLUDE\LIST
D:\ADD ON\NORMAL OPS\DROPBOX\NEUMONT\QUARTER 9\GAME ENGINE IMPLEMENTATION AND DEVELOPOMENT\TEMPLATE\BASTIEN_AUXER_BSGD_SA\EXTERNALDEPENDENCIES\QT\INCLUDE\QTCORE\QSCOPEDPOINTER.H
D:\ADD ON\NORMAL OPS\DROPBOX\NEUMONT\QUARTER 9\GAME ENGINE IMPLEMENTATION AND DEVELOPOMENT\TEMPLATE\BASTIEN_AUXER_BSGD_SA\EXTERNALDEPENDENCIES\QT\INCLUDE\QTCORE\QMARGINS.H
D:\ADD ON\NORMAL OPS\DROPBOX\NEUMONT\QUARTER 9\GAME ENGINE IMPLEMENTATION AND DEVELOPOMENT\TEMPLATE\BASTIEN_AUXER_BSGD_SA\EXTERNALDEPENDENCIES\QT\INCLUDE\QTGUI\QPAINTDEVICE.H
D:\ADD ON\NORMAL OPS\DROPBOX\NEUMONT\QUARTER 9\GAME ENGINE IMPLEMENTATION AND DEVELOPOMENT\TEMPLATE\BASTIEN_AUXER_BSGD_SA\EXTERNALDEPENDENCIES\QT\INCLUDE\QTCORE\QRECT.H
D:\ADD ON\NORMAL OPS\DROPBOX\NEUMONT\QUARTER 9\GAME ENGINE IMPLEMENTATION AND DEVELOPOMENT\TEMPLATE\BASTIEN_AUXER_BSGD_SA\EXTERNALDEPENDENCIES\QT\INCLUDE\QTCORE\QSIZE.H
D:\ADD ON\NORMAL OPS\DROPBOX\NEUMONT\QUARTER 9\GAME ENGINE IMPLEMENTATION AND DEVELOPOMENT\TEMPLATE\BASTIEN_AUXER_BSGD_SA\EXTERNALDEPENDENCIES\QT\INCLUDE\QTCORE\QPOINT.H
D:\ADD ON\NORMAL OPS\DROPBOX\NEUMONT\QUARTER 9\GAME ENGINE IMPLEMENTATION AND DEVELOPOMENT\TEMPLATE\BASTIEN_AUXER_BSGD_SA\EXTERNALDEPENDENCIES\QT\INCLUDE\QTGUI\QPALETTE.H
D:\ADD ON\NORMAL OPS\DROPBOX\NEUMONT\QUARTER 9\GAME ENGINE IMPLEMENTATION AND DEVELOPOMENT\TEMPLATE\BASTIEN_AUXER_BSGD_SA\EXTERNALDEPENDENCIES\QT\INCLUDE\QTGUI\QCOLOR.H
D:\ADD ON\NORMAL OPS\DROPBOX\NEUMONT\QUARTER 9\GAME ENGINE IMPLEMENTATION AND DEVELOPOMENT\TEMPLATE\BASTIEN_AUXER_BSGD_SA\EXTERNALDEPENDENCIES\QT\INCLUDE\QTGUI\QRGB.H
D:\ADD ON\NORMAL OPS\DROPBOX\NEUMONT\QUARTER 9\GAME ENGINE IMPLEMENTATION AND DEVELOPOMENT\TEMPLATE\BASTIEN_AUXER_BSGD_SA\EXTERNALDEPENDENCIES\QT\INCLUDE\QTCORE\QSTRINGLIST.H
D:\ADD ON\NORMAL OPS\DROPBOX\NEUMONT\QUARTER 9\GAME ENGINE IMPLEMENTATION AND DEVELOPOMENT\TEMPLATE\BASTIEN_AUXER_BSGD_SA\EXTERNALDEPENDENCIES\QT\INCLUDE\QTCORE\QDATASTREAM.H
D:\ADD ON\NORMAL OPS\DROPBOX\NEUMONT\QUARTER 9\GAME ENGINE IMPLEMENTATION AND DEVELOPOMENT\TEMPLATE\BASTIEN_AUXER_BSGD_SA\EXTERNALDEPENDENCIES\QT\INCLUDE\QTCORE\QIODEVICE.H
D:\ADD ON\NORMAL OPS\DROPBOX\NEUMONT\QUARTER 9\GAME ENGINE IMPLEMENTATION AND DEVELOPOMENT\TEMPLATE\BASTIEN_AUXER_BSGD_SA\EXTERNALDEPENDENCIES\QT\INCLUDE\QTCORE\QREGEXP.H
D:\ADD ON\NORMAL OPS\DROPBOX\NEUMONT\QUARTER 9\GAME ENGINE IMPLEMENTATION AND DEVELOPOMENT\TEMPLATE\BASTIEN_AUXER_BSGD_SA\EXTERNALDEPENDENCIES\QT\INCLUDE\QTCORE\QSTRINGMATCHER.H
D:\ADD ON\NORMAL OPS\DROPBOX\NEUMONT\QUARTER 9\GAME ENGINE IMPLEMENTATION AND DEVELOPOMENT\TEMPLATE\BASTIEN_AUXER_BSGD_SA\EXTERNALDEPENDENCIES\QT\INCLUDE\QTGUI\QBRUSH.H
D:\ADD ON\NORMAL OPS\DROPBOX\NEUMONT\QUARTER 9\GAME ENGINE IMPLEMENTATION AND DEVELOPOMENT\TEMPLATE\BASTIEN_AUXER_BSGD_SA\EXTERNALDEPENDENCIES\QT\INCLUDE\QTCORE\QPAIR.H
D:\ADD ON\NORMAL OPS\DROPBOX\NEUMONT\QUARTER 9\GAME ENGINE IMPLEMENTATION AND DEVELOPOMENT\TEMPLATE\BASTIEN_AUXER_BSGD_SA\EXTERNALDEPENDENCIES\QT\INCLUDE\QTCORE\QVECTOR.H
D:\ADD ON\SCHOOL\VISUAL STUDIO 2012\VC\INCLUDE\VECTOR
D:\ADD ON\NORMAL OPS\DROPBOX\NEUMONT\QUARTER 9\GAME ENGINE IMPLEMENTATION AND DEVELOPOMENT\TEMPLATE\BASTIEN_AUXER_BSGD_SA\EXTERNALDEPENDENCIES\QT\INCLUDE\QTCORE\QPOINTF
D:\ADD ON\NORMAL OPS\DROPBOX\NEUMONT\QUARTER 9\GAME ENGINE IMPLEMENTATION AND DEVELOPOMENT\TEMPLATE\BASTIEN_AUXER_BSGD_SA\EXTERNALDEPENDENCIES\QT\INCLUDE\QTCORE\QPOINT
D:\ADD ON\NORMAL OPS\DROPBOX\NEUMONT\QUARTER 9\GAME ENGINE IMPLEMENTATION AND DEVELOPOMENT\TEMPLATE\BASTIEN_AUXER_BSGD_SA\EXTERNALDEPENDENCIES\QT\INCLUDE\QTGUI\QMATRIX.H
D:\ADD ON\NORMAL OPS\DROPBOX\NEUMONT\QUARTER 9\GAME ENGINE IMPLEMENTATION AND DEVELOPOMENT\TEMPLATE\BASTIEN_AUXER_BSGD_SA\EXTERNALDEPENDENCIES\QT\INCLUDE\QTGUI\QPOLYGON.H
D:\ADD ON\NORMAL OPS\DROPBOX\NEUMONT\QUARTER 9\GAME ENGINE IMPLEMENTATION AND DEVELOPOMENT\TEMPLATE\BASTIEN_AUXER_BSGD_SA\EXTERNALDEPENDENCIES\QT\INCLUDE\QTGUI\QREGION.H
D:\ADD ON\NORMAL OPS\DROPBOX\NEUMONT\QUARTER 9\GAME ENGINE IMPLEMENTATION AND DEVELOPOMENT\TEMPLATE\BASTIEN_AUXER_BSGD_SA\EXTERNALDEPENDENCIES\QT\INCLUDE\QTCORE\QLINE.H
D:\ADD ON\NORMAL OPS\DROPBOX\NEUMONT\QUARTER 9\GAME ENGINE IMPLEMENTATION AND DEVELOPOMENT\TEMPLATE\BASTIEN_AUXER_BSGD_SA\EXTERNALDEPENDENCIES\QT\INCLUDE\QTGUI\QTRANSFORM.H
D:\ADD ON\NORMAL OPS\DROPBOX\NEUMONT\QUARTER 9\GAME ENGINE IMPLEMENTATION AND DEVELOPOMENT\TEMPLATE\BASTIEN_AUXER_BSGD_SA\EXTERNALDEPENDENCIES\QT\INCLUDE\QTGUI\QPAINTERPATH.H
D:\ADD ON\NORMAL OPS\DROPBOX\NEUMONT\QUARTER 9\GAME ENGINE IMPLEMENTATION AND DEVELOPOMENT\TEMPLATE\BASTIEN_AUXER_BSGD_SA\EXTERNALDEPENDENCIES\QT\INCLUDE\QTGUI\QIMAGE.H
D:\ADD ON\NORMAL OPS\DROPBOX\NEUMONT\QUARTER 9\GAME ENGINE IMPLEMENTATION AND DEVELOPOMENT\TEMPLATE\BASTIEN_AUXER_BSGD_SA\EXTERNALDEPENDENCIES\QT\INCLUDE\QTGUI\QPIXMAP.H
D:\ADD ON\NORMAL OPS\DROPBOX\NEUMONT\QUARTER 9\GAME ENGINE IMPLEMENTATION AND DEVELOPOMENT\TEMPLATE\BASTIEN_AUXER_BSGD_SA\EXTERNALDEPENDENCIES\QT\INCLUDE\QTCORE\QSHAREDPOINTER.H
D:\ADD ON\NORMAL OPS\DROPBOX\NEUMONT\QUARTER 9\GAME ENGINE IMPLEMENTATION AND DEVELOPOMENT\TEMPLATE\BASTIEN_AUXER_BSGD_SA\EXTERNALDEPENDENCIES\QT\INCLUDE\QTCORE\QSHAREDDATA.H
D:\ADD ON\NORMAL OPS\DROPBOX\NEUMONT\QUARTER 9\GAME ENGINE IMPLEMENTATION AND DEVELOPOMENT\TEMPLATE\BASTIEN_AUXER_BSGD_SA\EXTERNALDEPENDENCIES\QT\INCLUDE\QTCORE\QSHAREDPOINTER_IMPL.H
D:\ADD ON\NORMAL OPS\DROPBOX\NEUMONT\QUARTER 9\GAME ENGINE IMPLEMENTATION AND DEVELOPOMENT\TEMPLATE\BASTIEN_AUXER_BSGD_SA\EXTERNALDEPENDENCIES\QT\INCLUDE\QTGUI\QFONT.H
D:\ADD ON\NORMAL OPS\DROPBOX\NEUMONT\QUARTER 9\GAME ENGINE IMPLEMENTATION AND DEVELOPOMENT\TEMPLATE\BASTIEN_AUXER_BSGD_SA\EXTERNALDEPENDENCIES\QT\INCLUDE\QTGUI\QFONTMETRICS.H
D:\ADD ON\NORMAL OPS\DROPBOX\NEUMONT\QUARTER 9\GAME ENGINE IMPLEMENTATION AND DEVELOPOMENT\TEMPLATE\BASTIEN_AUXER_BSGD_SA\EXTERNALDEPENDENCIES\QT\INCLUDE\QTGUI\QFONTINFO.H
D:\ADD ON\NORMAL OPS\DROPBOX\NEUMONT\QUARTER 9\GAME ENGINE IMPLEMENTATION AND DEVELOPOMENT\TEMPLATE\BASTIEN_AUXER_BSGD_SA\EXTERNALDEPENDENCIES\QT\INCLUDE\QTGUI\QSIZEPOLICY.H
D:\ADD ON\NORMAL OPS\DROPBOX\NEUMONT\QUARTER 9\GAME ENGINE IMPLEMENTATION AND DEVELOPOMENT\TEMPLATE\BASTIEN_AUXER_BSGD_SA\EXTERNALDEPENDENCIES\QT\INCLUDE\QTGUI\QCURSOR.H
D:\ADD ON\NORMAL OPS\DROPBOX\NEUMONT\QUARTER 9\GAME ENGINE IMPLEMENTATION AND DEVELOPOMENT\TEMPLATE\BASTIEN_AUXER_BSGD_SA\EXTERNALDEPENDENCIES\QT\INCLUDE\QTGUI\QKEYSEQUENCE.H
D:\ADD ON\NORMAL OPS\DROPBOX\NEUMONT\QUARTER 9\GAME ENGINE IMPLEMENTATION AND DEVELOPOMENT\TEMPLATE\BASTIEN_AUXER_BSGD_SA\EXTERNALDEPENDENCIES\QT\INCLUDE\QTGUI\QPAINTENGINE.H
D:\ADD ON\NORMAL OPS\DROPBOX\NEUMONT\QUARTER 9\GAME ENGINE IMPLEMENTATION AND DEVELOPOMENT\TEMPLATE\BASTIEN_AUXER_BSGD_SA\EXTERNALDEPENDENCIES\QT\INCLUDE\QTGUI\QPAINTER.H
D:\ADD ON\NORMAL OPS\DROPBOX\NEUMONT\QUARTER 9\GAME ENGINE IMPLEMENTATION AND DEVELOPOMENT\TEMPLATE\BASTIEN_AUXER_BSGD_SA\EXTERNALDEPENDENCIES\QT\INCLUDE\QTGUI\QTEXTOPTION.H
D:\ADD ON\NORMAL OPS\DROPBOX\NEUMONT\QUARTER 9\GAME ENGINE IMPLEMENTATION AND DEVELOPOMENT\TEMPLATE\BASTIEN_AUXER_BSGD_SA\EXTERNALDEPENDENCIES\QT\INCLUDE\QTCORE\QMETATYPE.H
D:\ADD ON\NORMAL OPS\DROPBOX\NEUMONT\QUARTER 9\GAME ENGINE IMPLEMENTATION AND DEVELOPOMENT\TEMPLATE\BASTIEN_AUXER_BSGD_SA\EXTERNALDEPENDENCIES\QT\INCLUDE\QTGUI\QDRAWUTIL.H
D:\ADD ON\NORMAL OPS\DROPBOX\NEUMONT\QUARTER 9\GAME ENGINE IMPLEMENTATION AND DEVELOPOMENT\TEMPLATE\BASTIEN_AUXER_BSGD_SA\EXTERNALDEPENDENCIES\QT\INCLUDE\QTGUI\QPEN.H
D:\ADD ON\NORMAL OPS\DROPBOX\NEUMONT\QUARTER 9\GAME ENGINE IMPLEMENTATION AND DEVELOPOMENT\TEMPLATE\BASTIEN_AUXER_BSGD_SA\EXTERNALDEPENDENCIES\QT\INCLUDE\QTOPENGL\QGLCOLORMAP.H
D:\ADD ON\NORMAL OPS\DROPBOX\NEUMONT\QUARTER 9\GAME ENGINE IMPLEMENTATION AND DEVELOPOMENT\TEMPLATE\BASTIEN_AUXER_BSGD_SA\EXTERNALDEPENDENCIES\QT\INCLUDE\QTCORE\QMAP.H
D:\ADD ON\SCHOOL\VISUAL STUDIO 2012\VC\INCLUDE\MAP
D:\ADD ON\SCHOOL\VISUAL STUDIO 2012\VC\INCLUDE\XTREE
D:\ADD ON\NORMAL OPS\DROPBOX\NEUMONT\QUARTER 9\GAME ENGINE IMPLEMENTATION AND DEVELOPOMENT\TEMPLATE\BASTIEN_AUXER_BSGD_SA\EXTERNALDEPENDENCIES\QT\INCLUDE\QTCORE\QT_WINDOWS.H
C:\PROGRAM FILES (X86)\WINDOWS KITS\8.0\INCLUDE\UM\WINDOWS.H
C:\PROGRAM FILES (X86)\WINDOWS KITS\8.0\INCLUDE\SHARED\WINAPIFAMILY.H
C:\PROGRAM FILES (X86)\WINDOWS KITS\8.0\INCLUDE\SHARED\SDKDDKVER.H
D:\ADD ON\SCHOOL\VISUAL STUDIO 2012\VC\INCLUDE\EXCPT.H
C:\PROGRAM FILES (X86)\WINDOWS KITS\8.0\INCLUDE\SHARED\WINDEF.H
C:\PROGRAM FILES (X86)\WINDOWS KITS\8.0\INCLUDE\SHARED\MINWINDEF.H
C:\PROGRAM FILES (X86)\WINDOWS KITS\8.0\INCLUDE\SHARED\SPECSTRINGS.H
C:\PROGRAM FILES (X86)\WINDOWS KITS\8.0\INCLUDE\SHARED\SPECSTRINGS_STRICT.H
C:\PROGRAM FILES (X86)\WINDOWS KITS\8.0\INCLUDE\SHARED\SPECSTRINGS_UNDEF.H
C:\PROGRAM FILES (X86)\WINDOWS KITS\8.0\INCLUDE\SHARED\DRIVERSPECS.H
C:\PROGRAM FILES (X86)\WINDOWS KITS\8.0\INCLUDE\SHARED\SDV_DRIVERSPECS.H
C:\PROGRAM FILES (X86)\WINDOWS KITS\8.0\INCLUDE\UM\WINNT.H
C:\PROGRAM FILES (X86)\WINDOWS KITS\8.0\INCLUDE\SHARED\KERNELSPECS.H
C:\PROGRAM FILES (X86)\WINDOWS KITS\8.0\INCLUDE\SHARED\BASETSD.H
C:\PROGRAM FILES (X86)\WINDOWS KITS\8.0\INCLUDE\SHARED\GUIDDEF.H
C:\PROGRAM FILES (X86)\WINDOWS KITS\8.0\INCLUDE\SHARED\PSHPACK4.H
C:\PROGRAM FILES (X86)\WINDOWS KITS\8.0\INCLUDE\SHARED\POPPACK.H
C:\PROGRAM FILES (X86)\WINDOWS KITS\8.0\INCLUDE\SHARED\PSHPACK2.H
C:\PROGRAM FILES (X86)\WINDOWS KITS\8.0\INCLUDE\SHARED\PSHPACK8.H
C:\PROGRAM FILES (X86)\WINDOWS KITS\8.0\INCLUDE\SHARED\APISET.H
C:\PROGRAM FILES (X86)\WINDOWS KITS\8.0\INCLUDE\SHARED\KTMTYPES.H
C:\PROGRAM FILES (X86)\WINDOWS KITS\8.0\INCLUDE\UM\WINBASE.H
C:\PROGRAM FILES (X86)\WINDOWS KITS\8.0\INCLUDE\SHARED\APISETCCONV.H
C:\PROGRAM FILES (X86)\WINDOWS KITS\8.0\INCLUDE\UM\MINWINBASE.H
C:\PROGRAM FILES (X86)\WINDOWS KITS\8.0\INCLUDE\UM\PROCESSENV.H
C:\PROGRAM FILES (X86)\WINDOWS KITS\8.0\INCLUDE\UM\FILEAPI.H
C:\PROGRAM FILES (X86)\WINDOWS KITS\8.0\INCLUDE\UM\DEBUGAPI.H
C:\PROGRAM FILES (X86)\WINDOWS KITS\8.0\INCLUDE\UM\UTILAPISET.H
C:\PROGRAM FILES (X86)\WINDOWS KITS\8.0\INCLUDE\UM\HANDLEAPI.H
C:\PROGRAM FILES (X86)\WINDOWS KITS\8.0\INCLUDE\UM\ERRHANDLINGAPI.H
C:\PROGRAM FILES (X86)\WINDOWS KITS\8.0\INCLUDE\UM\FIBERSAPI.H
C:\PROGRAM FILES (X86)\WINDOWS KITS\8.0\INCLUDE\UM\NAMEDPIPEAPI.H
C:\PROGRAM FILES (X86)\WINDOWS KITS\8.0\INCLUDE\UM\PROFILEAPI.H
C:\PROGRAM FILES (X86)\WINDOWS KITS\8.0\INCLUDE\UM\HEAPAPI.H
C:\PROGRAM FILES (X86)\WINDOWS KITS\8.0\INCLUDE\UM\IOAPISET.H
C:\PROGRAM FILES (X86)\WINDOWS KITS\8.0\INCLUDE\UM\SYNCHAPI.H
C:\PROGRAM FILES (X86)\WINDOWS KITS\8.0\INCLUDE\UM\INTERLOCKEDAPI.H
C:\PROGRAM FILES (X86)\WINDOWS KITS\8.0\INCLUDE\UM\PROCESSTHREADSAPI.H
C:\PROGRAM FILES (X86)\WINDOWS KITS\8.0\INCLUDE\UM\SYSINFOAPI.H
C:\PROGRAM FILES (X86)\WINDOWS KITS\8.0\INCLUDE\UM\MEMORYAPI.H
C:\PROGRAM FILES (X86)\WINDOWS KITS\8.0\INCLUDE\UM\THREADPOOLLEGACYAPISET.H
C:\PROGRAM FILES (X86)\WINDOWS KITS\8.0\INCLUDE\UM\THREADPOOLAPISET.H
C:\PROGRAM FILES (X86)\WINDOWS KITS\8.0\INCLUDE\UM\BEMAPISET.H
C:\PROGRAM FILES (X86)\WINDOWS KITS\8.0\INCLUDE\UM\JOBAPI.H
C:\PROGRAM FILES (X86)\WINDOWS KITS\8.0\INCLUDE\UM\WOW64APISET.H
C:\PROGRAM FILES (X86)\WINDOWS KITS\8.0\INCLUDE\UM\LIBLOADERAPI.H
C:\PROGRAM FILES (X86)\WINDOWS KITS\8.0\INCLUDE\UM\SECURITYBASEAPI.H
C:\PROGRAM FILES (X86)\WINDOWS KITS\8.0\INCLUDE\UM\NAMESPACEAPI.H
C:\PROGRAM FILES (X86)\WINDOWS KITS\8.0\INCLUDE\UM\SYSTEMTOPOLOGYAPI.H
C:\PROGRAM FILES (X86)\WINDOWS KITS\8.0\INCLUDE\UM\PROCESSTOPOLOGYAPI.H
C:\PROGRAM FILES (X86)\WINDOWS KITS\8.0\INCLUDE\UM\SECURITYAPPCONTAINER.H
C:\PROGRAM FILES (X86)\WINDOWS KITS\8.0\INCLUDE\UM\REALTIMEAPISET.H
C:\PROGRAM FILES (X86)\WINDOWS KITS\8.0\INCLUDE\SHARED\WINERROR.H
C:\PROGRAM FILES (X86)\WINDOWS KITS\8.0\INCLUDE\UM\TIMEZONEAPI.H
C:\PROGRAM FILES (X86)\WINDOWS KITS\8.0\INCLUDE\UM\WINGDI.H
C:\PROGRAM FILES (X86)\WINDOWS KITS\8.0\INCLUDE\SHARED\PSHPACK1.H
C:\PROGRAM FILES (X86)\WINDOWS KITS\8.0\INCLUDE\UM\WINUSER.H
C:\PROGRAM FILES (X86)\WINDOWS KITS\8.0\INCLUDE\SHARED\TVOUT.H
C:\PROGRAM FILES (X86)\WINDOWS KITS\8.0\INCLUDE\UM\WINNLS.H
C:\PROGRAM FILES (X86)\WINDOWS KITS\8.0\INCLUDE\UM\DATETIMEAPI.H
C:\PROGRAM FILES (X86)\WINDOWS KITS\8.0\INCLUDE\UM\STRINGAPISET.H
C:\PROGRAM FILES (X86)\WINDOWS KITS\8.0\INCLUDE\UM\WINCON.H
C:\PROGRAM FILES (X86)\WINDOWS KITS\8.0\INCLUDE\UM\CONSOLEAPI.H
C:\PROGRAM FILES (X86)\WINDOWS KITS\8.0\INCLUDE\UM\WINVER.H
C:\PROGRAM FILES (X86)\WINDOWS KITS\8.0\INCLUDE\UM\VERRSRC.H
C:\PROGRAM FILES (X86)\WINDOWS KITS\8.0\INCLUDE\UM\WINREG.H
C:\PROGRAM FILES (X86)\WINDOWS KITS\8.0\INCLUDE\UM\REASON.H
C:\PROGRAM FILES (X86)\WINDOWS KITS\8.0\INCLUDE\UM\WINNETWK.H
C:\PROGRAM FILES (X86)\WINDOWS KITS\8.0\INCLUDE\SHARED\WNNC.H
C:\PROGRAM FILES (X86)\WINDOWS KITS\8.0\INCLUDE\SHARED\CDERR.H
C:\PROGRAM FILES (X86)\WINDOWS KITS\8.0\INCLUDE\UM\DDE.H
C:\PROGRAM FILES (X86)\WINDOWS KITS\8.0\INCLUDE\UM\DDEML.H
C:\PROGRAM FILES (X86)\WINDOWS KITS\8.0\INCLUDE\UM\DLGS.H
C:\PROGRAM FILES (X86)\WINDOWS KITS\8.0\INCLUDE\UM\LZEXPAND.H
C:\PROGRAM FILES (X86)\WINDOWS KITS\8.0\INCLUDE\UM\MMSYSTEM.H
C:\PROGRAM FILES (X86)\WINDOWS KITS\8.0\INCLUDE\UM\MMSYSCOM.H
C:\PROGRAM FILES (X86)\WINDOWS KITS\8.0\INCLUDE\UM\MCIAPI.H
C:\PROGRAM FILES (X86)\WINDOWS KITS\8.0\INCLUDE\UM\MMISCAPI.H
C:\PROGRAM FILES (X86)\WINDOWS KITS\8.0\INCLUDE\UM\MMISCAPI2.H
C:\PROGRAM FILES (X86)\WINDOWS KITS\8.0\INCLUDE\UM\PLAYSOUNDAPI.H
C:\PROGRAM FILES (X86)\WINDOWS KITS\8.0\INCLUDE\UM\MMEAPI.H
C:\PROGRAM FILES (X86)\WINDOWS KITS\8.0\INCLUDE\UM\TIMEAPI.H
C:\PROGRAM FILES (X86)\WINDOWS KITS\8.0\INCLUDE\UM\JOYSTICKAPI.H
C:\PROGRAM FILES (X86)\WINDOWS KITS\8.0\INCLUDE\UM\NB30.H
C:\PROGRAM FILES (X86)\WINDOWS KITS\8.0\INCLUDE\SHARED\RPC.H
C:\PROGRAM FILES (X86)\WINDOWS KITS\8.0\INCLUDE\SHARED\RPCDCE.H
C:\PROGRAM FILES (X86)\WINDOWS KITS\8.0\INCLUDE\SHARED\RPCDCEP.H
C:\PROGRAM FILES (X86)\WINDOWS KITS\8.0\INCLUDE\UM\RPCNSI.H
C:\PROGRAM FILES (X86)\WINDOWS KITS\8.0\INCLUDE\SHARED\RPCNTERR.H
C:\PROGRAM FILES (X86)\WINDOWS KITS\8.0\INCLUDE\SHARED\RPCASYNC.H
C:\PROGRAM FILES (X86)\WINDOWS KITS\8.0\INCLUDE\UM\SHELLAPI.H
C:\PROGRAM FILES (X86)\WINDOWS KITS\8.0\INCLUDE\UM\WINPERF.H
C:\PROGRAM FILES (X86)\WINDOWS KITS\8.0\INCLUDE\UM\WINSOCK.H
C:\PROGRAM FILES (X86)\WINDOWS KITS\8.0\INCLUDE\SHARED\INADDR.H
C:\PROGRAM FILES (X86)\WINDOWS KITS\8.0\INCLUDE\UM\WINCRYPT.H
C:\PROGRAM FILES (X86)\WINDOWS KITS\8.0\INCLUDE\SHARED\BCRYPT.H
C:\PROGRAM FILES (X86)\WINDOWS KITS\8.0\INCLUDE\UM\NCRYPT.H
C:\PROGRAM FILES (X86)\WINDOWS KITS\8.0\INCLUDE\UM\DPAPI.H
C:\PROGRAM FILES (X86)\WINDOWS KITS\8.0\INCLUDE\UM\WINEFS.H
C:\PROGRAM FILES (X86)\WINDOWS KITS\8.0\INCLUDE\UM\WINSCARD.H
C:\PROGRAM FILES (X86)\WINDOWS KITS\8.0\INCLUDE\SHARED\WTYPES.H
C:\PROGRAM FILES (X86)\WINDOWS KITS\8.0\INCLUDE\SHARED\RPCNDR.H
C:\PROGRAM FILES (X86)\WINDOWS KITS\8.0\INCLUDE\UM\RPCNSIP.H
C:\PROGRAM FILES (X86)\WINDOWS KITS\8.0\INCLUDE\SHARED\RPCSAL.H
C:\PROGRAM FILES (X86)\WINDOWS KITS\8.0\INCLUDE\SHARED\WTYPESBASE.H
C:\PROGRAM FILES (X86)\WINDOWS KITS\8.0\INCLUDE\UM\WINIOCTL.H
C:\PROGRAM FILES (X86)\WINDOWS KITS\8.0\INCLUDE\SHARED\WINSMCRD.H
C:\PROGRAM FILES (X86)\WINDOWS KITS\8.0\INCLUDE\UM\WINSPOOL.H
C:\PROGRAM FILES (X86)\WINDOWS KITS\8.0\INCLUDE\UM\PRSHT.H
C:\PROGRAM FILES (X86)\WINDOWS KITS\8.0\INCLUDE\UM\OLE2.H
C:\PROGRAM FILES (X86)\WINDOWS KITS\8.0\INCLUDE\UM\OBJBASE.H
C:\PROGRAM FILES (X86)\WINDOWS KITS\8.0\INCLUDE\UM\COMBASEAPI.H
C:\PROGRAM FILES (X86)\WINDOWS KITS\8.0\INCLUDE\UM\UNKNWNBASE.H
C:\PROGRAM FILES (X86)\WINDOWS KITS\8.0\INCLUDE\UM\OBJIDLBASE.H
C:\PROGRAM FILES (X86)\WINDOWS KITS\8.0\INCLUDE\UM\CGUID.H
C:\PROGRAM FILES (X86)\WINDOWS KITS\8.0\INCLUDE\UM\OBJIDL.H
C:\PROGRAM FILES (X86)\WINDOWS KITS\8.0\INCLUDE\UM\UNKNWN.H
C:\PROGRAM FILES (X86)\WINDOWS KITS\8.0\INCLUDE\UM\URLMON.H
C:\PROGRAM FILES (X86)\WINDOWS KITS\8.0\INCLUDE\UM\OLEIDL.H
C:\PROGRAM FILES (X86)\WINDOWS KITS\8.0\INCLUDE\UM\SERVPROV.H
C:\PROGRAM FILES (X86)\WINDOWS KITS\8.0\INCLUDE\UM\MSXML.H
C:\PROGRAM FILES (X86)\WINDOWS KITS\8.0\INCLUDE\UM\OAIDL.H
C:\PROGRAM FILES (X86)\WINDOWS KITS\8.0\INCLUDE\UM\PROPIDL.H
C:\PROGRAM FILES (X86)\WINDOWS KITS\8.0\INCLUDE\UM\OLEAUTO.H
C:\PROGRAM FILES (X86)\WINDOWS KITS\8.0\INCLUDE\UM\COMMDLG.H
C:\PROGRAM FILES (X86)\WINDOWS KITS\8.0\INCLUDE\SHARED\STRALIGN.H
C:\PROGRAM FILES (X86)\WINDOWS KITS\8.0\INCLUDE\UM\WINSVC.H
C:\PROGRAM FILES (X86)\WINDOWS KITS\8.0\INCLUDE\UM\MCX.H
C:\PROGRAM FILES (X86)\WINDOWS KITS\8.0\INCLUDE\UM\IMM.H
C:\PROGRAM FILES (X86)\WINDOWS KITS\8.0\INCLUDE\UM\IME_CMODES.H
C:\PROGRAM FILES (X86)\WINDOWS KITS\8.0\INCLUDE\UM\GL\GL.H
D:\ADD ON\NORMAL OPS\DROPBOX\NEUMONT\QUARTER 9\GAME ENGINE IMPLEMENTATION AND DEVELOPOMENT\TEMPLATE\BASTIEN_AUXER_BSGD_SA\COMPUTERGRAPHICS\CONVERTER\CONVERTERSYSTEM.H
D:\ADD ON\NORMAL OPS\DROPBOX\NEUMONT\QUARTER 9\GAME ENGINE IMPLEMENTATION AND DEVELOPOMENT\TEMPLATE\BASTIEN_AUXER_BSGD_SA\COMPUTERGRAPHICS\CONVERTER\UTILITY\FILEGRABBER.H
D:\ADD ON\SCHOOL\VISUAL STUDIO 2012\VC\INCLUDE\IOSTREAM
D:\ADD ON\SCHOOL\VISUAL STUDIO 2012\VC\INCLUDE\LOCALE
D:\ADD ON\SCHOOL\VISUAL STUDIO 2012\VC\INCLUDE\XLOCBUF
D:\ADD ON\SCHOOL\VISUAL STUDIO 2012\VC\INCLUDE\XLOCMES
D:\ADD ON\SCHOOL\VISUAL STUDIO 2012\VC\INCLUDE\XLOCMON
D:\ADD ON\SCHOOL\VISUAL STUDIO 2012\VC\INCLUDE\XLOCTIME
D:\ADD ON\SCHOOL\VISUAL STUDIO 2012\VC\INCLUDE\CTIME
D:\ADD ON\SCHOOL\VISUAL STUDIO 2012\VC\INCLUDE\TIME.H
D:\ADD ON\SCHOOL\VISUAL STUDIO 2012\VC\INCLUDE\TIME.INL
D:\ADD ON\SCHOOL\VISUAL STUDIO 2012\VC\INCLUDE\DIRECT.H
D:\ADD ON\SCHOOL\VISUAL STUDIO 2012\VC\INCLUDE\FSTREAM
D:\ADD ON\SCHOOL\VISUAL STUDIO 2012\VC\INCLUDE\ASSERT.H
