^D:\ADD ON\NORMAL OPS\DROPBOX\NEUMONT\QUARTER 9\GAME ENGINE IMPLEMENTATION AND DEVELOPOMENT\TEMPLATE\BASTIEN_AUXER_BSGD_SA\COMPUTERGRAPHICS\COMPUTERGRAPHICS\DEBUG\TEMP\ALEXANDER.OBJ|D:\ADD ON\NORMAL OPS\DROPBOX\NEUMONT\QUARTER 9\GAME ENGINE IMPLEMENTATION AND DEVELOPOMENT\TEMPLATE\BASTIEN_AUXER_BSGD_SA\COMPUTERGRAPHICS\COMPUTERGRAPHICS\DEBUG\TEMP\CAMERATRACKER.OBJ|D:\ADD ON\NORMAL OPS\DROPBOX\NEUMONT\QUARTER 9\GAME ENGINE IMPLEMENTATION AND DEVELOPOMENT\TEMPLATE\BASTIEN_AUXER_BSGD_SA\COMPUTERGRAPHICS\COMPUTERGRAPHICS\DEBUG\TEMP\COLLITIONCOMP.OBJ|D:\ADD ON\NORMAL OPS\DROPBOX\NEUMONT\QUARTER 9\GAME ENGINE IMPLEMENTATION AND DEVELOPOMENT\TEMPLATE\BASTIEN_AUXER_BSGD_SA\COMPUTERGRAPHICS\COMPUTERGRAPHICS\DEBUG\TEMP\CONTROLLERCOMPONENT.OBJ|D:\ADD ON\NORMAL OPS\DROPBOX\NEUMONT\QUARTER 9\GAME ENGINE IMPLEMENTATION AND DEVELOPOMENT\TEMPLATE\BASTIEN_AUXER_BSGD_SA\COMPUTERGRAPHICS\COMPUTERGRAPHICS\DEBUG\TEMP\DISPLAY.OBJ|D:\ADD ON\NORMAL OPS\DROPBOX\NEUMONT\QUARTER 9\GAME ENGINE IMPLEMENTATION AND DEVELOPOMENT\TEMPLATE\BASTIEN_AUXER_BSGD_SA\COMPUTERGRAPHICS\COMPUTERGRAPHICS\DEBUG\TEMP\DISPLAY_MOC.OBJ|D:\ADD ON\NORMAL OPS\DROPBOX\NEUMONT\QUARTER 9\GAME ENGINE IMPLEMENTATION AND DEVELOPOMENT\TEMPLATE\BASTIEN_AUXER_BSGD_SA\COMPUTERGRAPHICS\COMPUTERGRAPHICS\DEBUG\TEMP\DISTRUPTOR.OBJ|D:\ADD ON\NORMAL OPS\DROPBOX\NEUMONT\QUARTER 9\GAME ENGINE IMPLEMENTATION AND DEVELOPOMENT\TEMPLATE\BASTIEN_AUXER_BSGD_SA\COMPUTERGRAPHICS\COMPUTERGRAPHICS\DEBUG\TEMP\ENGINE.OBJ|D:\ADD ON\NORMAL OPS\DROPBOX\NEUMONT\QUARTER 9\GAME ENGINE IMPLEMENTATION AND DEVELOPOMENT\TEMPLATE\BASTIEN_AUXER_BSGD_SA\COMPUTERGRAPHICS\COMPUTERGRAPHICS\DEBUG\TEMP\GAMEMANAGER.OBJ|D:\ADD ON\NORMAL OPS\DROPBOX\NEUMONT\QUARTER 9\GAME ENGINE IMPLEMENTATION AND DEVELOPOMENT\TEMPLATE\BASTIEN_AUXER_BSGD_SA\COMPUTERGRAPHICS\COMPUTERGRAPHICS\DEBUG\TEMP\GLWINDOW.OBJ|D:\ADD ON\NORMAL OPS\DROPBOX\NEUMONT\QUARTER 9\GAME ENGINE IMPLEMENTATION AND DEVELOPOMENT\TEMPLATE\BASTIEN_AUXER_BSGD_SA\COMPUTERGRAPHICS\COMPUTERGRAPHICS\DEBUG\TEMP\KEYMAPPER.OBJ|D:\ADD ON\NORMAL OPS\DROPBOX\NEUMONT\QUARTER 9\GAME ENGINE IMPLEMENTATION AND DEVELOPOMENT\TEMPLATE\BASTIEN_AUXER_BSGD_SA\COMPUTERGRAPHICS\COMPUTERGRAPHICS\DEBUG\TEMP\MAIN.OBJ|D:\ADD ON\NORMAL OPS\DROPBOX\NEUMONT\QUARTER 9\GAME ENGINE IMPLEMENTATION AND DEVELOPOMENT\TEMPLATE\BASTIEN_AUXER_BSGD_SA\COMPUTERGRAPHICS\COMPUTERGRAPHICS\DEBUG\TEMP\MOVEFORWARDCOMPONENT.OBJ|D:\ADD ON\NORMAL OPS\DROPBOX\NEUMONT\QUARTER 9\GAME ENGINE IMPLEMENTATION AND DEVELOPOMENT\TEMPLATE\BASTIEN_AUXER_BSGD_SA\COMPUTERGRAPHICS\COMPUTERGRAPHICS\DEBUG\TEMP\PARTICLE.OBJ|D:\ADD ON\NORMAL OPS\DROPBOX\NEUMONT\QUARTER 9\GAME ENGINE IMPLEMENTATION AND DEVELOPOMENT\TEMPLATE\BASTIEN_AUXER_BSGD_SA\COMPUTERGRAPHICS\COMPUTERGRAPHICS\DEBUG\TEMP\RANDOMPOSITONCOMP.OBJ|D:\ADD ON\NORMAL OPS\DROPBOX\NEUMONT\QUARTER 9\GAME ENGINE IMPLEMENTATION AND DEVELOPOMENT\TEMPLATE\BASTIEN_AUXER_BSGD_SA\COMPUTERGRAPHICS\COMPUTERGRAPHICS\DEBUG\TEMP\RESETPOSITION.OBJ|D:\ADD ON\NORMAL OPS\DROPBOX\NEUMONT\QUARTER 9\GAME ENGINE IMPLEMENTATION AND DEVELOPOMENT\TEMPLATE\BASTIEN_AUXER_BSGD_SA\COMPUTERGRAPHICS\COMPUTERGRAPHICS\DEBUG\TEMP\RESTTORANDOMPOSITIONCOMP.OBJ|D:\ADD ON\NORMAL OPS\DROPBOX\NEUMONT\QUARTER 9\GAME ENGINE IMPLEMENTATION AND DEVELOPOMENT\TEMPLATE\BASTIEN_AUXER_BSGD_SA\COMPUTERGRAPHICS\COMPUTERGRAPHICS\DEBUG\TEMP\SHIP.OBJ|D:\ADD ON\NORMAL OPS\DROPBOX\NEUMONT\QUARTER 9\GAME ENGINE IMPLEMENTATION AND DEVELOPOMENT\TEMPLATE\BASTIEN_AUXER_BSGD_SA\COMPUTERGRAPHICS\COMPUTERGRAPHICS\DEBUG\TEMP\THRUSTER.OBJ|D:\ADD ON\NORMAL OPS\DROPBOX\NEUMONT\QUARTER 9\GAME ENGINE IMPLEMENTATION AND DEVELOPOMENT\TEMPLATE\BASTIEN_AUXER_BSGD_SA\COMPUTERGRAPHICS\COMPUTERGRAPHICS\DEBUG\TEMP\TORPEDO.OBJ|D:\ADD ON\NORMAL OPS\DROPBOX\NEUMONT\QUARTER 9\GAME ENGINE IMPLEMENTATION AND DEVELOPOMENT\TEMPLATE\BASTIEN_AUXER_BSGD_SA\COMPUTERGRAPHICS\COMPUTERGRAPHICS\DEBUG\TEMP\TURBO.OBJ
D:\ADD ON\NORMAL OPS\DROPBOX\NEUMONT\QUARTER 9\GAME ENGINE IMPLEMENTATION AND DEVELOPOMENT\TEMPLATE\BASTIEN_AUXER_BSGD_SA\COMPUTERGRAPHICS\TEMP\DEBUG\LIB\BAENGINE.LIB
D:\ADD ON\NORMAL OPS\DROPBOX\NEUMONT\QUARTER 9\GAME ENGINE IMPLEMENTATION AND DEVELOPOMENT\TEMPLATE\BASTIEN_AUXER_BSGD_SA\COMPUTERGRAPHICS\CORE\LIB\CORE.LIB
C:\PROGRAM FILES (X86)\WINDOWS KITS\8.0\LIB\WIN8\UM\X86\OPENGL32.LIB
D:\ADD ON\NORMAL OPS\DROPBOX\NEUMONT\QUARTER 9\GAME ENGINE IMPLEMENTATION AND DEVELOPOMENT\TEMPLATE\BASTIEN_AUXER_BSGD_SA\EXTERNALDEPENDENCIES\GLEW\LIB\GLEW32D.LIB
D:\ADD ON\NORMAL OPS\DROPBOX\NEUMONT\QUARTER 9\GAME ENGINE IMPLEMENTATION AND DEVELOPOMENT\TEMPLATE\BASTIEN_AUXER_BSGD_SA\EXTERNALDEPENDENCIES\GLEW\LIB\GLEW32SD.LIB
D:\ADD ON\NORMAL OPS\DROPBOX\NEUMONT\QUARTER 9\GAME ENGINE IMPLEMENTATION AND DEVELOPOMENT\TEMPLATE\BASTIEN_AUXER_BSGD_SA\EXTERNALDEPENDENCIES\QT\LIB\QTCORED4.LIB
D:\ADD ON\NORMAL OPS\DROPBOX\NEUMONT\QUARTER 9\GAME ENGINE IMPLEMENTATION AND DEVELOPOMENT\TEMPLATE\BASTIEN_AUXER_BSGD_SA\EXTERNALDEPENDENCIES\QT\LIB\QTGUID4.LIB
D:\ADD ON\NORMAL OPS\DROPBOX\NEUMONT\QUARTER 9\GAME ENGINE IMPLEMENTATION AND DEVELOPOMENT\TEMPLATE\BASTIEN_AUXER_BSGD_SA\EXTERNALDEPENDENCIES\QT\LIB\QTOPENGLD4.LIB
C:\PROGRAM FILES (X86)\WINDOWS KITS\8.0\LIB\WIN8\UM\X86\KERNEL32.LIB
C:\PROGRAM FILES (X86)\WINDOWS KITS\8.0\LIB\WIN8\UM\X86\USER32.LIB
C:\PROGRAM FILES (X86)\WINDOWS KITS\8.0\LIB\WIN8\UM\X86\GDI32.LIB
C:\PROGRAM FILES (X86)\WINDOWS KITS\8.0\LIB\WIN8\UM\X86\WINSPOOL.LIB
C:\PROGRAM FILES (X86)\WINDOWS KITS\8.0\LIB\WIN8\UM\X86\COMDLG32.LIB
C:\PROGRAM FILES (X86)\WINDOWS KITS\8.0\LIB\WIN8\UM\X86\ADVAPI32.LIB
C:\PROGRAM FILES (X86)\WINDOWS KITS\8.0\LIB\WIN8\UM\X86\SHELL32.LIB
C:\PROGRAM FILES (X86)\WINDOWS KITS\8.0\LIB\WIN8\UM\X86\OLE32.LIB
C:\PROGRAM FILES (X86)\WINDOWS KITS\8.0\LIB\WIN8\UM\X86\OLEAUT32.LIB
C:\PROGRAM FILES (X86)\WINDOWS KITS\8.0\LIB\WIN8\UM\X86\UUID.LIB
C:\PROGRAM FILES (X86)\WINDOWS KITS\8.0\LIB\WIN8\UM\X86\ODBC32.LIB
C:\PROGRAM FILES (X86)\WINDOWS KITS\8.0\LIB\WIN8\UM\X86\ODBCCP32.LIB
D:\ADD ON\NORMAL OPS\DROPBOX\NEUMONT\QUARTER 9\GAME ENGINE IMPLEMENTATION AND DEVELOPOMENT\TEMPLATE\BASTIEN_AUXER_BSGD_SA\COMPUTERGRAPHICS\COMPUTERGRAPHICS\DEBUG\TEMP\ALEXANDER.OBJ
D:\ADD ON\NORMAL OPS\DROPBOX\NEUMONT\QUARTER 9\GAME ENGINE IMPLEMENTATION AND DEVELOPOMENT\TEMPLATE\BASTIEN_AUXER_BSGD_SA\COMPUTERGRAPHICS\COMPUTERGRAPHICS\DEBUG\TEMP\ENGINE.OBJ
D:\ADD ON\NORMAL OPS\DROPBOX\NEUMONT\QUARTER 9\GAME ENGINE IMPLEMENTATION AND DEVELOPOMENT\TEMPLATE\BASTIEN_AUXER_BSGD_SA\COMPUTERGRAPHICS\COMPUTERGRAPHICS\DEBUG\TEMP\CAMERATRACKER.OBJ
D:\ADD ON\NORMAL OPS\DROPBOX\NEUMONT\QUARTER 9\GAME ENGINE IMPLEMENTATION AND DEVELOPOMENT\TEMPLATE\BASTIEN_AUXER_BSGD_SA\COMPUTERGRAPHICS\COMPUTERGRAPHICS\DEBUG\TEMP\COLLITIONCOMP.OBJ
D:\ADD ON\NORMAL OPS\DROPBOX\NEUMONT\QUARTER 9\GAME ENGINE IMPLEMENTATION AND DEVELOPOMENT\TEMPLATE\BASTIEN_AUXER_BSGD_SA\COMPUTERGRAPHICS\COMPUTERGRAPHICS\DEBUG\TEMP\THRUSTER.OBJ
D:\ADD ON\NORMAL OPS\DROPBOX\NEUMONT\QUARTER 9\GAME ENGINE IMPLEMENTATION AND DEVELOPOMENT\TEMPLATE\BASTIEN_AUXER_BSGD_SA\COMPUTERGRAPHICS\COMPUTERGRAPHICS\DEBUG\TEMP\GAMEMANAGER.OBJ
D:\ADD ON\NORMAL OPS\DROPBOX\NEUMONT\QUARTER 9\GAME ENGINE IMPLEMENTATION AND DEVELOPOMENT\TEMPLATE\BASTIEN_AUXER_BSGD_SA\COMPUTERGRAPHICS\COMPUTERGRAPHICS\DEBUG\TEMP\PARTICLE.OBJ
D:\ADD ON\NORMAL OPS\DROPBOX\NEUMONT\QUARTER 9\GAME ENGINE IMPLEMENTATION AND DEVELOPOMENT\TEMPLATE\BASTIEN_AUXER_BSGD_SA\COMPUTERGRAPHICS\COMPUTERGRAPHICS\DEBUG\TEMP\TURBO.OBJ
D:\ADD ON\NORMAL OPS\DROPBOX\NEUMONT\QUARTER 9\GAME ENGINE IMPLEMENTATION AND DEVELOPOMENT\TEMPLATE\BASTIEN_AUXER_BSGD_SA\COMPUTERGRAPHICS\COMPUTERGRAPHICS\DEBUG\TEMP\DISTRUPTOR.OBJ
D:\ADD ON\NORMAL OPS\DROPBOX\NEUMONT\QUARTER 9\GAME ENGINE IMPLEMENTATION AND DEVELOPOMENT\TEMPLATE\BASTIEN_AUXER_BSGD_SA\COMPUTERGRAPHICS\COMPUTERGRAPHICS\DEBUG\TEMP\CONTROLLERCOMPONENT.OBJ
D:\ADD ON\NORMAL OPS\DROPBOX\NEUMONT\QUARTER 9\GAME ENGINE IMPLEMENTATION AND DEVELOPOMENT\TEMPLATE\BASTIEN_AUXER_BSGD_SA\COMPUTERGRAPHICS\COMPUTERGRAPHICS\DEBUG\TEMP\DISPLAY.OBJ
D:\ADD ON\NORMAL OPS\DROPBOX\NEUMONT\QUARTER 9\GAME ENGINE IMPLEMENTATION AND DEVELOPOMENT\TEMPLATE\BASTIEN_AUXER_BSGD_SA\COMPUTERGRAPHICS\COMPUTERGRAPHICS\DEBUG\TEMP\DISPLAY_MOC.OBJ
D:\ADD ON\NORMAL OPS\DROPBOX\NEUMONT\QUARTER 9\GAME ENGINE IMPLEMENTATION AND DEVELOPOMENT\TEMPLATE\BASTIEN_AUXER_BSGD_SA\COMPUTERGRAPHICS\COMPUTERGRAPHICS\DEBUG\TEMP\KEYMAPPER.OBJ
D:\ADD ON\NORMAL OPS\DROPBOX\NEUMONT\QUARTER 9\GAME ENGINE IMPLEMENTATION AND DEVELOPOMENT\TEMPLATE\BASTIEN_AUXER_BSGD_SA\COMPUTERGRAPHICS\COMPUTERGRAPHICS\DEBUG\TEMP\RESETPOSITION.OBJ
D:\ADD ON\NORMAL OPS\DROPBOX\NEUMONT\QUARTER 9\GAME ENGINE IMPLEMENTATION AND DEVELOPOMENT\TEMPLATE\BASTIEN_AUXER_BSGD_SA\COMPUTERGRAPHICS\COMPUTERGRAPHICS\DEBUG\TEMP\GLWINDOW.OBJ
D:\ADD ON\NORMAL OPS\DROPBOX\NEUMONT\QUARTER 9\GAME ENGINE IMPLEMENTATION AND DEVELOPOMENT\TEMPLATE\BASTIEN_AUXER_BSGD_SA\COMPUTERGRAPHICS\COMPUTERGRAPHICS\DEBUG\TEMP\MAIN.OBJ
D:\ADD ON\NORMAL OPS\DROPBOX\NEUMONT\QUARTER 9\GAME ENGINE IMPLEMENTATION AND DEVELOPOMENT\TEMPLATE\BASTIEN_AUXER_BSGD_SA\COMPUTERGRAPHICS\COMPUTERGRAPHICS\DEBUG\TEMP\MOVEFORWARDCOMPONENT.OBJ
D:\ADD ON\NORMAL OPS\DROPBOX\NEUMONT\QUARTER 9\GAME ENGINE IMPLEMENTATION AND DEVELOPOMENT\TEMPLATE\BASTIEN_AUXER_BSGD_SA\COMPUTERGRAPHICS\COMPUTERGRAPHICS\DEBUG\TEMP\RANDOMPOSITONCOMP.OBJ
D:\ADD ON\NORMAL OPS\DROPBOX\NEUMONT\QUARTER 9\GAME ENGINE IMPLEMENTATION AND DEVELOPOMENT\TEMPLATE\BASTIEN_AUXER_BSGD_SA\COMPUTERGRAPHICS\COMPUTERGRAPHICS\DEBUG\TEMP\RESTTORANDOMPOSITIONCOMP.OBJ
D:\ADD ON\NORMAL OPS\DROPBOX\NEUMONT\QUARTER 9\GAME ENGINE IMPLEMENTATION AND DEVELOPOMENT\TEMPLATE\BASTIEN_AUXER_BSGD_SA\COMPUTERGRAPHICS\COMPUTERGRAPHICS\DEBUG\TEMP\SHIP.OBJ
D:\ADD ON\NORMAL OPS\DROPBOX\NEUMONT\QUARTER 9\GAME ENGINE IMPLEMENTATION AND DEVELOPOMENT\TEMPLATE\BASTIEN_AUXER_BSGD_SA\COMPUTERGRAPHICS\COMPUTERGRAPHICS\DEBUG\TEMP\TORPEDO.OBJ
C:\WINDOWS\SYSTEM32\TZRES.DLL
C:\WINDOWS\GLOBALIZATION\SORTING\SORTDEFAULT.NLS
D:\ADD ON\SCHOOL\VISUAL STUDIO 2012\VC\LIB\MSVCPRTD.LIB
D:\ADD ON\SCHOOL\VISUAL STUDIO 2012\VC\LIB\MSVCRTD.LIB
D:\ADD ON\SCHOOL\VISUAL STUDIO 2012\VC\LIB\OLDNAMES.LIB
D:\ADD ON\SCHOOL\VISUAL STUDIO 2012\VC\BIN\LINK.EXE
C:\WINDOWS\SYSTEM32\RSAENH.DLL
C:\PROGRAM FILES (X86)\WINDOWS KITS\8.0\BIN\X86\RC.EXE
D:\ADD ON\SCHOOL\VISUAL STUDIO 2012\VC\BIN\CVTRES.EXE
