^G:\ALEXANDERENGINE\ALEXANDER\ALEXANDER\UNIFORMS\UNIFORMMANAGER\UNIFORMHANDLER.CPP
G:\ALEXANDERENGINE\ALEXANDER\ALEXANDER\UNIFORMS\UNIFORMMANAGER\UNIFORMHANDLER.H
G:\ALEXANDERENGINE\ALEXANDER\ALEXANDER\EXPORTHEADER.H
G:\ALEXANDERENGINE\EXTERNALDEPENDENCIES\GLM\GLM\GLM.HPP
G:\ALEXANDERENGINE\EXTERNALDEPENDENCIES\GLM\GLM\CORE\_FIXES.HPP
G:\ADDON\SCHOOL\VISUALSTUDIO2013\VC\INCLUDE\CMATH
G:\ADDON\SCHOOL\VISUALSTUDIO2013\VC\INCLUDE\YVALS.H
G:\ADDON\SCHOOL\VISUALSTUDIO2013\VC\INCLUDE\XKEYCHECK.H
G:\ADDON\SCHOOL\VISUALSTUDIO2013\VC\INCLUDE\CRTDEFS.H
G:\ADDON\SCHOOL\VISUALSTUDIO2013\VC\INCLUDE\SAL.H
G:\ADDON\SCHOOL\VISUALSTUDIO2013\VC\INCLUDE\CONCURRENCYSAL.H
G:\ADDON\SCHOOL\VISUALSTUDIO2013\VC\INCLUDE\VADEFS.H
G:\ADDON\SCHOOL\VISUALSTUDIO2013\VC\INCLUDE\USE_ANSI.H
G:\ADDON\SCHOOL\VISUALSTUDIO2013\VC\INCLUDE\MATH.H
G:\ADDON\SCHOOL\VISUALSTUDIO2013\VC\INCLUDE\XTGMATH.H
G:\ADDON\SCHOOL\VISUALSTUDIO2013\VC\INCLUDE\XTR1COMMON
G:\ADDON\SCHOOL\VISUALSTUDIO2013\VC\INCLUDE\CLIMITS
G:\ADDON\SCHOOL\VISUALSTUDIO2013\VC\INCLUDE\LIMITS.H
G:\ADDON\SCHOOL\VISUALSTUDIO2013\VC\INCLUDE\CFLOAT
G:\ADDON\SCHOOL\VISUALSTUDIO2013\VC\INCLUDE\FLOAT.H
G:\ADDON\SCHOOL\VISUALSTUDIO2013\VC\INCLUDE\CRTWRN.H
G:\ADDON\SCHOOL\VISUALSTUDIO2013\VC\INCLUDE\LIMITS
G:\ADDON\SCHOOL\VISUALSTUDIO2013\VC\INCLUDE\YMATH.H
G:\ADDON\SCHOOL\VISUALSTUDIO2013\VC\INCLUDE\CWCHAR
G:\ADDON\SCHOOL\VISUALSTUDIO2013\VC\INCLUDE\WCHAR.H
G:\ADDON\SCHOOL\VISUALSTUDIO2013\VC\INCLUDE\SWPRINTF.INL
G:\ADDON\SCHOOL\VISUALSTUDIO2013\VC\INCLUDE\WTIME.INL
G:\ADDON\SCHOOL\VISUALSTUDIO2013\VC\INCLUDE\XSTDDEF
G:\ADDON\SCHOOL\VISUALSTUDIO2013\VC\INCLUDE\STDLIB.H
G:\ADDON\SCHOOL\VISUALSTUDIO2013\VC\INCLUDE\CSTDDEF
G:\ADDON\SCHOOL\VISUALSTUDIO2013\VC\INCLUDE\STDDEF.H
G:\ADDON\SCHOOL\VISUALSTUDIO2013\VC\INCLUDE\INITIALIZER_LIST
G:\ADDON\SCHOOL\VISUALSTUDIO2013\VC\INCLUDE\CSTDIO
G:\ADDON\SCHOOL\VISUALSTUDIO2013\VC\INCLUDE\STDIO.H
G:\ALEXANDERENGINE\EXTERNALDEPENDENCIES\GLM\GLM\CORE\SETUP.HPP
G:\ALEXANDERENGINE\EXTERNALDEPENDENCIES\GLM\GLM\CORE\_DETAIL.HPP
G:\ADDON\SCHOOL\VISUALSTUDIO2013\VC\INCLUDE\CASSERT
G:\ADDON\SCHOOL\VISUALSTUDIO2013\VC\INCLUDE\ASSERT.H
G:\ALEXANDERENGINE\EXTERNALDEPENDENCIES\GLM\GLM\CORE\TYPE.HPP
G:\ALEXANDERENGINE\EXTERNALDEPENDENCIES\GLM\GLM\CORE\TYPE_HALF.HPP
G:\ADDON\SCHOOL\VISUALSTUDIO2013\VC\INCLUDE\CSTDLIB
G:\ALEXANDERENGINE\EXTERNALDEPENDENCIES\GLM\GLM\CORE\TYPE_HALF.INL
G:\ALEXANDERENGINE\EXTERNALDEPENDENCIES\GLM\GLM\CORE\TYPE_FLOAT.HPP
G:\ALEXANDERENGINE\EXTERNALDEPENDENCIES\GLM\GLM\CORE\TYPE_INT.HPP
G:\ALEXANDERENGINE\EXTERNALDEPENDENCIES\GLM\GLM\CORE\TYPE_GENTYPE.HPP
G:\ALEXANDERENGINE\EXTERNALDEPENDENCIES\GLM\GLM\CORE\TYPE_SIZE.HPP
G:\ALEXANDERENGINE\EXTERNALDEPENDENCIES\GLM\GLM\CORE\TYPE_VEC1.HPP
G:\ALEXANDERENGINE\EXTERNALDEPENDENCIES\GLM\GLM\CORE\TYPE_VEC.HPP
G:\ALEXANDERENGINE\EXTERNALDEPENDENCIES\GLM\GLM\CORE\_SWIZZLE.HPP
G:\ALEXANDERENGINE\EXTERNALDEPENDENCIES\GLM\GLM\CORE\_SWIZZLE_FUNC.HPP
G:\ALEXANDERENGINE\EXTERNALDEPENDENCIES\GLM\GLM\CORE\TYPE_VEC1.INL
G:\ALEXANDERENGINE\EXTERNALDEPENDENCIES\GLM\GLM\CORE\TYPE_VEC2.HPP
G:\ALEXANDERENGINE\EXTERNALDEPENDENCIES\GLM\GLM\CORE\TYPE_VEC2.INL
G:\ALEXANDERENGINE\EXTERNALDEPENDENCIES\GLM\GLM\CORE\TYPE_VEC3.HPP
G:\ALEXANDERENGINE\EXTERNALDEPENDENCIES\GLM\GLM\CORE\TYPE_VEC3.INL
G:\ALEXANDERENGINE\EXTERNALDEPENDENCIES\GLM\GLM\CORE\TYPE_VEC4.HPP
G:\ALEXANDERENGINE\EXTERNALDEPENDENCIES\GLM\GLM\CORE\TYPE_VEC4.INL
G:\ALEXANDERENGINE\EXTERNALDEPENDENCIES\GLM\GLM\CORE\TYPE_MAT2X2.HPP
G:\ALEXANDERENGINE\EXTERNALDEPENDENCIES\GLM\GLM\CORE\TYPE_MAT.HPP
G:\ALEXANDERENGINE\EXTERNALDEPENDENCIES\GLM\GLM\CORE\TYPE_MAT2X2.INL
G:\ALEXANDERENGINE\EXTERNALDEPENDENCIES\GLM\GLM\CORE\TYPE_MAT2X3.HPP
G:\ALEXANDERENGINE\EXTERNALDEPENDENCIES\GLM\GLM\CORE\TYPE_MAT2X3.INL
G:\ALEXANDERENGINE\EXTERNALDEPENDENCIES\GLM\GLM\CORE\TYPE_MAT2X4.HPP
G:\ALEXANDERENGINE\EXTERNALDEPENDENCIES\GLM\GLM\CORE\TYPE_MAT2X4.INL
G:\ALEXANDERENGINE\EXTERNALDEPENDENCIES\GLM\GLM\CORE\TYPE_MAT3X2.HPP
G:\ALEXANDERENGINE\EXTERNALDEPENDENCIES\GLM\GLM\CORE\TYPE_MAT3X2.INL
G:\ALEXANDERENGINE\EXTERNALDEPENDENCIES\GLM\GLM\CORE\TYPE_MAT3X3.HPP
G:\ALEXANDERENGINE\EXTERNALDEPENDENCIES\GLM\GLM\CORE\TYPE_MAT3X3.INL
G:\ALEXANDERENGINE\EXTERNALDEPENDENCIES\GLM\GLM\CORE\TYPE_MAT3X4.HPP
G:\ALEXANDERENGINE\EXTERNALDEPENDENCIES\GLM\GLM\CORE\TYPE_MAT3X4.INL
G:\ALEXANDERENGINE\EXTERNALDEPENDENCIES\GLM\GLM\CORE\TYPE_MAT4X2.HPP
G:\ALEXANDERENGINE\EXTERNALDEPENDENCIES\GLM\GLM\CORE\TYPE_MAT4X2.INL
G:\ALEXANDERENGINE\EXTERNALDEPENDENCIES\GLM\GLM\CORE\TYPE_MAT4X3.HPP
G:\ALEXANDERENGINE\EXTERNALDEPENDENCIES\GLM\GLM\CORE\TYPE_MAT4X3.INL
G:\ALEXANDERENGINE\EXTERNALDEPENDENCIES\GLM\GLM\CORE\TYPE_MAT4X4.HPP
G:\ALEXANDERENGINE\EXTERNALDEPENDENCIES\GLM\GLM\CORE\TYPE_MAT4X4.INL
G:\ALEXANDERENGINE\EXTERNALDEPENDENCIES\GLM\GLM\CORE\FUNC_TRIGONOMETRIC.HPP
G:\ALEXANDERENGINE\EXTERNALDEPENDENCIES\GLM\GLM\CORE\FUNC_TRIGONOMETRIC.INL
G:\ALEXANDERENGINE\EXTERNALDEPENDENCIES\GLM\GLM\CORE\_VECTORIZE.HPP
G:\ALEXANDERENGINE\EXTERNALDEPENDENCIES\GLM\GLM\CORE\FUNC_EXPONENTIAL.HPP
G:\ALEXANDERENGINE\EXTERNALDEPENDENCIES\GLM\GLM\CORE\FUNC_EXPONENTIAL.INL
G:\ALEXANDERENGINE\EXTERNALDEPENDENCIES\GLM\GLM\CORE\FUNC_COMMON.HPP
G:\ALEXANDERENGINE\EXTERNALDEPENDENCIES\GLM\GLM\CORE\FUNC_COMMON.INL
G:\ALEXANDERENGINE\EXTERNALDEPENDENCIES\GLM\GLM\CORE\FUNC_PACKING.HPP
G:\ALEXANDERENGINE\EXTERNALDEPENDENCIES\GLM\GLM\CORE\FUNC_PACKING.INL
G:\ALEXANDERENGINE\EXTERNALDEPENDENCIES\GLM\GLM\CORE\FUNC_GEOMETRIC.HPP
G:\ALEXANDERENGINE\EXTERNALDEPENDENCIES\GLM\GLM\CORE\FUNC_GEOMETRIC.INL
G:\ALEXANDERENGINE\EXTERNALDEPENDENCIES\GLM\GLM\CORE\FUNC_MATRIX.HPP
G:\ALEXANDERENGINE\EXTERNALDEPENDENCIES\GLM\GLM\CORE\FUNC_MATRIX.INL
G:\ALEXANDERENGINE\EXTERNALDEPENDENCIES\GLM\GLM\CORE\FUNC_VECTOR_RELATIONAL.HPP
G:\ALEXANDERENGINE\EXTERNALDEPENDENCIES\GLM\GLM\CORE\FUNC_VECTOR_RELATIONAL.INL
G:\ALEXANDERENGINE\EXTERNALDEPENDENCIES\GLM\GLM\CORE\FUNC_INTEGER.HPP
G:\ALEXANDERENGINE\EXTERNALDEPENDENCIES\GLM\GLM\CORE\FUNC_INTEGER.INL
G:\ADDON\SCHOOL\VISUALSTUDIO2013\VC\INCLUDE\INTRIN.H
G:\ADDON\SCHOOL\VISUALSTUDIO2013\VC\INCLUDE\SETJMP.H
G:\ADDON\SCHOOL\VISUALSTUDIO2013\VC\INCLUDE\IMMINTRIN.H
G:\ADDON\SCHOOL\VISUALSTUDIO2013\VC\INCLUDE\WMMINTRIN.H
G:\ADDON\SCHOOL\VISUALSTUDIO2013\VC\INCLUDE\NMMINTRIN.H
G:\ADDON\SCHOOL\VISUALSTUDIO2013\VC\INCLUDE\SMMINTRIN.H
G:\ADDON\SCHOOL\VISUALSTUDIO2013\VC\INCLUDE\TMMINTRIN.H
G:\ADDON\SCHOOL\VISUALSTUDIO2013\VC\INCLUDE\PMMINTRIN.H
G:\ADDON\SCHOOL\VISUALSTUDIO2013\VC\INCLUDE\EMMINTRIN.H
G:\ADDON\SCHOOL\VISUALSTUDIO2013\VC\INCLUDE\XMMINTRIN.H
G:\ADDON\SCHOOL\VISUALSTUDIO2013\VC\INCLUDE\MMINTRIN.H
G:\ADDON\SCHOOL\VISUALSTUDIO2013\VC\INCLUDE\MALLOC.H
G:\ADDON\SCHOOL\VISUALSTUDIO2013\VC\INCLUDE\AMMINTRIN.H
G:\ADDON\SCHOOL\VISUALSTUDIO2013\VC\INCLUDE\MM3DNOW.H
G:\ALEXANDERENGINE\EXTERNALDEPENDENCIES\GLM\GLM\CORE\FUNC_NOISE.HPP
G:\ALEXANDERENGINE\EXTERNALDEPENDENCIES\GLM\GLM\CORE\FUNC_NOISE.INL
G:\ALEXANDERENGINE\EXTERNALDEPENDENCIES\GLEW\INCLUDE\GL\GLEW.H
C:\PROGRAM FILES (X86)\WINDOWS KITS\8.1\INCLUDE\UM\GL\GLU.H
C:\PROGRAM FILES (X86)\WINDOWS KITS\8.1\INCLUDE\SHARED\WINAPIFAMILY.H
C:\PROGRAM FILES (X86)\WINDOWS KITS\8.1\INCLUDE\UM\GL\GL.H
G:\ALEXANDERENGINE\EXTERNALDEPENDENCIES\GLM\GLM\GTX\TRANSFORM.HPP
G:\ALEXANDERENGINE\EXTERNALDEPENDENCIES\GLM\GLM\GTC\MATRIX_TRANSFORM.HPP
G:\ALEXANDERENGINE\EXTERNALDEPENDENCIES\GLM\GLM\GTC\MATRIX_TRANSFORM.INL
G:\ALEXANDERENGINE\EXTERNALDEPENDENCIES\GLM\GLM\GTX\TRANSFORM.INL
G:\ADDON\SCHOOL\VISUALSTUDIO2013\VC\INCLUDE\SSTREAM
G:\ADDON\SCHOOL\VISUALSTUDIO2013\VC\INCLUDE\STRING
G:\ADDON\SCHOOL\VISUALSTUDIO2013\VC\INCLUDE\ITERATOR
G:\ADDON\SCHOOL\VISUALSTUDIO2013\VC\INCLUDE\ISTREAM
G:\ADDON\SCHOOL\VISUALSTUDIO2013\VC\INCLUDE\OSTREAM
G:\ADDON\SCHOOL\VISUALSTUDIO2013\VC\INCLUDE\IOS
G:\ADDON\SCHOOL\VISUALSTUDIO2013\VC\INCLUDE\XLOCNUM
G:\ADDON\SCHOOL\VISUALSTUDIO2013\VC\INCLUDE\STREAMBUF
G:\ADDON\SCHOOL\VISUALSTUDIO2013\VC\INCLUDE\XIOSBASE
G:\ADDON\SCHOOL\VISUALSTUDIO2013\VC\INCLUDE\XLOCALE
G:\ADDON\SCHOOL\VISUALSTUDIO2013\VC\INCLUDE\CSTRING
G:\ADDON\SCHOOL\VISUALSTUDIO2013\VC\INCLUDE\STRING.H
G:\ADDON\SCHOOL\VISUALSTUDIO2013\VC\INCLUDE\STDEXCEPT
G:\ADDON\SCHOOL\VISUALSTUDIO2013\VC\INCLUDE\EXCEPTION
G:\ADDON\SCHOOL\VISUALSTUDIO2013\VC\INCLUDE\EH.H
G:\ADDON\SCHOOL\VISUALSTUDIO2013\VC\INCLUDE\XSTRING
G:\ADDON\SCHOOL\VISUALSTUDIO2013\VC\INCLUDE\XMEMORY0
G:\ADDON\SCHOOL\VISUALSTUDIO2013\VC\INCLUDE\NEW
G:\ADDON\SCHOOL\VISUALSTUDIO2013\VC\INCLUDE\XUTILITY
G:\ADDON\SCHOOL\VISUALSTUDIO2013\VC\INCLUDE\UTILITY
G:\ADDON\SCHOOL\VISUALSTUDIO2013\VC\INCLUDE\IOSFWD
G:\ADDON\SCHOOL\VISUALSTUDIO2013\VC\INCLUDE\CRTDBG.H
G:\ADDON\SCHOOL\VISUALSTUDIO2013\VC\INCLUDE\TYPE_TRAITS
G:\ADDON\SCHOOL\VISUALSTUDIO2013\VC\INCLUDE\XREFWRAP
G:\ADDON\SCHOOL\VISUALSTUDIO2013\VC\INCLUDE\XATOMIC0.H
G:\ADDON\SCHOOL\VISUALSTUDIO2013\VC\INCLUDE\TYPEINFO
G:\ADDON\SCHOOL\VISUALSTUDIO2013\VC\INCLUDE\XLOCINFO
G:\ADDON\SCHOOL\VISUALSTUDIO2013\VC\INCLUDE\XLOCINFO.H
G:\ADDON\SCHOOL\VISUALSTUDIO2013\VC\INCLUDE\CTYPE.H
G:\ADDON\SCHOOL\VISUALSTUDIO2013\VC\INCLUDE\LOCALE.H
G:\ADDON\SCHOOL\VISUALSTUDIO2013\VC\INCLUDE\XDEBUG
G:\ADDON\SCHOOL\VISUALSTUDIO2013\VC\INCLUDE\XMEMORY
G:\ADDON\SCHOOL\VISUALSTUDIO2013\VC\INCLUDE\XFACET
G:\ADDON\SCHOOL\VISUALSTUDIO2013\VC\INCLUDE\SYSTEM_ERROR
G:\ADDON\SCHOOL\VISUALSTUDIO2013\VC\INCLUDE\CERRNO
G:\ADDON\SCHOOL\VISUALSTUDIO2013\VC\INCLUDE\ERRNO.H
G:\ADDON\SCHOOL\VISUALSTUDIO2013\VC\INCLUDE\SHARE.H
G:\ALEXANDERENGINE\ALEXANDER\ALEXANDER\UNIFORMS\UNIFORMS.H
G:\ALEXANDERENGINE\ALEXANDER\ALEXANDER\UNIFORMS\UNIFORM.H
G:\ADDON\SCHOOL\VISUALSTUDIO2013\VC\INCLUDE\MAP
G:\ADDON\SCHOOL\VISUALSTUDIO2013\VC\INCLUDE\XTREE
G:\ADDON\SCHOOL\VISUALSTUDIO2013\VC\INCLUDE\TUPLE
^G:\ALEXANDERENGINE\ALEXANDER\ALEXANDER\UNIFORMS\UNIFORM.CPP
G:\ALEXANDERENGINE\ALEXANDER\ALEXANDER\UNIFORMS\UNIFORM.H
G:\ADDON\SCHOOL\VISUALSTUDIO2013\VC\INCLUDE\SSTREAM
G:\ADDON\SCHOOL\VISUALSTUDIO2013\VC\INCLUDE\STRING
G:\ADDON\SCHOOL\VISUALSTUDIO2013\VC\INCLUDE\ITERATOR
G:\ADDON\SCHOOL\VISUALSTUDIO2013\VC\INCLUDE\ISTREAM
G:\ADDON\SCHOOL\VISUALSTUDIO2013\VC\INCLUDE\OSTREAM
G:\ADDON\SCHOOL\VISUALSTUDIO2013\VC\INCLUDE\IOS
G:\ADDON\SCHOOL\VISUALSTUDIO2013\VC\INCLUDE\XLOCNUM
G:\ADDON\SCHOOL\VISUALSTUDIO2013\VC\INCLUDE\CLIMITS
G:\ADDON\SCHOOL\VISUALSTUDIO2013\VC\INCLUDE\YVALS.H
G:\ADDON\SCHOOL\VISUALSTUDIO2013\VC\INCLUDE\XKEYCHECK.H
G:\ADDON\SCHOOL\VISUALSTUDIO2013\VC\INCLUDE\CRTDEFS.H
G:\ADDON\SCHOOL\VISUALSTUDIO2013\VC\INCLUDE\SAL.H
G:\ADDON\SCHOOL\VISUALSTUDIO2013\VC\INCLUDE\CONCURRENCYSAL.H
G:\ADDON\SCHOOL\VISUALSTUDIO2013\VC\INCLUDE\VADEFS.H
G:\ADDON\SCHOOL\VISUALSTUDIO2013\VC\INCLUDE\USE_ANSI.H
G:\ADDON\SCHOOL\VISUALSTUDIO2013\VC\INCLUDE\LIMITS.H
G:\ADDON\SCHOOL\VISUALSTUDIO2013\VC\INCLUDE\CMATH
G:\ADDON\SCHOOL\VISUALSTUDIO2013\VC\INCLUDE\MATH.H
G:\ADDON\SCHOOL\VISUALSTUDIO2013\VC\INCLUDE\XTGMATH.H
G:\ADDON\SCHOOL\VISUALSTUDIO2013\VC\INCLUDE\XTR1COMMON
G:\ADDON\SCHOOL\VISUALSTUDIO2013\VC\INCLUDE\CSTDIO
G:\ADDON\SCHOOL\VISUALSTUDIO2013\VC\INCLUDE\STDIO.H
G:\ADDON\SCHOOL\VISUALSTUDIO2013\VC\INCLUDE\SWPRINTF.INL
G:\ADDON\SCHOOL\VISUALSTUDIO2013\VC\INCLUDE\CSTDLIB
G:\ADDON\SCHOOL\VISUALSTUDIO2013\VC\INCLUDE\STDLIB.H
G:\ADDON\SCHOOL\VISUALSTUDIO2013\VC\INCLUDE\STREAMBUF
G:\ADDON\SCHOOL\VISUALSTUDIO2013\VC\INCLUDE\XIOSBASE
G:\ADDON\SCHOOL\VISUALSTUDIO2013\VC\INCLUDE\XLOCALE
G:\ADDON\SCHOOL\VISUALSTUDIO2013\VC\INCLUDE\CSTRING
G:\ADDON\SCHOOL\VISUALSTUDIO2013\VC\INCLUDE\STRING.H
G:\ADDON\SCHOOL\VISUALSTUDIO2013\VC\INCLUDE\STDEXCEPT
G:\ADDON\SCHOOL\VISUALSTUDIO2013\VC\INCLUDE\EXCEPTION
G:\ADDON\SCHOOL\VISUALSTUDIO2013\VC\INCLUDE\XSTDDEF
G:\ADDON\SCHOOL\VISUALSTUDIO2013\VC\INCLUDE\CSTDDEF
G:\ADDON\SCHOOL\VISUALSTUDIO2013\VC\INCLUDE\STDDEF.H
G:\ADDON\SCHOOL\VISUALSTUDIO2013\VC\INCLUDE\INITIALIZER_LIST
G:\ADDON\SCHOOL\VISUALSTUDIO2013\VC\INCLUDE\EH.H
G:\ADDON\SCHOOL\VISUALSTUDIO2013\VC\INCLUDE\MALLOC.H
G:\ADDON\SCHOOL\VISUALSTUDIO2013\VC\INCLUDE\XSTRING
G:\ADDON\SCHOOL\VISUALSTUDIO2013\VC\INCLUDE\XMEMORY0
G:\ADDON\SCHOOL\VISUALSTUDIO2013\VC\INCLUDE\LIMITS
G:\ADDON\SCHOOL\VISUALSTUDIO2013\VC\INCLUDE\YMATH.H
G:\ADDON\SCHOOL\VISUALSTUDIO2013\VC\INCLUDE\CFLOAT
G:\ADDON\SCHOOL\VISUALSTUDIO2013\VC\INCLUDE\FLOAT.H
G:\ADDON\SCHOOL\VISUALSTUDIO2013\VC\INCLUDE\CRTWRN.H
G:\ADDON\SCHOOL\VISUALSTUDIO2013\VC\INCLUDE\CWCHAR
G:\ADDON\SCHOOL\VISUALSTUDIO2013\VC\INCLUDE\WCHAR.H
G:\ADDON\SCHOOL\VISUALSTUDIO2013\VC\INCLUDE\WTIME.INL
G:\ADDON\SCHOOL\VISUALSTUDIO2013\VC\INCLUDE\NEW
G:\ADDON\SCHOOL\VISUALSTUDIO2013\VC\INCLUDE\XUTILITY
G:\ADDON\SCHOOL\VISUALSTUDIO2013\VC\INCLUDE\UTILITY
G:\ADDON\SCHOOL\VISUALSTUDIO2013\VC\INCLUDE\IOSFWD
G:\ADDON\SCHOOL\VISUALSTUDIO2013\VC\INCLUDE\CRTDBG.H
G:\ADDON\SCHOOL\VISUALSTUDIO2013\VC\INCLUDE\TYPE_TRAITS
G:\ADDON\SCHOOL\VISUALSTUDIO2013\VC\INCLUDE\XREFWRAP
G:\ADDON\SCHOOL\VISUALSTUDIO2013\VC\INCLUDE\XATOMIC0.H
G:\ADDON\SCHOOL\VISUALSTUDIO2013\VC\INCLUDE\INTRIN.H
G:\ADDON\SCHOOL\VISUALSTUDIO2013\VC\INCLUDE\SETJMP.H
G:\ADDON\SCHOOL\VISUALSTUDIO2013\VC\INCLUDE\IMMINTRIN.H
G:\ADDON\SCHOOL\VISUALSTUDIO2013\VC\INCLUDE\WMMINTRIN.H
G:\ADDON\SCHOOL\VISUALSTUDIO2013\VC\INCLUDE\NMMINTRIN.H
G:\ADDON\SCHOOL\VISUALSTUDIO2013\VC\INCLUDE\SMMINTRIN.H
G:\ADDON\SCHOOL\VISUALSTUDIO2013\VC\INCLUDE\TMMINTRIN.H
G:\ADDON\SCHOOL\VISUALSTUDIO2013\VC\INCLUDE\PMMINTRIN.H
G:\ADDON\SCHOOL\VISUALSTUDIO2013\VC\INCLUDE\EMMINTRIN.H
G:\ADDON\SCHOOL\VISUALSTUDIO2013\VC\INCLUDE\XMMINTRIN.H
G:\ADDON\SCHOOL\VISUALSTUDIO2013\VC\INCLUDE\MMINTRIN.H
G:\ADDON\SCHOOL\VISUALSTUDIO2013\VC\INCLUDE\AMMINTRIN.H
G:\ADDON\SCHOOL\VISUALSTUDIO2013\VC\INCLUDE\MM3DNOW.H
G:\ADDON\SCHOOL\VISUALSTUDIO2013\VC\INCLUDE\TYPEINFO
G:\ADDON\SCHOOL\VISUALSTUDIO2013\VC\INCLUDE\XLOCINFO
G:\ADDON\SCHOOL\VISUALSTUDIO2013\VC\INCLUDE\XLOCINFO.H
G:\ADDON\SCHOOL\VISUALSTUDIO2013\VC\INCLUDE\CTYPE.H
G:\ADDON\SCHOOL\VISUALSTUDIO2013\VC\INCLUDE\LOCALE.H
G:\ADDON\SCHOOL\VISUALSTUDIO2013\VC\INCLUDE\XDEBUG
G:\ADDON\SCHOOL\VISUALSTUDIO2013\VC\INCLUDE\XMEMORY
G:\ADDON\SCHOOL\VISUALSTUDIO2013\VC\INCLUDE\XFACET
G:\ADDON\SCHOOL\VISUALSTUDIO2013\VC\INCLUDE\SYSTEM_ERROR
G:\ADDON\SCHOOL\VISUALSTUDIO2013\VC\INCLUDE\CERRNO
G:\ADDON\SCHOOL\VISUALSTUDIO2013\VC\INCLUDE\ERRNO.H
G:\ADDON\SCHOOL\VISUALSTUDIO2013\VC\INCLUDE\SHARE.H
^G:\ALEXANDERENGINE\ALEXANDER\ALEXANDER\RENDER\RENDERABLE\RENDERABLE.CPP
G:\ALEXANDERENGINE\ALEXANDER\ALEXANDER\RENDER\RENDERABLE\RENDERABLE.H
G:\ALEXANDERENGINE\ALEXANDER\ALEXANDER\EXPORTHEADER.H
^G:\ALEXANDERENGINE\ALEXANDER\ALEXANDER\RANDOM GENERATOR\RANDOMGENERATOR.CPP
G:\ALEXANDERENGINE\ALEXANDER\ALEXANDER\RANDOM GENERATOR\RANDOMGENERATOR.H
G:\ALEXANDERENGINE\ALEXANDER\ALEXANDER\EXPORTHEADER.H
G:\ALEXANDERENGINE\EXTERNALDEPENDENCIES\GLM\GLM\GLM.HPP
G:\ALEXANDERENGINE\EXTERNALDEPENDENCIES\GLM\GLM\CORE\_FIXES.HPP
G:\ADDON\SCHOOL\VISUALSTUDIO2013\VC\INCLUDE\CMATH
G:\ADDON\SCHOOL\VISUALSTUDIO2013\VC\INCLUDE\YVALS.H
G:\ADDON\SCHOOL\VISUALSTUDIO2013\VC\INCLUDE\XKEYCHECK.H
G:\ADDON\SCHOOL\VISUALSTUDIO2013\VC\INCLUDE\CRTDEFS.H
G:\ADDON\SCHOOL\VISUALSTUDIO2013\VC\INCLUDE\SAL.H
G:\ADDON\SCHOOL\VISUALSTUDIO2013\VC\INCLUDE\CONCURRENCYSAL.H
G:\ADDON\SCHOOL\VISUALSTUDIO2013\VC\INCLUDE\VADEFS.H
G:\ADDON\SCHOOL\VISUALSTUDIO2013\VC\INCLUDE\USE_ANSI.H
G:\ADDON\SCHOOL\VISUALSTUDIO2013\VC\INCLUDE\MATH.H
G:\ADDON\SCHOOL\VISUALSTUDIO2013\VC\INCLUDE\XTGMATH.H
G:\ADDON\SCHOOL\VISUALSTUDIO2013\VC\INCLUDE\XTR1COMMON
G:\ADDON\SCHOOL\VISUALSTUDIO2013\VC\INCLUDE\CLIMITS
G:\ADDON\SCHOOL\VISUALSTUDIO2013\VC\INCLUDE\LIMITS.H
G:\ADDON\SCHOOL\VISUALSTUDIO2013\VC\INCLUDE\CFLOAT
G:\ADDON\SCHOOL\VISUALSTUDIO2013\VC\INCLUDE\FLOAT.H
G:\ADDON\SCHOOL\VISUALSTUDIO2013\VC\INCLUDE\CRTWRN.H
G:\ADDON\SCHOOL\VISUALSTUDIO2013\VC\INCLUDE\LIMITS
G:\ADDON\SCHOOL\VISUALSTUDIO2013\VC\INCLUDE\YMATH.H
G:\ADDON\SCHOOL\VISUALSTUDIO2013\VC\INCLUDE\CWCHAR
G:\ADDON\SCHOOL\VISUALSTUDIO2013\VC\INCLUDE\WCHAR.H
G:\ADDON\SCHOOL\VISUALSTUDIO2013\VC\INCLUDE\SWPRINTF.INL
G:\ADDON\SCHOOL\VISUALSTUDIO2013\VC\INCLUDE\WTIME.INL
G:\ADDON\SCHOOL\VISUALSTUDIO2013\VC\INCLUDE\XSTDDEF
G:\ADDON\SCHOOL\VISUALSTUDIO2013\VC\INCLUDE\STDLIB.H
G:\ADDON\SCHOOL\VISUALSTUDIO2013\VC\INCLUDE\CSTDDEF
G:\ADDON\SCHOOL\VISUALSTUDIO2013\VC\INCLUDE\STDDEF.H
G:\ADDON\SCHOOL\VISUALSTUDIO2013\VC\INCLUDE\INITIALIZER_LIST
G:\ADDON\SCHOOL\VISUALSTUDIO2013\VC\INCLUDE\CSTDIO
G:\ADDON\SCHOOL\VISUALSTUDIO2013\VC\INCLUDE\STDIO.H
G:\ALEXANDERENGINE\EXTERNALDEPENDENCIES\GLM\GLM\CORE\SETUP.HPP
G:\ALEXANDERENGINE\EXTERNALDEPENDENCIES\GLM\GLM\CORE\_DETAIL.HPP
G:\ADDON\SCHOOL\VISUALSTUDIO2013\VC\INCLUDE\CASSERT
G:\ADDON\SCHOOL\VISUALSTUDIO2013\VC\INCLUDE\ASSERT.H
G:\ALEXANDERENGINE\EXTERNALDEPENDENCIES\GLM\GLM\CORE\TYPE.HPP
G:\ALEXANDERENGINE\EXTERNALDEPENDENCIES\GLM\GLM\CORE\TYPE_HALF.HPP
G:\ADDON\SCHOOL\VISUALSTUDIO2013\VC\INCLUDE\CSTDLIB
G:\ALEXANDERENGINE\EXTERNALDEPENDENCIES\GLM\GLM\CORE\TYPE_HALF.INL
G:\ALEXANDERENGINE\EXTERNALDEPENDENCIES\GLM\GLM\CORE\TYPE_FLOAT.HPP
G:\ALEXANDERENGINE\EXTERNALDEPENDENCIES\GLM\GLM\CORE\TYPE_INT.HPP
G:\ALEXANDERENGINE\EXTERNALDEPENDENCIES\GLM\GLM\CORE\TYPE_GENTYPE.HPP
G:\ALEXANDERENGINE\EXTERNALDEPENDENCIES\GLM\GLM\CORE\TYPE_SIZE.HPP
G:\ALEXANDERENGINE\EXTERNALDEPENDENCIES\GLM\GLM\CORE\TYPE_VEC1.HPP
G:\ALEXANDERENGINE\EXTERNALDEPENDENCIES\GLM\GLM\CORE\TYPE_VEC.HPP
G:\ALEXANDERENGINE\EXTERNALDEPENDENCIES\GLM\GLM\CORE\_SWIZZLE.HPP
G:\ALEXANDERENGINE\EXTERNALDEPENDENCIES\GLM\GLM\CORE\_SWIZZLE_FUNC.HPP
G:\ALEXANDERENGINE\EXTERNALDEPENDENCIES\GLM\GLM\CORE\TYPE_VEC1.INL
G:\ALEXANDERENGINE\EXTERNALDEPENDENCIES\GLM\GLM\CORE\TYPE_VEC2.HPP
G:\ALEXANDERENGINE\EXTERNALDEPENDENCIES\GLM\GLM\CORE\TYPE_VEC2.INL
G:\ALEXANDERENGINE\EXTERNALDEPENDENCIES\GLM\GLM\CORE\TYPE_VEC3.HPP
G:\ALEXANDERENGINE\EXTERNALDEPENDENCIES\GLM\GLM\CORE\TYPE_VEC3.INL
G:\ALEXANDERENGINE\EXTERNALDEPENDENCIES\GLM\GLM\CORE\TYPE_VEC4.HPP
G:\ALEXANDERENGINE\EXTERNALDEPENDENCIES\GLM\GLM\CORE\TYPE_VEC4.INL
G:\ALEXANDERENGINE\EXTERNALDEPENDENCIES\GLM\GLM\CORE\TYPE_MAT2X2.HPP
G:\ALEXANDERENGINE\EXTERNALDEPENDENCIES\GLM\GLM\CORE\TYPE_MAT.HPP
G:\ALEXANDERENGINE\EXTERNALDEPENDENCIES\GLM\GLM\CORE\TYPE_MAT2X2.INL
G:\ALEXANDERENGINE\EXTERNALDEPENDENCIES\GLM\GLM\CORE\TYPE_MAT2X3.HPP
G:\ALEXANDERENGINE\EXTERNALDEPENDENCIES\GLM\GLM\CORE\TYPE_MAT2X3.INL
G:\ALEXANDERENGINE\EXTERNALDEPENDENCIES\GLM\GLM\CORE\TYPE_MAT2X4.HPP
G:\ALEXANDERENGINE\EXTERNALDEPENDENCIES\GLM\GLM\CORE\TYPE_MAT2X4.INL
G:\ALEXANDERENGINE\EXTERNALDEPENDENCIES\GLM\GLM\CORE\TYPE_MAT3X2.HPP
G:\ALEXANDERENGINE\EXTERNALDEPENDENCIES\GLM\GLM\CORE\TYPE_MAT3X2.INL
G:\ALEXANDERENGINE\EXTERNALDEPENDENCIES\GLM\GLM\CORE\TYPE_MAT3X3.HPP
G:\ALEXANDERENGINE\EXTERNALDEPENDENCIES\GLM\GLM\CORE\TYPE_MAT3X3.INL
G:\ALEXANDERENGINE\EXTERNALDEPENDENCIES\GLM\GLM\CORE\TYPE_MAT3X4.HPP
G:\ALEXANDERENGINE\EXTERNALDEPENDENCIES\GLM\GLM\CORE\TYPE_MAT3X4.INL
G:\ALEXANDERENGINE\EXTERNALDEPENDENCIES\GLM\GLM\CORE\TYPE_MAT4X2.HPP
G:\ALEXANDERENGINE\EXTERNALDEPENDENCIES\GLM\GLM\CORE\TYPE_MAT4X2.INL
G:\ALEXANDERENGINE\EXTERNALDEPENDENCIES\GLM\GLM\CORE\TYPE_MAT4X3.HPP
G:\ALEXANDERENGINE\EXTERNALDEPENDENCIES\GLM\GLM\CORE\TYPE_MAT4X3.INL
G:\ALEXANDERENGINE\EXTERNALDEPENDENCIES\GLM\GLM\CORE\TYPE_MAT4X4.HPP
G:\ALEXANDERENGINE\EXTERNALDEPENDENCIES\GLM\GLM\CORE\TYPE_MAT4X4.INL
G:\ALEXANDERENGINE\EXTERNALDEPENDENCIES\GLM\GLM\CORE\FUNC_TRIGONOMETRIC.HPP
G:\ALEXANDERENGINE\EXTERNALDEPENDENCIES\GLM\GLM\CORE\FUNC_TRIGONOMETRIC.INL
G:\ALEXANDERENGINE\EXTERNALDEPENDENCIES\GLM\GLM\CORE\_VECTORIZE.HPP
G:\ALEXANDERENGINE\EXTERNALDEPENDENCIES\GLM\GLM\CORE\FUNC_EXPONENTIAL.HPP
G:\ALEXANDERENGINE\EXTERNALDEPENDENCIES\GLM\GLM\CORE\FUNC_EXPONENTIAL.INL
G:\ALEXANDERENGINE\EXTERNALDEPENDENCIES\GLM\GLM\CORE\FUNC_COMMON.HPP
G:\ALEXANDERENGINE\EXTERNALDEPENDENCIES\GLM\GLM\CORE\FUNC_COMMON.INL
G:\ALEXANDERENGINE\EXTERNALDEPENDENCIES\GLM\GLM\CORE\FUNC_PACKING.HPP
G:\ALEXANDERENGINE\EXTERNALDEPENDENCIES\GLM\GLM\CORE\FUNC_PACKING.INL
G:\ALEXANDERENGINE\EXTERNALDEPENDENCIES\GLM\GLM\CORE\FUNC_GEOMETRIC.HPP
G:\ALEXANDERENGINE\EXTERNALDEPENDENCIES\GLM\GLM\CORE\FUNC_GEOMETRIC.INL
G:\ALEXANDERENGINE\EXTERNALDEPENDENCIES\GLM\GLM\CORE\FUNC_MATRIX.HPP
G:\ALEXANDERENGINE\EXTERNALDEPENDENCIES\GLM\GLM\CORE\FUNC_MATRIX.INL
G:\ALEXANDERENGINE\EXTERNALDEPENDENCIES\GLM\GLM\CORE\FUNC_VECTOR_RELATIONAL.HPP
G:\ALEXANDERENGINE\EXTERNALDEPENDENCIES\GLM\GLM\CORE\FUNC_VECTOR_RELATIONAL.INL
G:\ALEXANDERENGINE\EXTERNALDEPENDENCIES\GLM\GLM\CORE\FUNC_INTEGER.HPP
G:\ALEXANDERENGINE\EXTERNALDEPENDENCIES\GLM\GLM\CORE\FUNC_INTEGER.INL
G:\ADDON\SCHOOL\VISUALSTUDIO2013\VC\INCLUDE\INTRIN.H
G:\ADDON\SCHOOL\VISUALSTUDIO2013\VC\INCLUDE\SETJMP.H
G:\ADDON\SCHOOL\VISUALSTUDIO2013\VC\INCLUDE\IMMINTRIN.H
G:\ADDON\SCHOOL\VISUALSTUDIO2013\VC\INCLUDE\WMMINTRIN.H
G:\ADDON\SCHOOL\VISUALSTUDIO2013\VC\INCLUDE\NMMINTRIN.H
G:\ADDON\SCHOOL\VISUALSTUDIO2013\VC\INCLUDE\SMMINTRIN.H
G:\ADDON\SCHOOL\VISUALSTUDIO2013\VC\INCLUDE\TMMINTRIN.H
G:\ADDON\SCHOOL\VISUALSTUDIO2013\VC\INCLUDE\PMMINTRIN.H
G:\ADDON\SCHOOL\VISUALSTUDIO2013\VC\INCLUDE\EMMINTRIN.H
G:\ADDON\SCHOOL\VISUALSTUDIO2013\VC\INCLUDE\XMMINTRIN.H
G:\ADDON\SCHOOL\VISUALSTUDIO2013\VC\INCLUDE\MMINTRIN.H
G:\ADDON\SCHOOL\VISUALSTUDIO2013\VC\INCLUDE\MALLOC.H
G:\ADDON\SCHOOL\VISUALSTUDIO2013\VC\INCLUDE\AMMINTRIN.H
G:\ADDON\SCHOOL\VISUALSTUDIO2013\VC\INCLUDE\MM3DNOW.H
G:\ALEXANDERENGINE\EXTERNALDEPENDENCIES\GLM\GLM\CORE\FUNC_NOISE.HPP
G:\ALEXANDERENGINE\EXTERNALDEPENDENCIES\GLM\GLM\CORE\FUNC_NOISE.INL
G:\ALEXANDERENGINE\ALEXANDER\CORE\INCLUDE\CORE.H
G:\ALEXANDERENGINE\ALEXANDER\CORE\INCLUDE\WINDOW.H
C:\PROGRAM FILES (X86)\WINDOWS KITS\8.1\INCLUDE\UM\WINDOWS.H
C:\PROGRAM FILES (X86)\WINDOWS KITS\8.1\INCLUDE\SHARED\WINAPIFAMILY.H
C:\PROGRAM FILES (X86)\WINDOWS KITS\8.1\INCLUDE\SHARED\SDKDDKVER.H
G:\ADDON\SCHOOL\VISUALSTUDIO2013\VC\INCLUDE\EXCPT.H
G:\ADDON\SCHOOL\VISUALSTUDIO2013\VC\INCLUDE\STDARG.H
C:\PROGRAM FILES (X86)\WINDOWS KITS\8.1\INCLUDE\SHARED\WINDEF.H
C:\PROGRAM FILES (X86)\WINDOWS KITS\8.1\INCLUDE\SHARED\MINWINDEF.H
C:\PROGRAM FILES (X86)\WINDOWS KITS\8.1\INCLUDE\SHARED\SPECSTRINGS.H
C:\PROGRAM FILES (X86)\WINDOWS KITS\8.1\INCLUDE\SHARED\SPECSTRINGS_STRICT.H
C:\PROGRAM FILES (X86)\WINDOWS KITS\8.1\INCLUDE\SHARED\SPECSTRINGS_UNDEF.H
C:\PROGRAM FILES (X86)\WINDOWS KITS\8.1\INCLUDE\SHARED\DRIVERSPECS.H
C:\PROGRAM FILES (X86)\WINDOWS KITS\8.1\INCLUDE\SHARED\SDV_DRIVERSPECS.H
C:\PROGRAM FILES (X86)\WINDOWS KITS\8.1\INCLUDE\UM\WINNT.H
G:\ADDON\SCHOOL\VISUALSTUDIO2013\VC\INCLUDE\CTYPE.H
C:\PROGRAM FILES (X86)\WINDOWS KITS\8.1\INCLUDE\SHARED\KERNELSPECS.H
C:\PROGRAM FILES (X86)\WINDOWS KITS\8.1\INCLUDE\SHARED\BASETSD.H
C:\PROGRAM FILES (X86)\WINDOWS KITS\8.1\INCLUDE\SHARED\GUIDDEF.H
G:\ADDON\SCHOOL\VISUALSTUDIO2013\VC\INCLUDE\STRING.H
C:\PROGRAM FILES (X86)\WINDOWS KITS\8.1\INCLUDE\SHARED\PSHPACK4.H
C:\PROGRAM FILES (X86)\WINDOWS KITS\8.1\INCLUDE\SHARED\POPPACK.H
C:\PROGRAM FILES (X86)\WINDOWS KITS\8.1\INCLUDE\SHARED\PSHPACK2.H
C:\PROGRAM FILES (X86)\WINDOWS KITS\8.1\INCLUDE\SHARED\PSHPACK8.H
C:\PROGRAM FILES (X86)\WINDOWS KITS\8.1\INCLUDE\SHARED\APISET.H
C:\PROGRAM FILES (X86)\WINDOWS KITS\8.1\INCLUDE\SHARED\KTMTYPES.H
C:\PROGRAM FILES (X86)\WINDOWS KITS\8.1\INCLUDE\UM\WINBASE.H
C:\PROGRAM FILES (X86)\WINDOWS KITS\8.1\INCLUDE\SHARED\APISETCCONV.H
C:\PROGRAM FILES (X86)\WINDOWS KITS\8.1\INCLUDE\UM\MINWINBASE.H
C:\PROGRAM FILES (X86)\WINDOWS KITS\8.1\INCLUDE\UM\PROCESSENV.H
C:\PROGRAM FILES (X86)\WINDOWS KITS\8.1\INCLUDE\UM\FILEAPI.H
C:\PROGRAM FILES (X86)\WINDOWS KITS\8.1\INCLUDE\UM\DEBUGAPI.H
C:\PROGRAM FILES (X86)\WINDOWS KITS\8.1\INCLUDE\UM\UTILAPISET.H
C:\PROGRAM FILES (X86)\WINDOWS KITS\8.1\INCLUDE\UM\HANDLEAPI.H
C:\PROGRAM FILES (X86)\WINDOWS KITS\8.1\INCLUDE\UM\ERRHANDLINGAPI.H
C:\PROGRAM FILES (X86)\WINDOWS KITS\8.1\INCLUDE\UM\FIBERSAPI.H
C:\PROGRAM FILES (X86)\WINDOWS KITS\8.1\INCLUDE\UM\NAMEDPIPEAPI.H
C:\PROGRAM FILES (X86)\WINDOWS KITS\8.1\INCLUDE\UM\PROFILEAPI.H
C:\PROGRAM FILES (X86)\WINDOWS KITS\8.1\INCLUDE\UM\HEAPAPI.H
C:\PROGRAM FILES (X86)\WINDOWS KITS\8.1\INCLUDE\UM\IOAPISET.H
C:\PROGRAM FILES (X86)\WINDOWS KITS\8.1\INCLUDE\UM\SYNCHAPI.H
C:\PROGRAM FILES (X86)\WINDOWS KITS\8.1\INCLUDE\UM\INTERLOCKEDAPI.H
C:\PROGRAM FILES (X86)\WINDOWS KITS\8.1\INCLUDE\UM\PROCESSTHREADSAPI.H
C:\PROGRAM FILES (X86)\WINDOWS KITS\8.1\INCLUDE\UM\SYSINFOAPI.H
C:\PROGRAM FILES (X86)\WINDOWS KITS\8.1\INCLUDE\UM\MEMORYAPI.H
C:\PROGRAM FILES (X86)\WINDOWS KITS\8.1\INCLUDE\UM\THREADPOOLLEGACYAPISET.H
C:\PROGRAM FILES (X86)\WINDOWS KITS\8.1\INCLUDE\UM\THREADPOOLAPISET.H
C:\PROGRAM FILES (X86)\WINDOWS KITS\8.1\INCLUDE\UM\BEMAPISET.H
C:\PROGRAM FILES (X86)\WINDOWS KITS\8.1\INCLUDE\UM\JOBAPI.H
C:\PROGRAM FILES (X86)\WINDOWS KITS\8.1\INCLUDE\UM\WOW64APISET.H
C:\PROGRAM FILES (X86)\WINDOWS KITS\8.1\INCLUDE\UM\LIBLOADERAPI.H
C:\PROGRAM FILES (X86)\WINDOWS KITS\8.1\INCLUDE\UM\SECURITYBASEAPI.H
C:\PROGRAM FILES (X86)\WINDOWS KITS\8.1\INCLUDE\UM\NAMESPACEAPI.H
C:\PROGRAM FILES (X86)\WINDOWS KITS\8.1\INCLUDE\UM\SYSTEMTOPOLOGYAPI.H
C:\PROGRAM FILES (X86)\WINDOWS KITS\8.1\INCLUDE\UM\PROCESSTOPOLOGYAPI.H
C:\PROGRAM FILES (X86)\WINDOWS KITS\8.1\INCLUDE\UM\SECURITYAPPCONTAINER.H
C:\PROGRAM FILES (X86)\WINDOWS KITS\8.1\INCLUDE\UM\REALTIMEAPISET.H
C:\PROGRAM FILES (X86)\WINDOWS KITS\8.1\INCLUDE\SHARED\WINERROR.H
C:\PROGRAM FILES (X86)\WINDOWS KITS\8.1\INCLUDE\UM\TIMEZONEAPI.H
C:\PROGRAM FILES (X86)\WINDOWS KITS\8.1\INCLUDE\UM\WINGDI.H
C:\PROGRAM FILES (X86)\WINDOWS KITS\8.1\INCLUDE\SHARED\PSHPACK1.H
C:\PROGRAM FILES (X86)\WINDOWS KITS\8.1\INCLUDE\UM\WINUSER.H
C:\PROGRAM FILES (X86)\WINDOWS KITS\8.1\INCLUDE\SHARED\TVOUT.H
C:\PROGRAM FILES (X86)\WINDOWS KITS\8.1\INCLUDE\UM\WINNLS.H
C:\PROGRAM FILES (X86)\WINDOWS KITS\8.1\INCLUDE\UM\DATETIMEAPI.H
C:\PROGRAM FILES (X86)\WINDOWS KITS\8.1\INCLUDE\UM\STRINGAPISET.H
C:\PROGRAM FILES (X86)\WINDOWS KITS\8.1\INCLUDE\UM\WINCON.H
C:\PROGRAM FILES (X86)\WINDOWS KITS\8.1\INCLUDE\UM\CONSOLEAPI.H
C:\PROGRAM FILES (X86)\WINDOWS KITS\8.1\INCLUDE\UM\WINVER.H
C:\PROGRAM FILES (X86)\WINDOWS KITS\8.1\INCLUDE\UM\VERRSRC.H
C:\PROGRAM FILES (X86)\WINDOWS KITS\8.1\INCLUDE\UM\WINREG.H
C:\PROGRAM FILES (X86)\WINDOWS KITS\8.1\INCLUDE\UM\REASON.H
C:\PROGRAM FILES (X86)\WINDOWS KITS\8.1\INCLUDE\UM\WINNETWK.H
C:\PROGRAM FILES (X86)\WINDOWS KITS\8.1\INCLUDE\SHARED\WNNC.H
C:\PROGRAM FILES (X86)\WINDOWS KITS\8.1\INCLUDE\SHARED\STRALIGN.H
C:\PROGRAM FILES (X86)\WINDOWS KITS\8.1\INCLUDE\UM\WINSVC.H
C:\PROGRAM FILES (X86)\WINDOWS KITS\8.1\INCLUDE\UM\MCX.H
C:\PROGRAM FILES (X86)\WINDOWS KITS\8.1\INCLUDE\UM\IMM.H
C:\PROGRAM FILES (X86)\WINDOWS KITS\8.1\INCLUDE\UM\IME_CMODES.H
G:\ALEXANDERENGINE\ALEXANDER\CORE\INCLUDE\INPUT.H
G:\ALEXANDERENGINE\ALEXANDER\CORE\INCLUDE\GRAPHICS.H
^G:\ALEXANDERENGINE\ALEXANDER\ALEXANDER\TEMPLATE\MANAGER\MANAGER.CPP
G:\ALEXANDERENGINE\ALEXANDER\ALEXANDER\TEMPLATE\MANAGER\MANAGER.H
G:\ADDON\SCHOOL\VISUALSTUDIO2013\VC\INCLUDE\MAP
G:\ADDON\SCHOOL\VISUALSTUDIO2013\VC\INCLUDE\XTREE
G:\ADDON\SCHOOL\VISUALSTUDIO2013\VC\INCLUDE\XMEMORY
G:\ADDON\SCHOOL\VISUALSTUDIO2013\VC\INCLUDE\XMEMORY0
G:\ADDON\SCHOOL\VISUALSTUDIO2013\VC\INCLUDE\CSTDLIB
G:\ADDON\SCHOOL\VISUALSTUDIO2013\VC\INCLUDE\YVALS.H
G:\ADDON\SCHOOL\VISUALSTUDIO2013\VC\INCLUDE\XKEYCHECK.H
G:\ADDON\SCHOOL\VISUALSTUDIO2013\VC\INCLUDE\CRTDEFS.H
G:\ADDON\SCHOOL\VISUALSTUDIO2013\VC\INCLUDE\SAL.H
G:\ADDON\SCHOOL\VISUALSTUDIO2013\VC\INCLUDE\CONCURRENCYSAL.H
G:\ADDON\SCHOOL\VISUALSTUDIO2013\VC\INCLUDE\VADEFS.H
G:\ADDON\SCHOOL\VISUALSTUDIO2013\VC\INCLUDE\USE_ANSI.H
G:\ADDON\SCHOOL\VISUALSTUDIO2013\VC\INCLUDE\STDLIB.H
G:\ADDON\SCHOOL\VISUALSTUDIO2013\VC\INCLUDE\LIMITS.H
G:\ADDON\SCHOOL\VISUALSTUDIO2013\VC\INCLUDE\LIMITS
G:\ADDON\SCHOOL\VISUALSTUDIO2013\VC\INCLUDE\YMATH.H
G:\ADDON\SCHOOL\VISUALSTUDIO2013\VC\INCLUDE\CFLOAT
G:\ADDON\SCHOOL\VISUALSTUDIO2013\VC\INCLUDE\FLOAT.H
G:\ADDON\SCHOOL\VISUALSTUDIO2013\VC\INCLUDE\CRTWRN.H
G:\ADDON\SCHOOL\VISUALSTUDIO2013\VC\INCLUDE\CLIMITS
G:\ADDON\SCHOOL\VISUALSTUDIO2013\VC\INCLUDE\CMATH
G:\ADDON\SCHOOL\VISUALSTUDIO2013\VC\INCLUDE\MATH.H
G:\ADDON\SCHOOL\VISUALSTUDIO2013\VC\INCLUDE\XTGMATH.H
G:\ADDON\SCHOOL\VISUALSTUDIO2013\VC\INCLUDE\XTR1COMMON
G:\ADDON\SCHOOL\VISUALSTUDIO2013\VC\INCLUDE\CWCHAR
G:\ADDON\SCHOOL\VISUALSTUDIO2013\VC\INCLUDE\WCHAR.H
G:\ADDON\SCHOOL\VISUALSTUDIO2013\VC\INCLUDE\SWPRINTF.INL
G:\ADDON\SCHOOL\VISUALSTUDIO2013\VC\INCLUDE\WTIME.INL
G:\ADDON\SCHOOL\VISUALSTUDIO2013\VC\INCLUDE\XSTDDEF
G:\ADDON\SCHOOL\VISUALSTUDIO2013\VC\INCLUDE\CSTDDEF
G:\ADDON\SCHOOL\VISUALSTUDIO2013\VC\INCLUDE\STDDEF.H
G:\ADDON\SCHOOL\VISUALSTUDIO2013\VC\INCLUDE\INITIALIZER_LIST
G:\ADDON\SCHOOL\VISUALSTUDIO2013\VC\INCLUDE\NEW
G:\ADDON\SCHOOL\VISUALSTUDIO2013\VC\INCLUDE\EXCEPTION
G:\ADDON\SCHOOL\VISUALSTUDIO2013\VC\INCLUDE\EH.H
G:\ADDON\SCHOOL\VISUALSTUDIO2013\VC\INCLUDE\MALLOC.H
G:\ADDON\SCHOOL\VISUALSTUDIO2013\VC\INCLUDE\STRING.H
G:\ADDON\SCHOOL\VISUALSTUDIO2013\VC\INCLUDE\XUTILITY
G:\ADDON\SCHOOL\VISUALSTUDIO2013\VC\INCLUDE\UTILITY
G:\ADDON\SCHOOL\VISUALSTUDIO2013\VC\INCLUDE\IOSFWD
G:\ADDON\SCHOOL\VISUALSTUDIO2013\VC\INCLUDE\CSTDIO
G:\ADDON\SCHOOL\VISUALSTUDIO2013\VC\INCLUDE\STDIO.H
G:\ADDON\SCHOOL\VISUALSTUDIO2013\VC\INCLUDE\CSTRING
G:\ADDON\SCHOOL\VISUALSTUDIO2013\VC\INCLUDE\CRTDBG.H
G:\ADDON\SCHOOL\VISUALSTUDIO2013\VC\INCLUDE\TYPE_TRAITS
G:\ADDON\SCHOOL\VISUALSTUDIO2013\VC\INCLUDE\XREFWRAP
G:\ADDON\SCHOOL\VISUALSTUDIO2013\VC\INCLUDE\XATOMIC0.H
G:\ADDON\SCHOOL\VISUALSTUDIO2013\VC\INCLUDE\INTRIN.H
G:\ADDON\SCHOOL\VISUALSTUDIO2013\VC\INCLUDE\SETJMP.H
G:\ADDON\SCHOOL\VISUALSTUDIO2013\VC\INCLUDE\IMMINTRIN.H
G:\ADDON\SCHOOL\VISUALSTUDIO2013\VC\INCLUDE\WMMINTRIN.H
G:\ADDON\SCHOOL\VISUALSTUDIO2013\VC\INCLUDE\NMMINTRIN.H
G:\ADDON\SCHOOL\VISUALSTUDIO2013\VC\INCLUDE\SMMINTRIN.H
G:\ADDON\SCHOOL\VISUALSTUDIO2013\VC\INCLUDE\TMMINTRIN.H
G:\ADDON\SCHOOL\VISUALSTUDIO2013\VC\INCLUDE\PMMINTRIN.H
G:\ADDON\SCHOOL\VISUALSTUDIO2013\VC\INCLUDE\EMMINTRIN.H
G:\ADDON\SCHOOL\VISUALSTUDIO2013\VC\INCLUDE\XMMINTRIN.H
G:\ADDON\SCHOOL\VISUALSTUDIO2013\VC\INCLUDE\MMINTRIN.H
G:\ADDON\SCHOOL\VISUALSTUDIO2013\VC\INCLUDE\AMMINTRIN.H
G:\ADDON\SCHOOL\VISUALSTUDIO2013\VC\INCLUDE\MM3DNOW.H
G:\ADDON\SCHOOL\VISUALSTUDIO2013\VC\INCLUDE\STDEXCEPT
G:\ADDON\SCHOOL\VISUALSTUDIO2013\VC\INCLUDE\XSTRING
G:\ADDON\SCHOOL\VISUALSTUDIO2013\VC\INCLUDE\TUPLE
^G:\ALEXANDERENGINE\ALEXANDER\ALEXANDER\RENDER\GEOMITRY\GEOMITRYINFO.CPP
G:\ALEXANDERENGINE\ALEXANDER\ALEXANDER\RENDER\GEOMITRY\GEOMITRYINFO.H
G:\ALEXANDERENGINE\ALEXANDER\ALEXANDER\EXPORTHEADER.H
G:\ALEXANDERENGINE\EXTERNALDEPENDENCIES\GLEW\INCLUDE\GL\GLEW.H
C:\PROGRAM FILES (X86)\WINDOWS KITS\8.1\INCLUDE\UM\GL\GLU.H
C:\PROGRAM FILES (X86)\WINDOWS KITS\8.1\INCLUDE\SHARED\WINAPIFAMILY.H
C:\PROGRAM FILES (X86)\WINDOWS KITS\8.1\INCLUDE\UM\GL\GL.H
^G:\ALEXANDERENGINE\ALEXANDER\ALEXANDER\CAMERA\CAMRA.CPP
G:\ALEXANDERENGINE\ALEXANDER\ALEXANDER\CAMERA\CAMERA.H
G:\ALEXANDERENGINE\EXTERNALDEPENDENCIES\GLM\GLM\GLM.HPP
G:\ALEXANDERENGINE\EXTERNALDEPENDENCIES\GLM\GLM\CORE\_FIXES.HPP
G:\ADDON\SCHOOL\VISUALSTUDIO2013\VC\INCLUDE\CMATH
G:\ADDON\SCHOOL\VISUALSTUDIO2013\VC\INCLUDE\YVALS.H
G:\ADDON\SCHOOL\VISUALSTUDIO2013\VC\INCLUDE\XKEYCHECK.H
G:\ADDON\SCHOOL\VISUALSTUDIO2013\VC\INCLUDE\CRTDEFS.H
G:\ADDON\SCHOOL\VISUALSTUDIO2013\VC\INCLUDE\SAL.H
G:\ADDON\SCHOOL\VISUALSTUDIO2013\VC\INCLUDE\CONCURRENCYSAL.H
G:\ADDON\SCHOOL\VISUALSTUDIO2013\VC\INCLUDE\VADEFS.H
G:\ADDON\SCHOOL\VISUALSTUDIO2013\VC\INCLUDE\USE_ANSI.H
G:\ADDON\SCHOOL\VISUALSTUDIO2013\VC\INCLUDE\MATH.H
G:\ADDON\SCHOOL\VISUALSTUDIO2013\VC\INCLUDE\XTGMATH.H
G:\ADDON\SCHOOL\VISUALSTUDIO2013\VC\INCLUDE\XTR1COMMON
G:\ADDON\SCHOOL\VISUALSTUDIO2013\VC\INCLUDE\CLIMITS
G:\ADDON\SCHOOL\VISUALSTUDIO2013\VC\INCLUDE\LIMITS.H
G:\ADDON\SCHOOL\VISUALSTUDIO2013\VC\INCLUDE\CFLOAT
G:\ADDON\SCHOOL\VISUALSTUDIO2013\VC\INCLUDE\FLOAT.H
G:\ADDON\SCHOOL\VISUALSTUDIO2013\VC\INCLUDE\CRTWRN.H
G:\ADDON\SCHOOL\VISUALSTUDIO2013\VC\INCLUDE\LIMITS
G:\ADDON\SCHOOL\VISUALSTUDIO2013\VC\INCLUDE\YMATH.H
G:\ADDON\SCHOOL\VISUALSTUDIO2013\VC\INCLUDE\CWCHAR
G:\ADDON\SCHOOL\VISUALSTUDIO2013\VC\INCLUDE\WCHAR.H
G:\ADDON\SCHOOL\VISUALSTUDIO2013\VC\INCLUDE\SWPRINTF.INL
G:\ADDON\SCHOOL\VISUALSTUDIO2013\VC\INCLUDE\WTIME.INL
G:\ADDON\SCHOOL\VISUALSTUDIO2013\VC\INCLUDE\XSTDDEF
G:\ADDON\SCHOOL\VISUALSTUDIO2013\VC\INCLUDE\STDLIB.H
G:\ADDON\SCHOOL\VISUALSTUDIO2013\VC\INCLUDE\CSTDDEF
G:\ADDON\SCHOOL\VISUALSTUDIO2013\VC\INCLUDE\STDDEF.H
G:\ADDON\SCHOOL\VISUALSTUDIO2013\VC\INCLUDE\INITIALIZER_LIST
G:\ADDON\SCHOOL\VISUALSTUDIO2013\VC\INCLUDE\CSTDIO
G:\ADDON\SCHOOL\VISUALSTUDIO2013\VC\INCLUDE\STDIO.H
G:\ALEXANDERENGINE\EXTERNALDEPENDENCIES\GLM\GLM\CORE\SETUP.HPP
G:\ALEXANDERENGINE\EXTERNALDEPENDENCIES\GLM\GLM\CORE\_DETAIL.HPP
G:\ADDON\SCHOOL\VISUALSTUDIO2013\VC\INCLUDE\CASSERT
G:\ADDON\SCHOOL\VISUALSTUDIO2013\VC\INCLUDE\ASSERT.H
G:\ALEXANDERENGINE\EXTERNALDEPENDENCIES\GLM\GLM\CORE\TYPE.HPP
G:\ALEXANDERENGINE\EXTERNALDEPENDENCIES\GLM\GLM\CORE\TYPE_HALF.HPP
G:\ADDON\SCHOOL\VISUALSTUDIO2013\VC\INCLUDE\CSTDLIB
G:\ALEXANDERENGINE\EXTERNALDEPENDENCIES\GLM\GLM\CORE\TYPE_HALF.INL
G:\ALEXANDERENGINE\EXTERNALDEPENDENCIES\GLM\GLM\CORE\TYPE_FLOAT.HPP
G:\ALEXANDERENGINE\EXTERNALDEPENDENCIES\GLM\GLM\CORE\TYPE_INT.HPP
G:\ALEXANDERENGINE\EXTERNALDEPENDENCIES\GLM\GLM\CORE\TYPE_GENTYPE.HPP
G:\ALEXANDERENGINE\EXTERNALDEPENDENCIES\GLM\GLM\CORE\TYPE_SIZE.HPP
G:\ALEXANDERENGINE\EXTERNALDEPENDENCIES\GLM\GLM\CORE\TYPE_VEC1.HPP
G:\ALEXANDERENGINE\EXTERNALDEPENDENCIES\GLM\GLM\CORE\TYPE_VEC.HPP
G:\ALEXANDERENGINE\EXTERNALDEPENDENCIES\GLM\GLM\CORE\_SWIZZLE.HPP
G:\ALEXANDERENGINE\EXTERNALDEPENDENCIES\GLM\GLM\CORE\_SWIZZLE_FUNC.HPP
G:\ALEXANDERENGINE\EXTERNALDEPENDENCIES\GLM\GLM\CORE\TYPE_VEC1.INL
G:\ALEXANDERENGINE\EXTERNALDEPENDENCIES\GLM\GLM\CORE\TYPE_VEC2.HPP
G:\ALEXANDERENGINE\EXTERNALDEPENDENCIES\GLM\GLM\CORE\TYPE_VEC2.INL
G:\ALEXANDERENGINE\EXTERNALDEPENDENCIES\GLM\GLM\CORE\TYPE_VEC3.HPP
G:\ALEXANDERENGINE\EXTERNALDEPENDENCIES\GLM\GLM\CORE\TYPE_VEC3.INL
G:\ALEXANDERENGINE\EXTERNALDEPENDENCIES\GLM\GLM\CORE\TYPE_VEC4.HPP
G:\ALEXANDERENGINE\EXTERNALDEPENDENCIES\GLM\GLM\CORE\TYPE_VEC4.INL
G:\ALEXANDERENGINE\EXTERNALDEPENDENCIES\GLM\GLM\CORE\TYPE_MAT2X2.HPP
G:\ALEXANDERENGINE\EXTERNALDEPENDENCIES\GLM\GLM\CORE\TYPE_MAT.HPP
G:\ALEXANDERENGINE\EXTERNALDEPENDENCIES\GLM\GLM\CORE\TYPE_MAT2X2.INL
G:\ALEXANDERENGINE\EXTERNALDEPENDENCIES\GLM\GLM\CORE\TYPE_MAT2X3.HPP
G:\ALEXANDERENGINE\EXTERNALDEPENDENCIES\GLM\GLM\CORE\TYPE_MAT2X3.INL
G:\ALEXANDERENGINE\EXTERNALDEPENDENCIES\GLM\GLM\CORE\TYPE_MAT2X4.HPP
G:\ALEXANDERENGINE\EXTERNALDEPENDENCIES\GLM\GLM\CORE\TYPE_MAT2X4.INL
G:\ALEXANDERENGINE\EXTERNALDEPENDENCIES\GLM\GLM\CORE\TYPE_MAT3X2.HPP
G:\ALEXANDERENGINE\EXTERNALDEPENDENCIES\GLM\GLM\CORE\TYPE_MAT3X2.INL
G:\ALEXANDERENGINE\EXTERNALDEPENDENCIES\GLM\GLM\CORE\TYPE_MAT3X3.HPP
G:\ALEXANDERENGINE\EXTERNALDEPENDENCIES\GLM\GLM\CORE\TYPE_MAT3X3.INL
G:\ALEXANDERENGINE\EXTERNALDEPENDENCIES\GLM\GLM\CORE\TYPE_MAT3X4.HPP
G:\ALEXANDERENGINE\EXTERNALDEPENDENCIES\GLM\GLM\CORE\TYPE_MAT3X4.INL
G:\ALEXANDERENGINE\EXTERNALDEPENDENCIES\GLM\GLM\CORE\TYPE_MAT4X2.HPP
G:\ALEXANDERENGINE\EXTERNALDEPENDENCIES\GLM\GLM\CORE\TYPE_MAT4X2.INL
G:\ALEXANDERENGINE\EXTERNALDEPENDENCIES\GLM\GLM\CORE\TYPE_MAT4X3.HPP
G:\ALEXANDERENGINE\EXTERNALDEPENDENCIES\GLM\GLM\CORE\TYPE_MAT4X3.INL
G:\ALEXANDERENGINE\EXTERNALDEPENDENCIES\GLM\GLM\CORE\TYPE_MAT4X4.HPP
G:\ALEXANDERENGINE\EXTERNALDEPENDENCIES\GLM\GLM\CORE\TYPE_MAT4X4.INL
G:\ALEXANDERENGINE\EXTERNALDEPENDENCIES\GLM\GLM\CORE\FUNC_TRIGONOMETRIC.HPP
G:\ALEXANDERENGINE\EXTERNALDEPENDENCIES\GLM\GLM\CORE\FUNC_TRIGONOMETRIC.INL
G:\ALEXANDERENGINE\EXTERNALDEPENDENCIES\GLM\GLM\CORE\_VECTORIZE.HPP
G:\ALEXANDERENGINE\EXTERNALDEPENDENCIES\GLM\GLM\CORE\FUNC_EXPONENTIAL.HPP
G:\ALEXANDERENGINE\EXTERNALDEPENDENCIES\GLM\GLM\CORE\FUNC_EXPONENTIAL.INL
G:\ALEXANDERENGINE\EXTERNALDEPENDENCIES\GLM\GLM\CORE\FUNC_COMMON.HPP
G:\ALEXANDERENGINE\EXTERNALDEPENDENCIES\GLM\GLM\CORE\FUNC_COMMON.INL
G:\ALEXANDERENGINE\EXTERNALDEPENDENCIES\GLM\GLM\CORE\FUNC_PACKING.HPP
G:\ALEXANDERENGINE\EXTERNALDEPENDENCIES\GLM\GLM\CORE\FUNC_PACKING.INL
G:\ALEXANDERENGINE\EXTERNALDEPENDENCIES\GLM\GLM\CORE\FUNC_GEOMETRIC.HPP
G:\ALEXANDERENGINE\EXTERNALDEPENDENCIES\GLM\GLM\CORE\FUNC_GEOMETRIC.INL
G:\ALEXANDERENGINE\EXTERNALDEPENDENCIES\GLM\GLM\CORE\FUNC_MATRIX.HPP
G:\ALEXANDERENGINE\EXTERNALDEPENDENCIES\GLM\GLM\CORE\FUNC_MATRIX.INL
G:\ALEXANDERENGINE\EXTERNALDEPENDENCIES\GLM\GLM\CORE\FUNC_VECTOR_RELATIONAL.HPP
G:\ALEXANDERENGINE\EXTERNALDEPENDENCIES\GLM\GLM\CORE\FUNC_VECTOR_RELATIONAL.INL
G:\ALEXANDERENGINE\EXTERNALDEPENDENCIES\GLM\GLM\CORE\FUNC_INTEGER.HPP
G:\ALEXANDERENGINE\EXTERNALDEPENDENCIES\GLM\GLM\CORE\FUNC_INTEGER.INL
G:\ADDON\SCHOOL\VISUALSTUDIO2013\VC\INCLUDE\INTRIN.H
G:\ADDON\SCHOOL\VISUALSTUDIO2013\VC\INCLUDE\SETJMP.H
G:\ADDON\SCHOOL\VISUALSTUDIO2013\VC\INCLUDE\IMMINTRIN.H
G:\ADDON\SCHOOL\VISUALSTUDIO2013\VC\INCLUDE\WMMINTRIN.H
G:\ADDON\SCHOOL\VISUALSTUDIO2013\VC\INCLUDE\NMMINTRIN.H
G:\ADDON\SCHOOL\VISUALSTUDIO2013\VC\INCLUDE\SMMINTRIN.H
G:\ADDON\SCHOOL\VISUALSTUDIO2013\VC\INCLUDE\TMMINTRIN.H
G:\ADDON\SCHOOL\VISUALSTUDIO2013\VC\INCLUDE\PMMINTRIN.H
G:\ADDON\SCHOOL\VISUALSTUDIO2013\VC\INCLUDE\EMMINTRIN.H
G:\ADDON\SCHOOL\VISUALSTUDIO2013\VC\INCLUDE\XMMINTRIN.H
G:\ADDON\SCHOOL\VISUALSTUDIO2013\VC\INCLUDE\MMINTRIN.H
G:\ADDON\SCHOOL\VISUALSTUDIO2013\VC\INCLUDE\MALLOC.H
G:\ADDON\SCHOOL\VISUALSTUDIO2013\VC\INCLUDE\AMMINTRIN.H
G:\ADDON\SCHOOL\VISUALSTUDIO2013\VC\INCLUDE\MM3DNOW.H
G:\ALEXANDERENGINE\EXTERNALDEPENDENCIES\GLM\GLM\CORE\FUNC_NOISE.HPP
G:\ALEXANDERENGINE\EXTERNALDEPENDENCIES\GLM\GLM\CORE\FUNC_NOISE.INL
G:\ALEXANDERENGINE\ALEXANDER\ALEXANDER\EXPORTHEADER.H
G:\ALEXANDERENGINE\EXTERNALDEPENDENCIES\GLM\GLM\GTX\TRANSFORM.HPP
G:\ALEXANDERENGINE\EXTERNALDEPENDENCIES\GLM\GLM\GTC\MATRIX_TRANSFORM.HPP
G:\ALEXANDERENGINE\EXTERNALDEPENDENCIES\GLM\GLM\GTC\MATRIX_TRANSFORM.INL
G:\ALEXANDERENGINE\EXTERNALDEPENDENCIES\GLM\GLM\GTX\TRANSFORM.INL
^G:\ALEXANDERENGINE\ALEXANDER\ALEXANDER\RENDER\BUFFER\BUFFERINFO.CPP
G:\ALEXANDERENGINE\ALEXANDER\ALEXANDER\RENDER\BUFFER\BUFFERINFO.H
G:\ALEXANDERENGINE\ALEXANDER\ALEXANDER\EXPORTHEADER.H
G:\ALEXANDERENGINE\EXTERNALDEPENDENCIES\GLEW\INCLUDE\GL\GLEW.H
C:\PROGRAM FILES (X86)\WINDOWS KITS\8.1\INCLUDE\UM\GL\GLU.H
C:\PROGRAM FILES (X86)\WINDOWS KITS\8.1\INCLUDE\SHARED\WINAPIFAMILY.H
C:\PROGRAM FILES (X86)\WINDOWS KITS\8.1\INCLUDE\UM\GL\GL.H
^G:\ALEXANDERENGINE\ALEXANDER\ALEXANDER\AUDIO\AUDIO.CPP
G:\ALEXANDERENGINE\ALEXANDER\ALEXANDER\AUDIO\AUDIO.H
G:\ADDON\SCHOOL\VISUALSTUDIO2013\VC\INCLUDE\IOSTREAM
G:\ADDON\SCHOOL\VISUALSTUDIO2013\VC\INCLUDE\ISTREAM
G:\ADDON\SCHOOL\VISUALSTUDIO2013\VC\INCLUDE\OSTREAM
G:\ADDON\SCHOOL\VISUALSTUDIO2013\VC\INCLUDE\IOS
G:\ADDON\SCHOOL\VISUALSTUDIO2013\VC\INCLUDE\XLOCNUM
G:\ADDON\SCHOOL\VISUALSTUDIO2013\VC\INCLUDE\CLIMITS
G:\ADDON\SCHOOL\VISUALSTUDIO2013\VC\INCLUDE\YVALS.H
G:\ADDON\SCHOOL\VISUALSTUDIO2013\VC\INCLUDE\XKEYCHECK.H
G:\ADDON\SCHOOL\VISUALSTUDIO2013\VC\INCLUDE\CRTDEFS.H
G:\ADDON\SCHOOL\VISUALSTUDIO2013\VC\INCLUDE\SAL.H
G:\ADDON\SCHOOL\VISUALSTUDIO2013\VC\INCLUDE\CONCURRENCYSAL.H
G:\ADDON\SCHOOL\VISUALSTUDIO2013\VC\INCLUDE\VADEFS.H
G:\ADDON\SCHOOL\VISUALSTUDIO2013\VC\INCLUDE\USE_ANSI.H
G:\ADDON\SCHOOL\VISUALSTUDIO2013\VC\INCLUDE\LIMITS.H
G:\ADDON\SCHOOL\VISUALSTUDIO2013\VC\INCLUDE\CMATH
G:\ADDON\SCHOOL\VISUALSTUDIO2013\VC\INCLUDE\MATH.H
G:\ADDON\SCHOOL\VISUALSTUDIO2013\VC\INCLUDE\XTGMATH.H
G:\ADDON\SCHOOL\VISUALSTUDIO2013\VC\INCLUDE\XTR1COMMON
G:\ADDON\SCHOOL\VISUALSTUDIO2013\VC\INCLUDE\CSTDIO
G:\ADDON\SCHOOL\VISUALSTUDIO2013\VC\INCLUDE\STDIO.H
G:\ADDON\SCHOOL\VISUALSTUDIO2013\VC\INCLUDE\SWPRINTF.INL
G:\ADDON\SCHOOL\VISUALSTUDIO2013\VC\INCLUDE\CSTDLIB
G:\ADDON\SCHOOL\VISUALSTUDIO2013\VC\INCLUDE\STDLIB.H
G:\ADDON\SCHOOL\VISUALSTUDIO2013\VC\INCLUDE\STREAMBUF
G:\ADDON\SCHOOL\VISUALSTUDIO2013\VC\INCLUDE\XIOSBASE
G:\ADDON\SCHOOL\VISUALSTUDIO2013\VC\INCLUDE\XLOCALE
G:\ADDON\SCHOOL\VISUALSTUDIO2013\VC\INCLUDE\CSTRING
G:\ADDON\SCHOOL\VISUALSTUDIO2013\VC\INCLUDE\STRING.H
G:\ADDON\SCHOOL\VISUALSTUDIO2013\VC\INCLUDE\STDEXCEPT
G:\ADDON\SCHOOL\VISUALSTUDIO2013\VC\INCLUDE\EXCEPTION
G:\ADDON\SCHOOL\VISUALSTUDIO2013\VC\INCLUDE\XSTDDEF
G:\ADDON\SCHOOL\VISUALSTUDIO2013\VC\INCLUDE\CSTDDEF
G:\ADDON\SCHOOL\VISUALSTUDIO2013\VC\INCLUDE\STDDEF.H
G:\ADDON\SCHOOL\VISUALSTUDIO2013\VC\INCLUDE\INITIALIZER_LIST
G:\ADDON\SCHOOL\VISUALSTUDIO2013\VC\INCLUDE\EH.H
G:\ADDON\SCHOOL\VISUALSTUDIO2013\VC\INCLUDE\MALLOC.H
G:\ADDON\SCHOOL\VISUALSTUDIO2013\VC\INCLUDE\XSTRING
G:\ADDON\SCHOOL\VISUALSTUDIO2013\VC\INCLUDE\XMEMORY0
G:\ADDON\SCHOOL\VISUALSTUDIO2013\VC\INCLUDE\LIMITS
G:\ADDON\SCHOOL\VISUALSTUDIO2013\VC\INCLUDE\YMATH.H
G:\ADDON\SCHOOL\VISUALSTUDIO2013\VC\INCLUDE\CFLOAT
G:\ADDON\SCHOOL\VISUALSTUDIO2013\VC\INCLUDE\FLOAT.H
G:\ADDON\SCHOOL\VISUALSTUDIO2013\VC\INCLUDE\CRTWRN.H
G:\ADDON\SCHOOL\VISUALSTUDIO2013\VC\INCLUDE\CWCHAR
G:\ADDON\SCHOOL\VISUALSTUDIO2013\VC\INCLUDE\WCHAR.H
G:\ADDON\SCHOOL\VISUALSTUDIO2013\VC\INCLUDE\WTIME.INL
G:\ADDON\SCHOOL\VISUALSTUDIO2013\VC\INCLUDE\NEW
G:\ADDON\SCHOOL\VISUALSTUDIO2013\VC\INCLUDE\XUTILITY
G:\ADDON\SCHOOL\VISUALSTUDIO2013\VC\INCLUDE\UTILITY
G:\ADDON\SCHOOL\VISUALSTUDIO2013\VC\INCLUDE\IOSFWD
G:\ADDON\SCHOOL\VISUALSTUDIO2013\VC\INCLUDE\CRTDBG.H
G:\ADDON\SCHOOL\VISUALSTUDIO2013\VC\INCLUDE\TYPE_TRAITS
G:\ADDON\SCHOOL\VISUALSTUDIO2013\VC\INCLUDE\XREFWRAP
G:\ADDON\SCHOOL\VISUALSTUDIO2013\VC\INCLUDE\XATOMIC0.H
G:\ADDON\SCHOOL\VISUALSTUDIO2013\VC\INCLUDE\INTRIN.H
G:\ADDON\SCHOOL\VISUALSTUDIO2013\VC\INCLUDE\SETJMP.H
G:\ADDON\SCHOOL\VISUALSTUDIO2013\VC\INCLUDE\IMMINTRIN.H
G:\ADDON\SCHOOL\VISUALSTUDIO2013\VC\INCLUDE\WMMINTRIN.H
G:\ADDON\SCHOOL\VISUALSTUDIO2013\VC\INCLUDE\NMMINTRIN.H
G:\ADDON\SCHOOL\VISUALSTUDIO2013\VC\INCLUDE\SMMINTRIN.H
G:\ADDON\SCHOOL\VISUALSTUDIO2013\VC\INCLUDE\TMMINTRIN.H
G:\ADDON\SCHOOL\VISUALSTUDIO2013\VC\INCLUDE\PMMINTRIN.H
G:\ADDON\SCHOOL\VISUALSTUDIO2013\VC\INCLUDE\EMMINTRIN.H
G:\ADDON\SCHOOL\VISUALSTUDIO2013\VC\INCLUDE\XMMINTRIN.H
G:\ADDON\SCHOOL\VISUALSTUDIO2013\VC\INCLUDE\MMINTRIN.H
G:\ADDON\SCHOOL\VISUALSTUDIO2013\VC\INCLUDE\AMMINTRIN.H
G:\ADDON\SCHOOL\VISUALSTUDIO2013\VC\INCLUDE\MM3DNOW.H
G:\ADDON\SCHOOL\VISUALSTUDIO2013\VC\INCLUDE\TYPEINFO
G:\ADDON\SCHOOL\VISUALSTUDIO2013\VC\INCLUDE\XLOCINFO
G:\ADDON\SCHOOL\VISUALSTUDIO2013\VC\INCLUDE\XLOCINFO.H
G:\ADDON\SCHOOL\VISUALSTUDIO2013\VC\INCLUDE\CTYPE.H
G:\ADDON\SCHOOL\VISUALSTUDIO2013\VC\INCLUDE\LOCALE.H
G:\ADDON\SCHOOL\VISUALSTUDIO2013\VC\INCLUDE\XDEBUG
G:\ADDON\SCHOOL\VISUALSTUDIO2013\VC\INCLUDE\XMEMORY
G:\ADDON\SCHOOL\VISUALSTUDIO2013\VC\INCLUDE\XFACET
G:\ADDON\SCHOOL\VISUALSTUDIO2013\VC\INCLUDE\SYSTEM_ERROR
G:\ADDON\SCHOOL\VISUALSTUDIO2013\VC\INCLUDE\CERRNO
G:\ADDON\SCHOOL\VISUALSTUDIO2013\VC\INCLUDE\ERRNO.H
G:\ADDON\SCHOOL\VISUALSTUDIO2013\VC\INCLUDE\SHARE.H
G:\ADDON\SCHOOL\VISUALSTUDIO2013\VC\INCLUDE\STRING
G:\ADDON\SCHOOL\VISUALSTUDIO2013\VC\INCLUDE\ITERATOR
C:\PROGRAM FILES (X86)\WINDOWS KITS\8.1\INCLUDE\UM\WINDOWS.H
C:\PROGRAM FILES (X86)\WINDOWS KITS\8.1\INCLUDE\SHARED\WINAPIFAMILY.H
C:\PROGRAM FILES (X86)\WINDOWS KITS\8.1\INCLUDE\SHARED\SDKDDKVER.H
G:\ADDON\SCHOOL\VISUALSTUDIO2013\VC\INCLUDE\EXCPT.H
G:\ADDON\SCHOOL\VISUALSTUDIO2013\VC\INCLUDE\STDARG.H
C:\PROGRAM FILES (X86)\WINDOWS KITS\8.1\INCLUDE\SHARED\WINDEF.H
C:\PROGRAM FILES (X86)\WINDOWS KITS\8.1\INCLUDE\SHARED\MINWINDEF.H
C:\PROGRAM FILES (X86)\WINDOWS KITS\8.1\INCLUDE\SHARED\SPECSTRINGS.H
C:\PROGRAM FILES (X86)\WINDOWS KITS\8.1\INCLUDE\SHARED\SPECSTRINGS_STRICT.H
C:\PROGRAM FILES (X86)\WINDOWS KITS\8.1\INCLUDE\SHARED\SPECSTRINGS_UNDEF.H
C:\PROGRAM FILES (X86)\WINDOWS KITS\8.1\INCLUDE\SHARED\DRIVERSPECS.H
C:\PROGRAM FILES (X86)\WINDOWS KITS\8.1\INCLUDE\SHARED\SDV_DRIVERSPECS.H
C:\PROGRAM FILES (X86)\WINDOWS KITS\8.1\INCLUDE\UM\WINNT.H
C:\PROGRAM FILES (X86)\WINDOWS KITS\8.1\INCLUDE\SHARED\KERNELSPECS.H
C:\PROGRAM FILES (X86)\WINDOWS KITS\8.1\INCLUDE\SHARED\BASETSD.H
C:\PROGRAM FILES (X86)\WINDOWS KITS\8.1\INCLUDE\SHARED\GUIDDEF.H
C:\PROGRAM FILES (X86)\WINDOWS KITS\8.1\INCLUDE\SHARED\PSHPACK4.H
C:\PROGRAM FILES (X86)\WINDOWS KITS\8.1\INCLUDE\SHARED\POPPACK.H
C:\PROGRAM FILES (X86)\WINDOWS KITS\8.1\INCLUDE\SHARED\PSHPACK2.H
C:\PROGRAM FILES (X86)\WINDOWS KITS\8.1\INCLUDE\SHARED\PSHPACK8.H
C:\PROGRAM FILES (X86)\WINDOWS KITS\8.1\INCLUDE\SHARED\APISET.H
C:\PROGRAM FILES (X86)\WINDOWS KITS\8.1\INCLUDE\SHARED\KTMTYPES.H
C:\PROGRAM FILES (X86)\WINDOWS KITS\8.1\INCLUDE\UM\WINBASE.H
C:\PROGRAM FILES (X86)\WINDOWS KITS\8.1\INCLUDE\SHARED\APISETCCONV.H
C:\PROGRAM FILES (X86)\WINDOWS KITS\8.1\INCLUDE\UM\MINWINBASE.H
C:\PROGRAM FILES (X86)\WINDOWS KITS\8.1\INCLUDE\UM\PROCESSENV.H
C:\PROGRAM FILES (X86)\WINDOWS KITS\8.1\INCLUDE\UM\FILEAPI.H
C:\PROGRAM FILES (X86)\WINDOWS KITS\8.1\INCLUDE\UM\DEBUGAPI.H
C:\PROGRAM FILES (X86)\WINDOWS KITS\8.1\INCLUDE\UM\UTILAPISET.H
C:\PROGRAM FILES (X86)\WINDOWS KITS\8.1\INCLUDE\UM\HANDLEAPI.H
C:\PROGRAM FILES (X86)\WINDOWS KITS\8.1\INCLUDE\UM\ERRHANDLINGAPI.H
C:\PROGRAM FILES (X86)\WINDOWS KITS\8.1\INCLUDE\UM\FIBERSAPI.H
C:\PROGRAM FILES (X86)\WINDOWS KITS\8.1\INCLUDE\UM\NAMEDPIPEAPI.H
C:\PROGRAM FILES (X86)\WINDOWS KITS\8.1\INCLUDE\UM\PROFILEAPI.H
C:\PROGRAM FILES (X86)\WINDOWS KITS\8.1\INCLUDE\UM\HEAPAPI.H
C:\PROGRAM FILES (X86)\WINDOWS KITS\8.1\INCLUDE\UM\IOAPISET.H
C:\PROGRAM FILES (X86)\WINDOWS KITS\8.1\INCLUDE\UM\SYNCHAPI.H
C:\PROGRAM FILES (X86)\WINDOWS KITS\8.1\INCLUDE\UM\INTERLOCKEDAPI.H
C:\PROGRAM FILES (X86)\WINDOWS KITS\8.1\INCLUDE\UM\PROCESSTHREADSAPI.H
C:\PROGRAM FILES (X86)\WINDOWS KITS\8.1\INCLUDE\UM\SYSINFOAPI.H
C:\PROGRAM FILES (X86)\WINDOWS KITS\8.1\INCLUDE\UM\MEMORYAPI.H
C:\PROGRAM FILES (X86)\WINDOWS KITS\8.1\INCLUDE\UM\THREADPOOLLEGACYAPISET.H
C:\PROGRAM FILES (X86)\WINDOWS KITS\8.1\INCLUDE\UM\THREADPOOLAPISET.H
C:\PROGRAM FILES (X86)\WINDOWS KITS\8.1\INCLUDE\UM\BEMAPISET.H
C:\PROGRAM FILES (X86)\WINDOWS KITS\8.1\INCLUDE\UM\JOBAPI.H
C:\PROGRAM FILES (X86)\WINDOWS KITS\8.1\INCLUDE\UM\WOW64APISET.H
C:\PROGRAM FILES (X86)\WINDOWS KITS\8.1\INCLUDE\UM\LIBLOADERAPI.H
C:\PROGRAM FILES (X86)\WINDOWS KITS\8.1\INCLUDE\UM\SECURITYBASEAPI.H
C:\PROGRAM FILES (X86)\WINDOWS KITS\8.1\INCLUDE\UM\NAMESPACEAPI.H
C:\PROGRAM FILES (X86)\WINDOWS KITS\8.1\INCLUDE\UM\SYSTEMTOPOLOGYAPI.H
C:\PROGRAM FILES (X86)\WINDOWS KITS\8.1\INCLUDE\UM\PROCESSTOPOLOGYAPI.H
C:\PROGRAM FILES (X86)\WINDOWS KITS\8.1\INCLUDE\UM\SECURITYAPPCONTAINER.H
C:\PROGRAM FILES (X86)\WINDOWS KITS\8.1\INCLUDE\UM\REALTIMEAPISET.H
C:\PROGRAM FILES (X86)\WINDOWS KITS\8.1\INCLUDE\SHARED\WINERROR.H
C:\PROGRAM FILES (X86)\WINDOWS KITS\8.1\INCLUDE\UM\TIMEZONEAPI.H
C:\PROGRAM FILES (X86)\WINDOWS KITS\8.1\INCLUDE\UM\WINGDI.H
C:\PROGRAM FILES (X86)\WINDOWS KITS\8.1\INCLUDE\SHARED\PSHPACK1.H
C:\PROGRAM FILES (X86)\WINDOWS KITS\8.1\INCLUDE\UM\WINUSER.H
C:\PROGRAM FILES (X86)\WINDOWS KITS\8.1\INCLUDE\SHARED\TVOUT.H
C:\PROGRAM FILES (X86)\WINDOWS KITS\8.1\INCLUDE\UM\WINNLS.H
C:\PROGRAM FILES (X86)\WINDOWS KITS\8.1\INCLUDE\UM\DATETIMEAPI.H
C:\PROGRAM FILES (X86)\WINDOWS KITS\8.1\INCLUDE\UM\STRINGAPISET.H
C:\PROGRAM FILES (X86)\WINDOWS KITS\8.1\INCLUDE\UM\WINCON.H
C:\PROGRAM FILES (X86)\WINDOWS KITS\8.1\INCLUDE\UM\CONSOLEAPI.H
C:\PROGRAM FILES (X86)\WINDOWS KITS\8.1\INCLUDE\UM\WINVER.H
C:\PROGRAM FILES (X86)\WINDOWS KITS\8.1\INCLUDE\UM\VERRSRC.H
C:\PROGRAM FILES (X86)\WINDOWS KITS\8.1\INCLUDE\UM\WINREG.H
C:\PROGRAM FILES (X86)\WINDOWS KITS\8.1\INCLUDE\UM\REASON.H
C:\PROGRAM FILES (X86)\WINDOWS KITS\8.1\INCLUDE\UM\WINNETWK.H
C:\PROGRAM FILES (X86)\WINDOWS KITS\8.1\INCLUDE\SHARED\WNNC.H
C:\PROGRAM FILES (X86)\WINDOWS KITS\8.1\INCLUDE\SHARED\STRALIGN.H
C:\PROGRAM FILES (X86)\WINDOWS KITS\8.1\INCLUDE\UM\WINSVC.H
C:\PROGRAM FILES (X86)\WINDOWS KITS\8.1\INCLUDE\UM\MCX.H
C:\PROGRAM FILES (X86)\WINDOWS KITS\8.1\INCLUDE\UM\IMM.H
C:\PROGRAM FILES (X86)\WINDOWS KITS\8.1\INCLUDE\UM\IME_CMODES.H
C:\PROGRAM FILES (X86)\WINDOWS KITS\8.1\INCLUDE\UM\MMSYSTEM.H
C:\PROGRAM FILES (X86)\WINDOWS KITS\8.1\INCLUDE\UM\MMSYSCOM.H
C:\PROGRAM FILES (X86)\WINDOWS KITS\8.1\INCLUDE\UM\MCIAPI.H
C:\PROGRAM FILES (X86)\WINDOWS KITS\8.1\INCLUDE\UM\MMISCAPI.H
C:\PROGRAM FILES (X86)\WINDOWS KITS\8.1\INCLUDE\UM\MMISCAPI2.H
C:\PROGRAM FILES (X86)\WINDOWS KITS\8.1\INCLUDE\UM\PLAYSOUNDAPI.H
C:\PROGRAM FILES (X86)\WINDOWS KITS\8.1\INCLUDE\UM\MMEAPI.H
C:\PROGRAM FILES (X86)\WINDOWS KITS\8.1\INCLUDE\UM\TIMEAPI.H
C:\PROGRAM FILES (X86)\WINDOWS KITS\8.1\INCLUDE\UM\JOYSTICKAPI.H
G:\ALEXANDERENGINE\ALEXANDER\ALEXANDER\EXPORTHEADER.H
G:\ADDON\SCHOOL\VISUALSTUDIO2013\VC\INCLUDE\MAP
G:\ADDON\SCHOOL\VISUALSTUDIO2013\VC\INCLUDE\XTREE
G:\ADDON\SCHOOL\VISUALSTUDIO2013\VC\INCLUDE\TUPLE
G:\ADDON\SCHOOL\VISUALSTUDIO2013\VC\INCLUDE\CONIO.H
G:\ALEXANDERENGINE\EXTERNALDEPENDENCIES\IRRKLANG\INCLUDE\IRRKLANG.H
G:\ALEXANDERENGINE\EXTERNALDEPENDENCIES\IRRKLANG\INCLUDE\IK_IRRKLANGTYPES.H
G:\ALEXANDERENGINE\EXTERNALDEPENDENCIES\IRRKLANG\INCLUDE\IK_VEC3D.H
G:\ALEXANDERENGINE\EXTERNALDEPENDENCIES\IRRKLANG\INCLUDE\IK_IREFCOUNTED.H
G:\ALEXANDERENGINE\EXTERNALDEPENDENCIES\IRRKLANG\INCLUDE\IK_IVIRTUALREFCOUNTED.H
G:\ALEXANDERENGINE\EXTERNALDEPENDENCIES\IRRKLANG\INCLUDE\IK_ESOUNDOUTPUTDRIVERS.H
G:\ALEXANDERENGINE\EXTERNALDEPENDENCIES\IRRKLANG\INCLUDE\IK_ESOUNDENGINEOPTIONS.H
G:\ALEXANDERENGINE\EXTERNALDEPENDENCIES\IRRKLANG\INCLUDE\IK_ESTREAMMODES.H
G:\ALEXANDERENGINE\EXTERNALDEPENDENCIES\IRRKLANG\INCLUDE\IK_SAUDIOSTREAMFORMAT.H
G:\ALEXANDERENGINE\EXTERNALDEPENDENCIES\IRRKLANG\INCLUDE\IK_ISOUNDENGINE.H
G:\ALEXANDERENGINE\EXTERNALDEPENDENCIES\IRRKLANG\INCLUDE\IK_ISOUNDSOURCE.H
G:\ALEXANDERENGINE\EXTERNALDEPENDENCIES\IRRKLANG\INCLUDE\IK_ISOUND.H
G:\ALEXANDERENGINE\EXTERNALDEPENDENCIES\IRRKLANG\INCLUDE\IK_ISOUNDEFFECTCONTROL.H
G:\ALEXANDERENGINE\EXTERNALDEPENDENCIES\IRRKLANG\INCLUDE\IK_IFILEFACTORY.H
G:\ALEXANDERENGINE\EXTERNALDEPENDENCIES\IRRKLANG\INCLUDE\IK_ISOUNDMIXEDOUTPUTRECEIVER.H
G:\ALEXANDERENGINE\EXTERNALDEPENDENCIES\IRRKLANG\INCLUDE\IK_IAUDIOSTREAM.H
G:\ALEXANDERENGINE\EXTERNALDEPENDENCIES\IRRKLANG\INCLUDE\IK_IAUDIOSTREAMLOADER.H
G:\ALEXANDERENGINE\EXTERNALDEPENDENCIES\IRRKLANG\INCLUDE\IK_IFILEREADER.H
G:\ALEXANDERENGINE\EXTERNALDEPENDENCIES\IRRKLANG\INCLUDE\IK_ISOUNDSTOPEVENTRECEIVER.H
G:\ALEXANDERENGINE\EXTERNALDEPENDENCIES\IRRKLANG\INCLUDE\IK_ISOUNDDEVICELIST.H
G:\ALEXANDERENGINE\EXTERNALDEPENDENCIES\IRRKLANG\INCLUDE\IK_IAUDIORECORDER.H
