^G:\ALEXANDERENGINE\ALEXANDER\ALEXANDER\AUDIO\AUDIO.CPP|G:\ALEXANDERENGINE\ALEXANDER\ALEXANDER\CAMERA\CAMRA.CPP|G:\ALEXANDERENGINE\ALEXANDER\ALEXANDER\RANDOM GENERATOR\RANDOMGENERATOR.CPP|G:\ALEXANDERENGINE\ALEXANDER\ALEXANDER\RENDER\BUFFER\BUFFERINFO.CPP|G:\ALEXANDERENGINE\ALEXANDER\ALEXANDER\RENDER\GEOMITRY\GEOMITRYINFO.CPP|G:\ALEXANDERENGINE\ALEXANDER\ALEXANDER\RENDER\RENDERABLE\RENDERABLE.CPP|G:\ALEXANDERENGINE\ALEXANDER\ALEXANDER\TEMPLATE\MANAGER\MANAGER.CPP|G:\ALEXANDERENGINE\ALEXANDER\ALEXANDER\UNIFORMS\UNIFORM.CPP|G:\ALEXANDERENGINE\ALEXANDER\ALEXANDER\UNIFORMS\UNIFORMMANAGER\UNIFORMHANDLER.CPP
G:\ALEXANDERENGINE\ALEXANDER\ALEXANDER\DEBUG\VC120.PDB
G:\ALEXANDERENGINE\ALEXANDER\ALEXANDER\DEBUG\VC120.IDB
G:\ALEXANDERENGINE\ALEXANDER\ALEXANDER\DEBUG\AUDIO.OBJ
G:\ALEXANDERENGINE\ALEXANDER\ALEXANDER\DEBUG\BUFFERINFO.OBJ
G:\ALEXANDERENGINE\ALEXANDER\ALEXANDER\DEBUG\GEOMITRYINFO.OBJ
G:\ALEXANDERENGINE\ALEXANDER\ALEXANDER\DEBUG\RANDOMGENERATOR.OBJ
G:\ALEXANDERENGINE\ALEXANDER\ALEXANDER\DEBUG\UNIFORM.OBJ
^G:\ALEXANDERENGINE\ALEXANDER\ALEXANDER\AUDIO\AUDIO.CPP
G:\ALEXANDERENGINE\ALEXANDER\ALEXANDER\DEBUG\VC120.PDB
^G:\ALEXANDERENGINE\ALEXANDER\ALEXANDER\RENDER\BUFFER\BUFFERINFO.CPP
G:\ALEXANDERENGINE\ALEXANDER\ALEXANDER\DEBUG\VC120.PDB
^G:\ALEXANDERENGINE\ALEXANDER\ALEXANDER\CAMERA\CAMRA.CPP
G:\ALEXANDERENGINE\ALEXANDER\ALEXANDER\DEBUG\VC120.PDB
^G:\ALEXANDERENGINE\ALEXANDER\ALEXANDER\RENDER\GEOMITRY\GEOMITRYINFO.CPP
G:\ALEXANDERENGINE\ALEXANDER\ALEXANDER\DEBUG\VC120.PDB
^G:\ALEXANDERENGINE\ALEXANDER\ALEXANDER\TEMPLATE\MANAGER\MANAGER.CPP
G:\ALEXANDERENGINE\ALEXANDER\ALEXANDER\DEBUG\VC120.PDB
^G:\ALEXANDERENGINE\ALEXANDER\ALEXANDER\RANDOM GENERATOR\RANDOMGENERATOR.CPP
G:\ALEXANDERENGINE\ALEXANDER\ALEXANDER\DEBUG\VC120.PDB
^G:\ALEXANDERENGINE\ALEXANDER\ALEXANDER\RENDER\RENDERABLE\RENDERABLE.CPP
G:\ALEXANDERENGINE\ALEXANDER\ALEXANDER\DEBUG\VC120.PDB
^G:\ALEXANDERENGINE\ALEXANDER\ALEXANDER\UNIFORMS\UNIFORM.CPP
G:\ALEXANDERENGINE\ALEXANDER\ALEXANDER\DEBUG\VC120.PDB
^G:\ALEXANDERENGINE\ALEXANDER\ALEXANDER\UNIFORMS\UNIFORMMANAGER\UNIFORMHANDLER.CPP
G:\ALEXANDERENGINE\ALEXANDER\ALEXANDER\DEBUG\VC120.PDB
